# --> Including file '/workspace/build/Brunel/Rec/Brunel/tests/options/MiniBrunel-hive-singlethread.py'
# <-- End of file '/workspace/build/Brunel/Rec/Brunel/tests/options/MiniBrunel-hive-singlethread.py'
# --> Including file '/workspace/tmp/tmpkFHtDT.opts'
# <-- End of file '/workspace/tmp/tmpkFHtDT.opts'
# applying configuration of MiniBrunel
Disabled
# /***** User MiniBrunel/MiniBrunel ******************************************************************
# |-GECCut                   = -1
# |-RunFastForwardFitter     = True
# |-forwardSecondLoop        = True
# |-EnableHive               = True
# |-RunRich                  = True
# |-ThreadPoolSize           = 1  (default: 2)
# |-CallgrindProfile         = False
# |-TimelineFile             = 'timeline.csv'
# |-minPTVeloUT              = -1.0
# |-VeloOnly                 = False
# |-FTRawBankVersion         = 2
# |-VeloConfiguration        = 'BestThroughput'
# |-VeloStrategy             = 'ForwardThenBackward'
# |-DDDBtag                  = 'dddb-20171010'  (default: 'dddb-20171010')
# |-EventSlots               = 1  (default: 2)
# |-DisableTiming            = True
# |-minPTForward             = -1.0
# |-Scheduler                = 'HLTControlFlowMgr'
# |-TopAlgs                  = []  (default: [])
# |-HLT1Only                 = False
# |-HLT1Fitter               = False
# |-HLT1ParamKalman          = False
# |-IPCut                    = -1.0
# |-VeloClusteringVersion    = 'VPClus'
# |-EvtMax                   = 100  (default: 1000)
# |-CondDBtag                = 'sim-20170301-vc-md100'  (default: 'sim-20170301-vc-md100')
# |-DecodingOnly             = False
# |-HLT1VectorKalman         = False
# |-Simulation               = True  (default: False)
# |-HLT1VectorMinimal        = True
# |-IgnoreChecksum           = False
# |-CreateTimeLine           = True
# |-DataType                 = 'Upgrade'  (default: 'Upgrade')
# |-IntelProfile             = False
# |-RunChecks                = False
# |-HistogramFile            = ''
# |-preselectionPTForward    = -1.0
# |-EventStoreType           = 'HiveWhiteBoard'
# |-HLT1BestPerf             = False
# |-setControlFlowTreeMyself = False
# |-ExtremeScenario          = False
# |-LLAMode                  = 'Disabled'
# \----- (End of User MiniBrunel/MiniBrunel) ---------------------------------------------------------
# applying configuration of Brunel
# /***** User Brunel/Brunel **************************************************************************
# |-FilterTrackStates   = True
# |-PhysFilterMask      = None
# |-DatasetName         = 'future'  (default: 'Brunel')
# |-Histograms          = 'OfflineFull'
# |-DBSnapshotDirectory = '/group/online/hlt/conditions'
# |-ProductionMode      = False
# |-WriteLumi           = False
# |-SplitRawEventInput  = None
# |-PackType            = 'NONE'  (default: 'TES')
# |-DDDBtag             = 'dddb-20171010'  (default: '')
# |-WithMC              = False  (default: False)
# |-MainSequence        = ['ProcessPhase/Reco', 'ProcessPhase/Moni']  (default: None)
# |-OutputType          = 'NONE'  (default: 'DST')
# |-DisableTiming       = True  (default: False)
# |-DigiType            = 'Default'
# |-UseDBSnapshot       = False
# |-PartitionName       = 'LHCb'
# |-VetoHltErrorEvents  = False  (default: True)
# |-MCCheckSequence     = None
# |-InputType           = 'DIGI'  (default: 'MDF')
# |-OnlineMode          = False
# |-WriteFSR            = True
# |-SkipTracking        = False
# |-SkipEvents          = 0
# |-PrintFreq           = 1
# |-Detectors           = ['VP', 'UT', 'FT']  (default: None)
# |-EvtMax              = 100  (default: -1)
# |-Simulation          = True  (default: False)
# |-MergeGenFSR         = True
# |-Context             = 'Offline'
# |-RecoSequence        = ['Decoding', 'TrFast', 'TrBest', 'RICH', 'CALOFUTURE']  (default: None)
# |-CondDBtag           = 'sim-20170301-vc-md100'  (default: '')
# |-MCLinksSequence     = ['Unpack', 'Tr', 'Calo']  (default: ['Unpack', 'Tr', 'Calo'])
# |-Hlt2FilterCode      = ''
# |-Hlt1FilterCode      = ''
# |-OutputLevel         = 3
# |-InitSequence        = []  (default: None)
# |-DataType            = 'Upgrade'  (default: 'Upgrade')
# |-NoWarnings          = False
# |-SplitRawEventOutput = 4.3
# |-EventStoreType      = None
# |-RawBanksToKill      = None
# |-SpecialData         = []  (default: [])
# |-Monitors            = []  (default: [])
# \----- (End of User Brunel/Brunel) -----------------------------------------------------------------
# /***** User RecSysConf/RecSysConf ******************************************************************
# |-SkipTracking = False
# |-InputType    = 'DIGI'  (default: '')
# |-DataType     = 'Upgrade'  (default: '')
# |-OutputLevel  = 3
# |-Histograms   = 'OfflineFull'
# |-Detectors    = ['VP', 'UT', 'FT']  (default: ['VP', 'UT', 'FT', 'Rich', 'Tr', 'Calo', 'Muon'])
# |-OutputType   = 'NONE'  (default: '')
# |-Simulation   = True  (default: False)
# |-Context      = 'Offline'
# |-SpecialData  = []  (default: [])
# |-RecoSequence = ['Decoding', 'TrFast', 'TrBest', 'RICH', 'CALOFUTURE']  (default: None)
# |-OnlineMode   = False
# \----- (End of User RecSysConf/RecSysConf) ---------------------------------------------------------
# /***** User TrackSys/TrackSys **********************************************************************
# |-VeloClustering           = 'VPClus'  (default: 'VPClus')
# |-BestThroughput           = False
# |-FilterBeforeFit          = True
# |-TrackingSequence         = ['TrFast', 'TrBest']  (default: [])
# |-ExpertTracking           = ['simplifiedGeometry']  (default: [])
# |-ExpertHistos             = False
# |-TrackExtraInfoAlgorithms = []  (default: [])
# |-DataType                 = 'Upgrade'  (default: 'Upgrade')
# |-VeloUpgradeOnly          = False
# |-WithMC                   = False
# |-TrackTypes               = ['Velo', 'Upstream', 'Forward', 'Downstream', 'Seeding', 'Match']  (default: [])
# |-OutputType               = ''
# |-VPLinkingOfflineClusters = True
# |-Simulation               = True  (default: False)
# |-ConfigHLT1               = {'GEC': -1, 'VeloHLT1': {'Configuration': 'BestThroughput', 'Strategy': 'ForwardThenBackward'}, 'ExtremeScenario': False, 'VeloUTHLT1': {'IPCut': False, 'IPCutVal': 0.1, 'minPT': 300.0}, 'ForwardHLT1': {'PreselectionPT': 300.0, 'SecondLoop': True, 'minPT': 400.0}, 'UseMomentumGuidedSearchWindow': False}
# |                          (default: {'VeloHLT1': {'Configuration': 'BestThroughput', 'Strategy': 'ForwardThenBackward'}, 'GEC': -1, 'ExtremeScenario': False, 'VeloUTHLT1': {'IPCut': False, 'IPCutVal': 0.1, 'minPT': 300.0}, 'ForwardHLT1': {'PreselectionPT': 300.0, 'SecondLoop': True, 'minPT': 400.0}, 'UseMomentumGuidedSearchWindow': False})
# |-TracksToConvert          = ['Velo', 'Upstream', 'ForwardFast', 'ForwardBest', 'Seeding', 'Match', 'Downstream']
# |                          (default: ['Velo', 'Upstream', 'ForwardFast', 'ForwardBest', 'Seeding', 'Match', 'Downstream'])
# |-GlobalCuts               = {}  (default: {})
# |-SpecialData              = []  (default: [])
# |-HltMode                  = False
# \----- (End of User TrackSys/TrackSys) -------------------------------------------------------------
# /***** User RecMoniConf/RecMoniConf ****************************************************************
# |-SkipTracking = False
# |-DataType     = 'Upgrade'  (default: '')
# |-Detectors    = ['VP', 'UT', 'FT']  (default: ['VP', 'UT', 'FT', 'Rich', 'Tr', 'Calo', 'Muon'])
# |-Histograms   = 'OfflineFull'
# |-OutputLevel  = 3
# |-Simulation   = True  (default: False)
# |-Context      = 'Offline'
# |-MoniSequence = ['RICH']  (default: None)
# |-OnlineMode   = False
# |-CheckEnabled = False
# \----- (End of User RecMoniConf/RecMoniConf) -------------------------------------------------------
# No Writer defined for DIGI
# TEST:  caloFutureSequence
# Apply CaloFutureProcessor configuration for ['Digits', 'Clusters', 'Photons', 'MergedPi0s', 'SplitPhotons', 'Electrons'] and ['InAcceptance', 'Match', 'Energy', 'Chi2', 'DLL', 'NeutralPID']
# CaloFutureProcessor : upgrade configuration without Spd/Prs
# Configurabe : Counter level is 1
# Configured Ecal Clusters Reco : ClusterFutureReco
# Configured photon and electron hypo reconstruction : ClassifyClusters
# Configured Merged Pi0 Reco : MergedPi0FutureReco
# Configured CaloFuture PIDs           : CaloFuturePIDsCaloFuturePIDsForCaloFutureProcessor
# Configure caloFutureSequencer  : CaloFutureProcessorCaloFutureSeq
# WARNING: Pre-appending Downstream track copy in TES from vector<Track> to KeyedContainer, this should be a temporary solution
# WARNING: Pre-appending ForwardBest track copy in TES from vector<Track> to KeyedContainer, this should be a temporary solution
# WARNING: Pre-appending ForwardFast track copy in TES from vector<Track> to KeyedContainer, this should be a temporary solution
# WARNING: Pre-appending Match track copy in TES from vector<Track> to KeyedContainer, this should be a temporary solution
# WARNING: Pre-appending Seeding track copy in TES from vector<Track> to KeyedContainer, this should be a temporary solution
# WARNING: Pre-appending Upstream track copy in TES from vector<Track> to KeyedContainer, this should be a temporary solution
# WARNING: Pre-appending Velo track copy in TES from vector<Track> to KeyedContainer, this should be a temporary solution
# WARNING: Pre-appending vertex copy in TES from vector<RecVertex> to KeyedContainer, this should be a temporary solution
# WARNING: Detector unknown 'RICH'
ApplicationMgr    SUCCESS
====================================================================================================================================
                                                   Welcome to Brunel version HEAD
                                          running on lbbuild53.cern.ch on Wed Oct  9 06:31:30 2019
====================================================================================================================================
ApplicationMgr       INFO Application Manager Configured successfully
ToolSvc.GitDDDB      INFO opening Git repository '/cvmfs/lhcb.cern.ch/lib/lhcb/git-conddb/DDDB.git'
ToolSvc.GitDDDB      INFO using commit 'upgrade/dddb-20171010' corresponding to 323d59e7a33cceb53ed75f33bcff0381d1c43578
ToolSvc.GitSIMCOND   INFO opening Git repository '/cvmfs/lhcb.cern.ch/lib/lhcb/git-conddb/SIMCOND.git'
ToolSvc.GitSIMCOND   INFO using commit 'upgrade/sim-20170301-vc-md100' corresponding to 5f8531f8a9a85d86a13c350dcbe32ef37b2dac5e
DetectorPersist...   INFO Added successfully Conversion service:XmlCnvSvc
DetectorDataSvc   SUCCESS Detector description database: git:/lhcb.xml
TransportSvc         INFO Initialize the static pointer to DetDesc::IGeometryErrorSvc
TransportSvc         INFO Recovery of geometry errors is  ENABLED
HLTControlFlowMgr    INFO Start initialization
EventSelector.D...WARNING Input stream DATAFILE='mdf:root://eoslhcb.cern.ch//eos/lhcb/grid/prod/lhcb/swtest/lhcb/swtest/MiniBrunel/MC_Upg_Down_201710_43k.mdf' SVC='LHCb::MDFSelector' OPT='READ'already in use
EventSelector.D...WARNING Input stream DATAFILE='mdf:root://eoslhcb.cern.ch//eos/lhcb/grid/prod/lhcb/swtest/lhcb/swtest/MiniBrunel/MC_Upg_Down_201710_43k.mdf' SVC='LHCb::MDFSelector' OPT='READ'already in use
EventSelector.D...WARNING Input stream DATAFILE='mdf:root://eoslhcb.cern.ch//eos/lhcb/grid/prod/lhcb/swtest/lhcb/swtest/MiniBrunel/MC_Upg_Down_201710_43k.mdf' SVC='LHCb::MDFSelector' OPT='READ'already in use
EventSelector.D...WARNING Input stream DATAFILE='mdf:root://eoslhcb.cern.ch//eos/lhcb/grid/prod/lhcb/swtest/lhcb/swtest/MiniBrunel/MC_Upg_Down_201710_43k.mdf' SVC='LHCb::MDFSelector' OPT='READ'already in use
EventSelector.D...WARNING Input stream DATAFILE='mdf:root://eoslhcb.cern.ch//eos/lhcb/grid/prod/lhcb/swtest/lhcb/swtest/MiniBrunel/MC_Upg_Down_201710_43k.mdf' SVC='LHCb::MDFSelector' OPT='READ'already in use
EventSelector.D...WARNING Input stream DATAFILE='mdf:root://eoslhcb.cern.ch//eos/lhcb/grid/prod/lhcb/swtest/lhcb/swtest/MiniBrunel/MC_Upg_Down_201710_43k.mdf' SVC='LHCb::MDFSelector' OPT='READ'already in use
EventSelector.D...WARNING Input stream DATAFILE='mdf:root://eoslhcb.cern.ch//eos/lhcb/grid/prod/lhcb/swtest/lhcb/swtest/MiniBrunel/MC_Upg_Down_201710_43k.mdf' SVC='LHCb::MDFSelector' OPT='READ'already in use
EventSelector.D...WARNING Input stream DATAFILE='mdf:root://eoslhcb.cern.ch//eos/lhcb/grid/prod/lhcb/swtest/lhcb/swtest/MiniBrunel/MC_Upg_Down_201710_43k.mdf' SVC='LHCb::MDFSelector' OPT='READ'already in use
EventSelector.D...WARNING Input stream DATAFILE='mdf:root://eoslhcb.cern.ch//eos/lhcb/grid/prod/lhcb/swtest/lhcb/swtest/MiniBrunel/MC_Upg_Down_201710_43k.mdf' SVC='LHCb::MDFSelector' OPT='READ'already in use
EventSelector.D...WARNING Input stream DATAFILE='mdf:root://eoslhcb.cern.ch//eos/lhcb/grid/prod/lhcb/swtest/lhcb/swtest/MiniBrunel/MC_Upg_Down_201710_43k.mdf' SVC='LHCb::MDFSelector' OPT='READ'already in use
EventSelector.D...WARNING Input stream DATAFILE='mdf:root://eoslhcb.cern.ch//eos/lhcb/grid/prod/lhcb/swtest/lhcb/swtest/MiniBrunel/MC_Upg_Down_201710_43k.mdf' SVC='LHCb::MDFSelector' OPT='READ'already in use
EventSelector.D...WARNING Input stream DATAFILE='mdf:root://eoslhcb.cern.ch//eos/lhcb/grid/prod/lhcb/swtest/lhcb/swtest/MiniBrunel/MC_Upg_Down_201710_43k.mdf' SVC='LHCb::MDFSelector' OPT='READ'already in use
EventSelector.D...WARNING Input stream DATAFILE='mdf:root://eoslhcb.cern.ch//eos/lhcb/grid/prod/lhcb/swtest/lhcb/swtest/MiniBrunel/MC_Upg_Down_201710_43k.mdf' SVC='LHCb::MDFSelector' OPT='READ'already in use
EventSelector.D...WARNING Input stream DATAFILE='mdf:root://eoslhcb.cern.ch//eos/lhcb/grid/prod/lhcb/swtest/lhcb/swtest/MiniBrunel/MC_Upg_Down_201710_43k.mdf' SVC='LHCb::MDFSelector' OPT='READ'already in use
EventSelector.D...WARNING Input stream DATAFILE='mdf:root://eoslhcb.cern.ch//eos/lhcb/grid/prod/lhcb/swtest/lhcb/swtest/MiniBrunel/MC_Upg_Down_201710_43k.mdf' SVC='LHCb::MDFSelector' OPT='READ'already in use
EventSelector.D...WARNING Input stream DATAFILE='mdf:root://eoslhcb.cern.ch//eos/lhcb/grid/prod/lhcb/swtest/lhcb/swtest/MiniBrunel/MC_Upg_Down_201710_43k.mdf' SVC='LHCb::MDFSelector' OPT='READ'already in use
EventSelector.D...WARNING Input stream DATAFILE='mdf:root://eoslhcb.cern.ch//eos/lhcb/grid/prod/lhcb/swtest/lhcb/swtest/MiniBrunel/MC_Upg_Down_201710_43k.mdf' SVC='LHCb::MDFSelector' OPT='READ'already in use
EventSelector.D...WARNING Input stream DATAFILE='mdf:root://eoslhcb.cern.ch//eos/lhcb/grid/prod/lhcb/swtest/lhcb/swtest/MiniBrunel/MC_Upg_Down_201710_43k.mdf' SVC='LHCb::MDFSelector' OPT='READ'already in use
EventSelector.D...WARNING Input stream DATAFILE='mdf:root://eoslhcb.cern.ch//eos/lhcb/grid/prod/lhcb/swtest/lhcb/swtest/MiniBrunel/MC_Upg_Down_201710_43k.mdf' SVC='LHCb::MDFSelector' OPT='READ'already in use
RootHistSvc          INFO Writing ROOT histograms to: future-100ev-histos.root
HistogramPersis...   INFO Added successfully Conversion service:RootHistSvc
HistogramDataSvc     INFO Added stream file:/workspace/build/PARAM/ParamFiles/v8r27p1/data/PhotonPdf.root as CaloFutureNeutralPIDs
HistogramDataSvc     INFO Added stream file:/workspace/build/PARAM/ParamFiles/v8r27p1/data/CaloPIDs_DC09_v1.root as CaloFuturePIDs
DeFTDetector         INFO Current FT geometry version =   62
PrStoreFTHit         INFO FtDEt = DetectorElement::/dd/Structure/LHCb/AfterMagnetRegion/T/FTGeometryInfo::GeometryInfoPlus::name=/dd/Structure/LHCb/AfterMagnetRegion/T/FT; LVolume=/dd/Geometry/AfterMagnetRegion/T/FT/lvFT; supported by /dd/Structure/LHCb/AfterMagnetRegion/T with ReplicaPath=(0,) (pvFT);

DeVP                 INFO There are 208 sensors (left: 104, right: 104)
MagneticFieldSvc     INFO Opened magnetic field file : /workspace/build/DBASE/FieldMap/v5r7/cdf/field.v5r0.c1.down.cdf
MagneticFieldSvc     INFO Opened magnetic field file : /workspace/build/DBASE/FieldMap/v5r7/cdf/field.v5r0.c2.down.cdf
MagneticFieldSvc     INFO Opened magnetic field file : /workspace/build/DBASE/FieldMap/v5r7/cdf/field.v5r0.c3.down.cdf
MagneticFieldSvc     INFO Opened magnetic field file : /workspace/build/DBASE/FieldMap/v5r7/cdf/field.v5r0.c4.down.cdf
MagneticFieldSvc     INFO Map scaled by factor 1 with polarity internally used: -1 signed relative current: -1
PrVeloUTFast.Pr...   INFO Start generation of VeloUT Bdl LUTs
PrVeloUTFast.Pr...   INFO Generation of VeloUT Bdl LUTs finished
PrVeloUTFast.Pr...   INFO Start generation of VeloUT deflection LUTs
PrVeloUTFast.Pr...   INFO Generation of VeloUT deflection LUTs finished
RndmGenSvc.Engine    INFO Generator engine type:CLHEP::RanluxEngine
RndmGenSvc.Engine    INFO Current Seed:1234567 Luxury:3
RndmGenSvc           INFO Using Random engine:HepRndm::Engine<CLHEP::RanluxEngine>
ForwardFitterAl...   INFO Rec/Track/ForwardFastAsTrackV1 -> Rec/Track/ForwardFastFitted using ForwardFitterAlgFast.Fitter
PrLongLivedTrac...   INFO =========================================================
PrLongLivedTrac...   INFO  XPredTol           = 200000/p + 6
PrLongLivedTrac...   INFO  TolMatchConst      = 20000/p + 1.5
PrLongLivedTrac...   INFO  TolUConst          = 20000/p + 2.5
PrLongLivedTrac...   INFO  TolVConst          = 2000/p + 0.5
PrLongLivedTrac...   INFO  MaxDeltaPConst     = 0/p + 0.25
PrLongLivedTrac...   INFO  XCorrectionConst   = 23605/p + 0.4
PrLongLivedTrac...   INFO  MaxXTracks         = 2
PrLongLivedTrac...   INFO  MaxChi2DistXTracks = 0.2
PrLongLivedTrac...   INFO  MaxXUTracks        = 2
PrLongLivedTrac...   INFO  MaxChi2XProjection = 35000/p + 4.5
PrLongLivedTrac...   INFO  OverlapTol         = 2
PrLongLivedTrac...   INFO  SeedCut            = -1
PrLongLivedTrac...   INFO  MaxChi2            = 20
PrLongLivedTrac...   INFO  MaxChi2ThreeHits   = 10
PrLongLivedTrac...   INFO  MaxWindowSize      = 10
PrLongLivedTrac...   INFO  RemoveUsed         = 0
PrLongLivedTrac...   INFO  RemoveAll          = 0
PrLongLivedTrac...   INFO  LongChi2           = 1.5
PrLongLivedTrac...   INFO  TimingMeasurements = 0
PrLongLivedTrac...   INFO =========================================================
PrLongLivedTrac...   INFO zMagnetParams 5379.88 -2143.93 366.124 119074 -0.0100333 -0.146055 1260.96
PrLongLivedTrac...   INFO momentumParams 1217.77 454.598 3353.39
ToolSvc.RichPar...   INFO Particle types considered = [electron, muon, pion, kaon, proton, deuteron, below_threshold]
FutureEcalZSup       INFO Zsup method 2D Threshold 20
FutureHcalZSup       INFO Zsup method 1D Threshold 4
FutureEcalShare...WARNING  o Type profileC is not registered
FutureEcalShare...   INFO  Energy   mask : [3x3, 3x3, 3x3] (from DB)
FutureEcalShare...   INFO  Position mask : [3x3, 3x3, 3x3] (from DB)
FutureEcalCovar...   INFO  Energy   mask : [3x3, 3x3, 3x3] (from DB)
FutureEcalCovar...   INFO  Position mask : [3x3, 3x3, 3x3] (from DB)
FutureEcalCovar...   INFO  Has initialized with parameters:
FutureEcalCovar...   INFO  	 'Detector'         = '/dd/Structure/LHCb/DownstreamRegion/Ecal'
FutureEcalCovar...   INFO  	 ==  Parameters for covariance estimation ==
FutureEcalCovar...   INFO Stochastic 	 : [0.21, 0.14, 0.14] Sqrt(GeV)	 : from Covariance DB
FutureEcalCovar...   INFO GainError 	 : [0.045, 0.025, 0.025] 	 : from Covariance DB
FutureEcalCovar...   INFO IncoherentNoise 	 : [2.2, 2.2, 2.2] ADC	 : from Covariance DB
FutureEcalCovar...   INFO CoherentNoise 	 : [1.3, 1.3, 1.3] ADC	 : from Covariance DB
FutureEcalCovar...   INFO ConstantE 	 : [0, 0, 0] MeV	 : from Covariance DB
FutureEcalCovar...   INFO ConstantX 	 : [9, 2, 0.5] mm	 : from Covariance DB
FutureEcalCovar...   INFO ConstantY 	 : [9, 2, 0.5] mm	 : from Covariance DB
ToolSvc.ECorrec...WARNING  o Type globalC is not registered
ToolSvc.ECorrec...WARNING  o Type globalC is not registered
EcalPIDeFuture       INFO init with CondDB, m_conditionName = Conditions/ParticleID/Calo/EcalPIDe
BremPIDeFuture       INFO init with CondDB, m_conditionName = Conditions/ParticleID/Calo/BremPIDe
HcalPIDeFuture       INFO init with CondDB, m_conditionName = Conditions/ParticleID/Calo/HcalPIDe
EcalPIDmuFuture      INFO init with CondDB, m_conditionName = Conditions/ParticleID/Calo/EcalPIDmu
HcalPIDmuFuture      INFO init with CondDB, m_conditionName = Conditions/ParticleID/Calo/HcalPIDmu
HiveDataBrokerSvc WARNING non-reentrant algorithm: TrackAddNNGhostId
HiveDataBrokerSvc WARNING PrGECFilter contains alternatives which require resolution...
found matching output for /Event/DAQ/RawEvent -- updating info
Please update input to not require alternatives, and instead properly configure the dataloader
HiveDataBrokerSvc WARNING LHCb::Pr::StoreUTHit/PrStoreUTHit contains alternatives which require resolution...
found matching output for /Event/DAQ/RawEvent -- updating info
Please update input to not require alternatives, and instead properly configure the dataloader
HiveDataBrokerSvc WARNING CaloFutureRawToDigits/FutureEcalZSup contains alternatives which require resolution...
found matching output for /Event/DAQ/RawEvent -- updating info
Please update input to not require alternatives, and instead properly configure the dataloader
HiveDataBrokerSvc WARNING CaloFutureRawToDigits/FutureHcalZSup contains alternatives which require resolution...
found matching output for /Event/DAQ/RawEvent -- updating info
Please update input to not require alternatives, and instead properly configure the dataloader
HLTControlFlowMgr    INFO Concurrency level information:
HLTControlFlowMgr    INFO  o Number of events slots: 1
HLTControlFlowMgr    INFO  o TBB thread pool size:  'ThreadPoolSize':1
HLTControlFlowMgr    INFO ---> End of Initialization. This took 40671 ms
ApplicationMgr       INFO Application Manager Initialized successfully
ApplicationMgr       INFO Application Manager Started successfully
IODataManager       ERROR Referring to existing dataset mdf:root://eoslhcb.cern.ch//eos/lhcb/grid/prod/lhcb/swtest/lhcb/swtest/MiniBrunel/MC_Upg_Down_201710_43k.mdf by its physical name.
IODataManager       ERROR You may not be able to navigate back to the input file -- processing continues
EventSelector        INFO Stream:EventSelector.DataStreamTool_1 Def:DATAFILE='mdf:root://eoslhcb.cern.ch//eos/lhcb/grid/prod/lhcb/swtest/lhcb/swtest/MiniBrunel/MC_Upg_Down_201710_43k.mdf' SVC='LHCb::MDFSelector' OPT='READ'
HLTControlFlowMgr    INFO Will measure time between events 10 and 90 (stop might be some events later)
HLTControlFlowMgr    INFO Starting loop on events
EventSelector.D...   INFO Compression:0 Checksum:1
EventPersistenc...   INFO Added successfully Conversion service:RootCnvSvc
EventPersistenc...   INFO Added successfully Conversion service:LHCb::RawDataCnvSvc
ToolSvc.VPClust...   INFO VPLightClusters::nPixels = 1, not storing anymore list of pixels contributing to cluster
HLTControlFlowMgr    INFO ---> Loop over 100 Events Finished -  WSS 676.848, timed 81 Events: 18796 ms, Evts/s = 4.30943
ApplicationMgr       INFO Application Manager Stopped successfully
RichFutureDecode  SUCCESS Number of counters : 9
 |    Counter                                      |     #     |    sum     | mean/eff^* | rms/err^*  |     min     |     max     |
 | "Error decoding RawBank"                        |         0 |
 | "EventID Mismatch"                              |         0 |
 | "Invalid RichSmartID read from FlatList data for|         0 |
 | "L1 bank with invalid RICH detector mapping"    |         0 |
 | "Magic Pattern mis-match"                       |         0 |
 | "ODIN Mismatch"                                 |         0 |
 | "Retrieved null pointer to RawBank"             |         0 |
 | "Small/Large PD flag mis-match"                 |         0 |
 | "Unknown PD ID"                                 |         0 |
PrStoreUTHit      SUCCESS Number of counters : 2
 |    Counter                                      |     #     |    sum     | mean/eff^* | rms/err^*  |     min     |     max     |
 | "# valid banks"                                 |     18000 |
 | "# valid source ID"                             |     18000 |
VPClustering      SUCCESS Number of counters : 1
 |    Counter                                      |     #     |    sum     | mean/eff^* | rms/err^*  |     min     |     max     |
 | "Nb of Produced Clusters"                       |       100 |     179223 |     1792.2 |
PrPixelTracking...SUCCESS Number of counters : 2
 |    Counter                                      |     #     |    sum     | mean/eff^* | rms/err^*  |     min     |     max     |
 | "NbClustersProduced"                            |       100 |     179223 |     1792.2 |
 | "NbVeloTracksProduced"                          |       100 |      20212 |     202.12 |
ConverterVPForP...SUCCESS Number of counters : 1
 |    Counter                                      |     #     |    sum     | mean/eff^* | rms/err^*  |     min     |     max     |
 | "Nb of Produced Tracks"                         |       100 |      20212 |     202.12 |
PatPV3D           SUCCESS Number of counters : 1
 |    Counter                                      |     #     |    sum     | mean/eff^* | rms/err^*  |     min     |     max     |
 | "Nb PVs"                                        |       100 |        458 |     4.5800 |
PrVeloUTFast      SUCCESS Number of counters : 2
 |    Counter                                      |     #     |    sum     | mean/eff^* | rms/err^*  |     min     |     max     |
 | "#seeds"                                        |       100 |      12764 |     127.64 |
 | "#tracks"                                       |       100 |       3634 |     36.340 |
VeloUTMakeLHCbT...SUCCESS Number of counters : 1
 |    Counter                                      |     #     |    sum     | mean/eff^* | rms/err^*  |     min     |     max     |
 | "Nb of Produced Tracks"                         |       100 |       3634 |     36.340 |
PrForwardTracki...SUCCESS Number of counters : 1
 |    Counter                                      |     #     |    sum     | mean/eff^* | rms/err^*  |     min     |     max     |
 | "Nb output tracks"                              |        99 |       2296 |     23.192 |
FastForwardMake...SUCCESS Number of counters : 1
 |    Counter                                      |     #     |    sum     | mean/eff^* | rms/err^*  |     min     |     max     |
 | "Nb of Produced Tracks"                         |       100 |       2296 |     22.960 |
ForwardFitterAl...   INFO   Fitting performance   :   100.00 %
ForwardFitterAl...SUCCESS Number of counters : 7
 |    Counter                                      |     #     |    sum     | mean/eff^* | rms/err^*  |     min     |     max     |
 | "Long.badChisq"                                 |      2296 |        272 |    0.11847 |    0.32316 |      0.0000 |      1.0000 |
 | "Long.chisqprobSum"                             |      2296 |   877.6195 |    0.38224 |    0.30908 |      0.0000 |     0.99994 |
 | "Long.flipCharge"                               |      2296 |          0 |     0.0000 |     0.0000 |      0.0000 |      0.0000 |
 | "Long.numOutliers"                              |      2296 |       1536 |    0.66899 |    0.77931 |      0.0000 |      2.0000 |
 | "nBadInput"                                     |       100 |          0 |     0.0000 |
 | "nFitted"                                       |       100 |       2296 |     22.960 |
 | "nTracks"                                       |       100 |       2296 |     22.960 |
PrForwardTracki...SUCCESS Number of counters : 1
 |    Counter                                      |     #     |    sum     | mean/eff^* | rms/err^*  |     min     |     max     |
 | "Nb output tracks"                              |        99 |       7143 |     72.152 |
BestForwardMake...SUCCESS Number of counters : 1
 |    Counter                                      |     #     |    sum     | mean/eff^* | rms/err^*  |     min     |     max     |
 | "Nb of Produced Tracks"                         |       100 |       7143 |     71.430 |
PrMatchNNBest     SUCCESS Number of counters : 3
 |    Counter                                      |     #     |    sum     | mean/eff^* | rms/err^*  |     min     |     max     |
 | "#MatchingChi2"                                 |     19937 |   110530.7 |     5.5440 |
 | "#MatchingTracks"                               |        99 |       6721 |     67.889 |
 | "TracksMLP"                                     |     19937 |   6689.739 |    0.33554 |
PrLongLivedTrac...SUCCESS Number of counters : 2
 |    Counter                                      |     #     |    sum     | mean/eff^* | rms/err^*  |     min     |     max     |
 | "# Downstream tracks made"                      |      7973 |
 | "#UT hits added"                                |     31210 |
TrackBestTrackC...SUCCESS Number of counters : 33
 |    Counter                                      |     #     |    sum     | mean/eff^* | rms/err^*  |     min     |     max     |
 |*"BadInput"                                      |     30402 |          0 |( 0.000000 +- 0.000000)% |
 |*"Downstream.badChisq"                           |      3119 |       1795 |( 57.55050 +- 0.8850201)% |
 | "Downstream.chisqProbSum"                       |      3119 |   424.1148 |    0.13598 |
 |*"Downstream.flipCharge"                         |      3119 |          0 |( 0.000000 +- 0.000000)% |
 | "Downstream.ghostProbability"                   |      3119 |   1823.269 |    0.58457 |
 | "Downstream.numOutliers"                        |      3119 |       3714 |     1.1908 |
 |*"FitFailed"                                     |     30402 |          0 |( 0.000000 +- 0.000000)% |
 | "FittedBefore"                                  |      2072 |
 |*"Long.badChisq"                                 |      6753 |       3188 |( 47.20865 +- 0.6074965)% |
 | "Long.chisqProbSum"                             |      6753 |   1225.137 |    0.18142 |
 |*"Long.flipCharge"                               |      6753 |          1 |(0.01480823 +- 0.01480714)% |
 | "Long.ghostProbability"                         |      6753 |   1650.696 |    0.24444 |
 | "Long.numOutliers"                              |      6753 |       7315 |     1.0832 |
 |*"Ttrack.badChisq"                               |      4184 |        183 |( 4.373805 +- 0.3161712)% |
 | "Ttrack.chisqProbSum"                           |      4184 |   1517.335 |    0.36265 |
 |*"Ttrack.flipCharge"                             |      4184 |        254 |( 6.070746 +- 0.3691693)% |
 | "Ttrack.ghostProbability"                       |      4184 |   586.2201 |    0.14011 |
 | "Ttrack.numOutliers"                            |      4184 |       1926 |    0.46033 |
 |*"Upstream.badChisq"                             |       937 |        199 |( 21.23799 +- 1.336120)% |
 | "Upstream.chisqProbSum"                         |       937 |   315.1092 |    0.33630 |
 |*"Upstream.flipCharge"                           |       937 |         19 |( 2.027748 +- 0.4604567)% |
 | "Upstream.ghostProbability"                     |       937 |    207.921 |    0.22190 |
 | "Upstream.numOutliers"                          |       937 |        394 |    0.42049 |
 |*"Velo.badChisq"                                 |      5889 |       1079 |( 18.32230 +- 0.5041049)% |
 | "Velo.chisqProbSum"                             |      5889 |    1933.79 |    0.32837 |
 |*"Velo.flipCharge"                               |      5889 |          0 |( 0.000000 +- 0.000000)% |
 | "Velo.ghostProbability"                         |      5889 |   548.2368 |   0.093095 |
 | "Velo.numOutliers"                              |      5889 |       2947 |    0.50042 |
 |*"VeloBackward.badChisq"                         |      7448 |        225 |( 3.020945 +- 0.1983310)% |
 | "VeloBackward.chisqProbSum"                     |      7448 |    3529.91 |    0.47394 |
 |*"VeloBackward.flipCharge"                       |      7448 |          0 |( 0.000000 +- 0.000000)% |
 | "VeloBackward.ghostProbability"                 |      7448 |    459.089 |   0.061639 |
 | "VeloBackward.numOutliers"                      |      7448 |       1110 |    0.14903 |
RichPixClustering SUCCESS Number of counters : 1
 |    Counter                                      |     #     |    sum     | mean/eff^* | rms/err^*  |     min     |     max     |
 | "Too many clusters. Processing aborted."        |         0 |
RichTrackSegmen...SUCCESS Number of counters : 6
 |    Counter                                      |     #     |    sum     | mean/eff^* | rms/err^*  |     min     |     max     |
 | "Creating missing entry State"                  |         0 |
 | "Creating missing exit State"                   |         0 |
 | "Failed to find appropriate entry State"        |         0 |
 | "Failed to find appropriate exit State"         |         0 |
 | "Problem getting track state"                   |         0 |
 | "Too many tracks -> Processing aborted"         |         0 |
RichDetectableY...SUCCESS Number of counters : 3
 |    Counter                                      |     #     |    sum     | mean/eff^* | rms/err^*  |     min     |     max     |
 | "No PDs found -> Assuming Av. PD Q.E. of 1"     |         0 |
 | "No primary mirrors found -> Assuming Av. reflec|         0 |
 | "No secondary mirrors found -> Assuming Av. refl|         0 |
RichCKResolutio...SUCCESS Number of counters : 2
 |    Counter                                      |     #     |    sum     | mean/eff^* | rms/err^*  |     min     |     max     |
 | "NULL DeRichPD pointer !!"                      |         0 |
 | "Problem computing radiation length"            |         0 |
RichPixBackgrou...SUCCESS Number of counters : 3
 |    Counter                                      |     #     |    sum     | mean/eff^* | rms/err^*  |     min     |     max     |
 | "Bkg PD index out of range !!"                  |         0 |
 | "Pixel PD index out of range !!"                |         0 |
 | "Track PD index out of range !!"                |         0 |
RichGPIDLikelih...SUCCESS Number of counters : 2
 |    Counter                                      |     #     |    sum     | mean/eff^* | rms/err^*  |     min     |     max     |
 | "Maximum number of iteration re-tries reached"  |         0 |
 | "Taken more than maximum number of iterations ->|         0 |
RichPixBackgrou...SUCCESS Number of counters : 3
 |    Counter                                      |     #     |    sum     | mean/eff^* | rms/err^*  |     min     |     max     |
 | "Bkg PD index out of range !!"                  |         0 |
 | "Pixel PD index out of range !!"                |         0 |
 | "Track PD index out of range !!"                |         0 |
RichGPIDLikelih...SUCCESS Number of counters : 2
 |    Counter                                      |     #     |    sum     | mean/eff^* | rms/err^*  |     min     |     max     |
 | "Maximum number of iteration re-tries reached"  |         0 |
 | "Taken more than maximum number of iterations ->|         0 |
RichGPIDWriteRi...SUCCESS Number of counters : 1
 |    Counter                                      |     #     |    sum     | mean/eff^* | rms/err^*  |     min     |     max     |
 | "Track has non-zero best deltaLL value"         |         0 |
RichTrackSegmen...SUCCESS Number of counters : 6
 |    Counter                                      |     #     |    sum     | mean/eff^* | rms/err^*  |     min     |     max     |
 | "Creating missing entry State"                  |         0 |
 | "Creating missing exit State"                   |         0 |
 | "Failed to find appropriate entry State"        |         0 |
 | "Failed to find appropriate exit State"         |         0 |
 | "Problem getting track state"                   |         0 |
 | "Too many tracks -> Processing aborted"         |         0 |
RichDetectableY...SUCCESS Number of counters : 3
 |    Counter                                      |     #     |    sum     | mean/eff^* | rms/err^*  |     min     |     max     |
 | "No PDs found -> Assuming Av. PD Q.E. of 1"     |         0 |
 | "No primary mirrors found -> Assuming Av. reflec|         0 |
 | "No secondary mirrors found -> Assuming Av. refl|         0 |
RichCKResolutio...SUCCESS Number of counters : 2
 |    Counter                                      |     #     |    sum     | mean/eff^* | rms/err^*  |     min     |     max     |
 | "NULL DeRichPD pointer !!"                      |         0 |
 | "Problem computing radiation length"            |         0 |
RichPixBackgrou...SUCCESS Number of counters : 3
 |    Counter                                      |     #     |    sum     | mean/eff^* | rms/err^*  |     min     |     max     |
 | "Bkg PD index out of range !!"                  |         0 |
 | "Pixel PD index out of range !!"                |         0 |
 | "Track PD index out of range !!"                |         0 |
RichGPIDLikelih...SUCCESS Number of counters : 2
 |    Counter                                      |     #     |    sum     | mean/eff^* | rms/err^*  |     min     |     max     |
 | "Maximum number of iteration re-tries reached"  |         0 |
 | "Taken more than maximum number of iterations ->|         0 |
RichPixBackgrou...SUCCESS Number of counters : 3
 |    Counter                                      |     #     |    sum     | mean/eff^* | rms/err^*  |     min     |     max     |
 | "Bkg PD index out of range !!"                  |         0 |
 | "Pixel PD index out of range !!"                |         0 |
 | "Track PD index out of range !!"                |         0 |
RichGPIDLikelih...SUCCESS Number of counters : 2
 |    Counter                                      |     #     |    sum     | mean/eff^* | rms/err^*  |     min     |     max     |
 | "Maximum number of iteration re-tries reached"  |         0 |
 | "Taken more than maximum number of iterations ->|         0 |
RichGPIDWriteRi...SUCCESS Number of counters : 1
 |    Counter                                      |     #     |    sum     | mean/eff^* | rms/err^*  |     min     |     max     |
 | "Track has non-zero best deltaLL value"         |         0 |
RichTrackSegmen...SUCCESS Number of counters : 6
 |    Counter                                      |     #     |    sum     | mean/eff^* | rms/err^*  |     min     |     max     |
 | "Creating missing entry State"                  |         0 |
 | "Creating missing exit State"                   |         0 |
 | "Failed to find appropriate entry State"        |         0 |
 | "Failed to find appropriate exit State"         |         0 |
 | "Problem getting track state"                   |         0 |
 | "Too many tracks -> Processing aborted"         |         0 |
RichDetectableY...SUCCESS Number of counters : 3
 |    Counter                                      |     #     |    sum     | mean/eff^* | rms/err^*  |     min     |     max     |
 | "No PDs found -> Assuming Av. PD Q.E. of 1"     |         0 |
 | "No primary mirrors found -> Assuming Av. reflec|         0 |
 | "No secondary mirrors found -> Assuming Av. refl|         0 |
RichCKResolutio...SUCCESS Number of counters : 2
 |    Counter                                      |     #     |    sum     | mean/eff^* | rms/err^*  |     min     |     max     |
 | "NULL DeRichPD pointer !!"                      |         0 |
 | "Problem computing radiation length"            |         0 |
RichPixBackgrou...SUCCESS Number of counters : 3
 |    Counter                                      |     #     |    sum     | mean/eff^* | rms/err^*  |     min     |     max     |
 | "Bkg PD index out of range !!"                  |         0 |
 | "Pixel PD index out of range !!"                |         0 |
 | "Track PD index out of range !!"                |         0 |
RichGPIDLikelih...SUCCESS Number of counters : 2
 |    Counter                                      |     #     |    sum     | mean/eff^* | rms/err^*  |     min     |     max     |
 | "Maximum number of iteration re-tries reached"  |         0 |
 | "Taken more than maximum number of iterations ->|         0 |
RichPixBackgrou...SUCCESS Number of counters : 3
 |    Counter                                      |     #     |    sum     | mean/eff^* | rms/err^*  |     min     |     max     |
 | "Bkg PD index out of range !!"                  |         0 |
 | "Pixel PD index out of range !!"                |         0 |
 | "Track PD index out of range !!"                |         0 |
RichGPIDLikelih...SUCCESS Number of counters : 2
 |    Counter                                      |     #     |    sum     | mean/eff^* | rms/err^*  |     min     |     max     |
 | "Maximum number of iteration re-tries reached"  |         0 |
 | "Taken more than maximum number of iterations ->|         0 |
RichGPIDWriteRi...SUCCESS Number of counters : 1
 |    Counter                                      |     #     |    sum     | mean/eff^* | rms/err^*  |     min     |     max     |
 | "Track has non-zero best deltaLL value"         |         0 |
MergeRichPIDs     SUCCESS Number of counters : 1
 |    Counter                                      |     #     |    sum     | mean/eff^* | rms/err^*  |     min     |     max     |
 | "Input/Output RichPID version mis-match"        |         0 |
FutureEcalZSup       INFO Number of counters : 1
 |    Counter                                      |
 |*"No bank found"                                 |       100 |          0 |( 0.000000 +- 0.000000)% |
FutureEcalClust      INFO Built <160.01> cellular automaton clusters/event  with <3.43> iterations (min,max)=(1,5) on average
FutureEcalClust      INFO Number of counters : 3
 |    Counter                                      |
 | "# clusterization passes"                       |       100 |        343 |     3.4300 |    0.69649 |      1.0000 |      5.0000 |
 | "# clusters"                                    |       100 |      16001 |     160.01 |     78.570 |      1.0000 |      369.00 |
 | "Cluster energy"                                |     32002 |7.95967e+07 |     2487.2 |     5272.3 |      4.0000 |  1.1352e+05 |
FutureEcalShare      INFO Number of counters : 1
 |    Counter                                      |
 | "Cluster tagging failed - keep the initial 3x3 t|         0 |
FutureEcalCovar   SUCCESS Number of counters : 1
 |    Counter                                      |     #     |    sum     | mean/eff^* | rms/err^*  |     min     |     max     |
 | "# clusters"                                    |       100 |
ClassifyPhotonE...   INFO Number of counters : 1
 |    Counter                                      |
 | "Error from Correction Tool - skip the cluster" |         0 |
MergedPi0RecFuture   INFO Number of counters : 4
 |    Counter                                      |
 | "Error from 'Tool' for g1"                      |         0 |
 | "Error from 'Tool' for g2"                      |         0 |
 | "Error from 'Tool' for pi0"                     |         0 |
 | "SplitCluster tagging failed - keep the initial |         0 |
RichDecodingErrorsSUCCESS Booked 352 Histogram(s) : 2D=1 1DProf=351
RichDecodingErrorsSUCCESS Number of counters : 1
 |    Counter                                      |     #     |    sum     | mean/eff^* | rms/err^*  |     min     |     max     |
 | "Failed to find histogram for L1 Board"         |         0 |
RichRecPixelQC    SUCCESS Booked 6 Histogram(s) : 1D=6
RichRecPixelQC    SUCCESS 1D histograms in directory "RICH/RichRecPixelQC" : 6
 | ID                        |   Title                                       |    #    |     Mean   |    RMS     |  Skewness  |  Kurtosis  |
 | Rich1/nActivePDs          | "Rich1 # Active PDs (nHits>0)"                |   100   |     172.11 | 84.743     |   -0.75353 |   -0.67851 |
 | Rich1/nTotalPixs          | "Rich1 Overall occupancy (nHits>0)"           |    99   |     2981.6 | 1805       |    0.58206 |   -0.38465 |
 | Rich1/nTotalPixsPerPD     | "Rich1 Average overall PD occupancy (nHits>0) |  86821  |     3.3998 | 3.847      |     2.6867 |     9.2987 |
 | Rich2/nActivePDs          | "Rich2 # Active PDs (nHits>0)"                |   100   |      182.4 | 95.607     |   -0.50659 |   -0.91649 |
 | Rich2/nTotalPixs          | "Rich2 Overall occupancy (nHits>0)"           |    99   |     1858.2 | 1087       |    0.66412 |  0.0062553 |
 | Rich2/nTotalPixsPerPD     | "Rich2 Average overall PD occupancy (nHits>0) |  71806  |      2.562 | 2.3743     |     3.3436 |      18.64 |
RichFutureMoniC...SUCCESS Number of counters : 1
 |    Counter                                      |     #     |    sum     | mean/eff^* | rms/err^*  |     min     |     max     |
 | "Too many clusters. Processing aborted."        |         0 |
RichRecPixelClu...SUCCESS Booked 2 Histogram(s) : 1D=2
RichRecPixelClu...SUCCESS 1D histograms in directory "RICH/RichRecPixelClusters" : 2
 | ID                        |   Title                                       |    #    |     Mean   |    RMS     |  Skewness  |  Kurtosis  |
 | Rich1/clusterSize         | "Rich1 Pixel Cluster Sizes"                   |  226029 |     1.3059 | 1.0133     |       7.98 |     128.88 |
 | Rich2/clusterSize         | "Rich2 Pixel Cluster Sizes"                   |  155080 |     1.1863 | 0.79463    |     10.185 |     165.18 |
RichRecPixelClu...SUCCESS Number of counters : 1
 |    Counter                                      |     #     |    sum     | mean/eff^* | rms/err^*  |     min     |     max     |
 | "Empty relation table!"                         |         0 |
RichRecoStatsDown SUCCESS Number of counters : 6
 |    Counter                                      |     #     |    sum     | mean/eff^* | rms/err^*  |     min     |     max     |
 | "# Rich1Gas Photons"                            |       100 |     227622 |     2276.2 |     2554.9 |      0.0000 |      10786. |
 | "# Rich1Gas Segments"                           |       100 |       1200 |     12.000 |     8.5463 |      0.0000 |      38.000 |
 | "# Rich2Gas Photons"                            |       100 |      24475 |     244.75 |     294.95 |      0.0000 |      1685.0 |
 | "# Rich2Gas Segments"                           |       100 |        472 |     4.7200 |     3.8473 |      0.0000 |      17.000 |
 | "# Selected Tracks"                             |       100 |       1343 |     13.430 |     9.5260 |      0.0000 |      41.000 |
 |*"RICH selection efficiency"                     |      1507 |       1343 |( 89.11745 +- 0.8022137)% |
RiDownTrkEff      SUCCESS Booked 17 Histogram(s) : 1D=12 1DProf=5
RiDownTrkEff      SUCCESS 1D histograms in directory "RICH/RiDownTrkEff" : 12
 | ID                        |   Title                                       |    #    |     Mean   |    RMS     |  Skewness  |  Kurtosis  |
 | All/Rejected/Chi2PDOF     | "Track Chi^2 / D.O.F."                        |   164   |     1.6897 | 0.62798    |   0.050601 |   -0.92177 |
 | All/Rejected/CloneDist    | "Track Clone Distance"                        |   164   |       5500 | 0          |          0 |          0 |
 | All/Rejected/GhostProb    | "Track Ghost Probability"                     |   164   |     0.1611 | 0.11327    |    0.57816 |   -0.80814 |
 | All/Rejected/P            | "Track Momentum"                              |   164   |     3860.4 | 1266.1     |    0.47698 |     1.3076 |
 | All/Rejected/Pt           | "Track Transverse Momentum"                   |   164   |     111.61 | 51.312     |     2.4805 |     3.8111 |
 | All/Selected/Chi2PDOF     | "Track Chi^2 / D.O.F."                        |   1343  |      1.474 | 0.67466    |    0.41979 |   -0.72638 |
 | All/Selected/CloneDist    | "Track Clone Distance"                        |   1343  |       5500 | 0          |          0 |          0 |
 | All/Selected/GhostProb    | "Track Ghost Probability"                     |   1343  |   0.057429 | 0.09403    |       1.95 |      2.824 |
 | All/Selected/P            | "Track Momentum"                              |   1343  |     7255.5 | 7599.8     |     3.2483 |      16.12 |
 | All/Selected/Pt           | "Track Transverse Momentum"                   |   1343  |     410.53 | 403.25     |     3.3772 |     18.074 |
 | nRichTracks               | "# Rich Tracks / Event"                       |   100   |      13.43 | 9.526      |    0.81173 |    0.11626 |
 | nTracks                   | "# Tracks / Event"                            |   100   |      15.07 | 10.627     |    0.83534 |    0.22078 |
RiDownTrkEff      SUCCESS 1D profile histograms in directory "RICH/RiDownTrkEff" : 5
 | ID                        |   Title                                       |    #    |     Mean   |    RMS     |  Skewness  |  Kurtosis  |
 | All/effVChi2PDOF          | "RICH Track Sel. Eff. V Chi^2 / D.O.F."       |   1507  |     1.4975 | 0.6731     |    0.29788 |     1.3602 |
 | All/effVCloneDist         | "RICH Track Sel. Eff. V Clone Distance"       |   1507  |       5500 | 0          |          0 |          0 |
 | All/effVGhostProb         | "RICH Track Sel. Eff. V Ghost Probability"    |   1507  |   0.065375 | 0.099539   |     7.7439 |     17.801 |
 | All/effVP                 | "RICH Track Sel. Eff. V P"                    |   1507  |     6885.6 | 7263.4     |     114.67 |     879.35 |
 | All/effVPt                | "RICH Track Sel. Eff. V Pt"                   |   1507  |     425.57 | 401.2      |     117.14 |     857.12 |
RiCKResDown       SUCCESS Booked 10 Histogram(s) : 1D=10
RiCKResDown       SUCCESS 1D histograms in directory "RICH/RiCKResDown" : 10
 | ID                        |   Title                                       |    #    |     Mean   |    RMS     |  Skewness  |  Kurtosis  |
 | Rich1Gas/bottom/ckResAllP | "Rich1Gas bottom Rec-Exp Cktheta - All photon |  16768  | 0.00012541 | 0.0020886  |   -0.20496 |   -0.43648 |
 | Rich1Gas/ckResAll         | "Rich1Gas Rec-Exp Cktheta - All photons"      |  31205  | 0.00013484 | 0.0021346  |   -0.19237 |   -0.48084 |
 | Rich1Gas/phiRec           | "Rich1Gas Reconstructed Ch Phi - All photons" |  31205  |     3.1277 | 1.7924     |   0.019644 |    -1.1573 |
 | Rich1Gas/thetaRec         | "Rich1Gas Reconstructed Ch Theta - All photon |  31205  |   0.047334 | 0.0063178  |    -1.0781 |   0.059963 |
 | Rich1Gas/top/ckResAllPerP | "Rich1Gas top Rec-Exp Cktheta - All photons"  |  14437  |   0.000146 | 0.0021876  |   -0.18046 |   -0.53509 |
 | Rich2Gas/ASide-left/ckRes | "Rich2Gas ASide-left Rec-Exp Cktheta - All ph |   8733  | 6.9773e-05 | 0.0012615  |  -0.046568 |   -0.88391 |
 | Rich2Gas/CSide-right/ckRe | "Rich2Gas CSide-right Rec-Exp Cktheta - All p |   9763  | 0.00015227 | 0.0012282  |  -0.080441 |   -0.82619 |
 | Rich2Gas/ckResAll         | "Rich2Gas Rec-Exp Cktheta - All photons"      |  18496  |  0.0001134 | 0.0012447  |  -0.066363 |   -0.85341 |
 | Rich2Gas/phiRec           | "Rich2Gas Reconstructed Ch Phi - All photons" |  18496  |     3.0878 | 1.806      |   0.053635 |    -1.1965 |
 | Rich2Gas/thetaRec         | "Rich2Gas Reconstructed Ch Theta - All photon |  18496  |   0.027118 | 0.0042328  |    -1.8854 |     3.5564 |
RiCKResDownTight  SUCCESS Booked 10 Histogram(s) : 1D=10
RiCKResDownTight  SUCCESS 1D histograms in directory "RICH/RiCKResDownTight" : 10
 | ID                        |   Title                                       |    #    |     Mean   |    RMS     |  Skewness  |  Kurtosis  |
 | Rich1Gas/bottom/ckResAllP | "Rich1Gas bottom Rec-Exp Cktheta - All photon |   9655  |-4.0493e-05 | 0.0020707  |   -0.25713 |   -0.40995 |
 | Rich1Gas/ckResAll         | "Rich1Gas Rec-Exp Cktheta - All photons"      |  17069  |-3.1372e-05 | 0.0021286  |   -0.23441 |   -0.46154 |
 | Rich1Gas/phiRec           | "Rich1Gas Reconstructed Ch Phi - All photons" |  17069  |     3.1361 | 1.7959     |   0.008332 |    -1.1627 |
 | Rich1Gas/thetaRec         | "Rich1Gas Reconstructed Ch Theta - All photon |  17069  |   0.047298 | 0.0062438  |    -1.0727 |   0.071903 |
 | Rich1Gas/top/ckResAllPerP | "Rich1Gas top Rec-Exp Cktheta - All photons"  |   7414  |-1.9269e-05 | 0.0022031  |   -0.21063 |   -0.53475 |
 | Rich2Gas/ASide-left/ckRes | "Rich2Gas ASide-left Rec-Exp Cktheta - All ph |   3434  | 1.8209e-05 | 0.0011964  |  -0.090226 |   -0.71722 |
 | Rich2Gas/CSide-right/ckRe | "Rich2Gas CSide-right Rec-Exp Cktheta - All p |   3064  | 9.0682e-05 | 0.0011317  |  -0.037798 |   -0.65464 |
 | Rich2Gas/ckResAll         | "Rich2Gas Rec-Exp Cktheta - All photons"      |   6498  | 5.1528e-05 | 0.0011677  |  -0.073337 |   -0.67972 |
 | Rich2Gas/phiRec           | "Rich2Gas Reconstructed Ch Phi - All photons" |   6498  |     3.1005 | 1.7978     |   0.057184 |      -1.21 |
 | Rich2Gas/thetaRec         | "Rich2Gas Reconstructed Ch Theta - All photon |   6498  |   0.026613 | 0.004553   |    -1.5768 |     2.0063 |
RichRecoStatsUp   SUCCESS Number of counters : 6
 |    Counter                                      |     #     |    sum     | mean/eff^* | rms/err^*  |     min     |     max     |
 | "# Rich1Gas Photons"                            |       100 |      92177 |     921.77 |     1171.5 |      0.0000 |      7099.0 |
 | "# Rich1Gas Segments"                           |       100 |        662 |     6.6200 |     4.9453 |      0.0000 |      26.000 |
 | "# Rich2Gas Photons"                            |       100 |          0 |     0.0000 |     0.0000 |      0.0000 |      0.0000 |
 | "# Rich2Gas Segments"                           |       100 |          0 |     0.0000 |     0.0000 |      0.0000 |      0.0000 |
 | "# Selected Tracks"                             |       100 |        662 |     6.6200 |     4.9453 |      0.0000 |      26.000 |
 |*"RICH selection efficiency"                     |       776 |        662 |( 85.30928 +- 1.270834)% |
RiUpTrkEff        SUCCESS Booked 17 Histogram(s) : 1D=12 1DProf=5
RiUpTrkEff        SUCCESS 1D histograms in directory "RICH/RiUpTrkEff" : 12
 | ID                        |   Title                                       |    #    |     Mean   |    RMS     |  Skewness  |  Kurtosis  |
 | All/Rejected/Chi2PDOF     | "Track Chi^2 / D.O.F."                        |   114   |     1.1802 | 0.50473    |    0.83265 |     1.0613 |
 | All/Rejected/CloneDist    | "Track Clone Distance"                        |   114   |       5500 | 0          |          0 |          0 |
 | All/Rejected/GhostProb    | "Track Ghost Probability"                     |   114   |   0.043191 | 0.07254    |     2.6296 |     6.7134 |
 | All/Rejected/P            | "Track Momentum"                              |   114   |      39051 | 16113      |    0.95964 |    0.33497 |
 | All/Rejected/Pt           | "Track Transverse Momentum"                   |   114   |     973.45 | 711.77     |     2.5227 |     6.9446 |
 | All/Selected/Chi2PDOF     | "Track Chi^2 / D.O.F."                        |   662   |     1.1888 | 0.5614     |    0.91414 |    0.71106 |
 | All/Selected/CloneDist    | "Track Clone Distance"                        |   662   |       5500 | 0          |          0 |          0 |
 | All/Selected/GhostProb    | "Track Ghost Probability"                     |   662   |   0.051104 | 0.063875   |     2.6655 |     8.1593 |
 | All/Selected/P            | "Track Momentum"                              |   662   |      10333 | 11049      |     2.7017 |     10.362 |
 | All/Selected/Pt           | "Track Transverse Momentum"                   |   662   |     903.76 | 657.15     |     3.6654 |     19.017 |
 | nRichTracks               | "# Rich Tracks / Event"                       |   100   |       6.62 | 4.9453     |    0.96308 |     1.0365 |
 | nTracks                   | "# Tracks / Event"                            |   100   |       7.76 | 5.8209     |    0.93969 |    0.71554 |
RiUpTrkEff        SUCCESS 1D profile histograms in directory "RICH/RiUpTrkEff" : 5
 | ID                        |   Title                                       |    #    |     Mean   |    RMS     |  Skewness  |  Kurtosis  |
 | All/effVChi2PDOF          | "RICH Track Sel. Eff. V Chi^2 / D.O.F."       |   776   |     1.1876 | 0.55344    |     4.8997 |     12.818 |
 | All/effVCloneDist         | "RICH Track Sel. Eff. V Clone Distance"       |   776   |       5500 | 0          |          0 |          0 |
 | All/effVGhostProb         | "RICH Track Sel. Eff. V Ghost Probability"    |   776   |   0.049959 | 0.065259   |     22.003 |     85.471 |
 | All/effVP                 | "RICH Track Sel. Eff. V P"                    |   776   |      14084 | 15287      |     14.097 |     56.966 |
 | All/effVPt                | "RICH Track Sel. Eff. V Pt"                   |   776   |     913.88 | 665.82     |     69.667 |     438.48 |
RiCKResUp         SUCCESS Booked 10 Histogram(s) : 1D=10
RiCKResUp         SUCCESS 1D histograms in directory "RICH/RiCKResUp" : 10
 | ID                        |   Title                                       |    #    |     Mean   |    RMS     |  Skewness  |  Kurtosis  |
 | Rich1Gas/bottom/ckResAllP | "Rich1Gas bottom Rec-Exp Cktheta - All photon |  29809  |-0.00055171 | 0.0021678  |   -0.15331 |   -0.80222 |
 | Rich1Gas/ckResAll         | "Rich1Gas Rec-Exp Cktheta - All photons"      |  61339  |-0.00051505 | 0.002197   |   -0.14506 |   -0.81001 |
 | Rich1Gas/phiRec           | "Rich1Gas Reconstructed Ch Phi - All photons" |  61339  |      3.116 | 1.7956     |   0.022833 |    -1.2017 |
 | Rich1Gas/thetaRec         | "Rich1Gas Reconstructed Ch Theta - All photon |  61339  |   0.044743 | 0.0067843  |   -0.45164 |   -0.99501 |
 | Rich1Gas/top/ckResAllPerP | "Rich1Gas top Rec-Exp Cktheta - All photons"  |  31530  |-0.00048005 | 0.002224   |   -0.14018 |    -0.8203 |
 | Rich2Gas/ASide-left/ckRes | "Rich2Gas ASide-left Rec-Exp Cktheta - All ph |    0    |          0 | 0          |          0 |          0 |
 | Rich2Gas/CSide-right/ckRe | "Rich2Gas CSide-right Rec-Exp Cktheta - All p |    0    |          0 | 0          |          0 |          0 |
 | Rich2Gas/ckResAll         | "Rich2Gas Rec-Exp Cktheta - All photons"      |    0    |          0 | 0          |          0 |          0 |
 | Rich2Gas/phiRec           | "Rich2Gas Reconstructed Ch Phi - All photons" |    0    |          0 | 0          |          0 |          0 |
 | Rich2Gas/thetaRec         | "Rich2Gas Reconstructed Ch Theta - All photon |    0    |          0 | 0          |          0 |          0 |
RiCKResUpTight    SUCCESS Booked 10 Histogram(s) : 1D=10
RiCKResUpTight    SUCCESS 1D histograms in directory "RICH/RiCKResUpTight" : 10
 | ID                        |   Title                                       |    #    |     Mean   |    RMS     |  Skewness  |  Kurtosis  |
 | Rich1Gas/bottom/ckResAllP | "Rich1Gas bottom Rec-Exp Cktheta - All photon |  17211  |-0.00064455 | 0.0021544  |   -0.16081 |    -0.8245 |
 | Rich1Gas/ckResAll         | "Rich1Gas Rec-Exp Cktheta - All photons"      |  35134  | -0.0006666 | 0.0021524  |   -0.16998 |   -0.84447 |
 | Rich1Gas/phiRec           | "Rich1Gas Reconstructed Ch Phi - All photons" |  35134  |     3.1386 | 1.7915     |-4.6531e-05 |    -1.1968 |
 | Rich1Gas/thetaRec         | "Rich1Gas Reconstructed Ch Theta - All photon |  35134  |   0.044604 | 0.0067262  |   -0.42938 |   -0.99175 |
 | Rich1Gas/top/ckResAllPerP | "Rich1Gas top Rec-Exp Cktheta - All photons"  |  17923  | -0.0006881 | 0.0021502  |   -0.17913 |   -0.86514 |
 | Rich2Gas/ASide-left/ckRes | "Rich2Gas ASide-left Rec-Exp Cktheta - All ph |    0    |          0 | 0          |          0 |          0 |
 | Rich2Gas/CSide-right/ckRe | "Rich2Gas CSide-right Rec-Exp Cktheta - All p |    0    |          0 | 0          |          0 |          0 |
 | Rich2Gas/ckResAll         | "Rich2Gas Rec-Exp Cktheta - All photons"      |    0    |          0 | 0          |          0 |          0 |
 | Rich2Gas/phiRec           | "Rich2Gas Reconstructed Ch Phi - All photons" |    0    |          0 | 0          |          0 |          0 |
 | Rich2Gas/thetaRec         | "Rich2Gas Reconstructed Ch Theta - All photon |    0    |          0 | 0          |          0 |          0 |
RichRecoStatsLong SUCCESS Number of counters : 6
 |    Counter                                      |     #     |    sum     | mean/eff^* | rms/err^*  |     min     |     max     |
 | "# Rich1Gas Photons"                            |       100 |     794355 |     7943.6 |     8011.6 |      0.0000 |      33787. |
 | "# Rich1Gas Segments"                           |       100 |       4846 |     48.460 |     30.955 |      0.0000 |      139.00 |
 | "# Rich2Gas Photons"                            |       100 |     200070 |     2000.7 |     2055.4 |      0.0000 |      12460. |
 | "# Rich2Gas Segments"                           |       100 |       3334 |     33.340 |     20.935 |      0.0000 |      91.000 |
 | "# Selected Tracks"                             |       100 |       6131 |     61.310 |     38.035 |      0.0000 |      176.00 |
 |*"RICH selection efficiency"                     |      6435 |       6131 |( 95.27584 +- 0.2644720)% |
RiLongTrkEff      SUCCESS Booked 17 Histogram(s) : 1D=12 1DProf=5
RiLongTrkEff      SUCCESS 1D histograms in directory "RICH/RiLongTrkEff" : 12
 | ID                        |   Title                                       |    #    |     Mean   |    RMS     |  Skewness  |  Kurtosis  |
 | All/Rejected/Chi2PDOF     | "Track Chi^2 / D.O.F."                        |   304   |     1.4954 | 0.62171    |    0.48283 |   -0.67513 |
 | All/Rejected/CloneDist    | "Track Clone Distance"                        |   304   |       5500 | 0          |          0 |          0 |
 | All/Rejected/GhostProb    | "Track Ghost Probability"                     |   304   |     0.1463 | 0.11776    |    0.70689 |   -0.76215 |
 | All/Rejected/P            | "Track Momentum"                              |   304   |     5565.4 | 8789.4     |     8.3727 |     72.019 |
 | All/Rejected/Pt           | "Track Transverse Momentum"                   |   304   |     103.01 | 184.36     |     7.9149 |     61.061 |
 | All/Selected/Chi2PDOF     | "Track Chi^2 / D.O.F."                        |   6131  |     1.3022 | 0.51302    |     1.0894 |    0.98429 |
 | All/Selected/CloneDist    | "Track Clone Distance"                        |   6131  |       5500 | 0          |          0 |          0 |
 | All/Selected/GhostProb    | "Track Ghost Probability"                     |   6131  |   0.040695 | 0.076119   |     2.7047 |     7.0826 |
 | All/Selected/P            | "Track Momentum"                              |   6131  |      11629 | 12254      |     2.7449 |     10.163 |
 | All/Selected/Pt           | "Track Transverse Momentum"                   |   6131  |      553.5 | 522.38     |     3.3334 |     19.399 |
 | nRichTracks               | "# Rich Tracks / Event"                       |   100   |      61.31 | 38.035     |    0.57117 |   -0.32748 |
 | nTracks                   | "# Tracks / Event"                            |   100   |      64.35 | 40.191     |    0.59484 |   -0.25608 |
RiLongTrkEff      SUCCESS 1D profile histograms in directory "RICH/RiLongTrkEff" : 5
 | ID                        |   Title                                       |    #    |     Mean   |    RMS     |  Skewness  |  Kurtosis  |
 | All/effVChi2PDOF          | "RICH Track Sel. Eff. V Chi^2 / D.O.F."       |   6435  |     1.3113 | 0.52028    |      3.933 |     11.919 |
 | All/effVCloneDist         | "RICH Track Sel. Eff. V Clone Distance"       |   6435  |       5500 | 0          |          0 |          0 |
 | All/effVGhostProb         | "RICH Track Sel. Eff. V Ghost Probability"    |   6435  |   0.044044 | 0.079954   |     18.591 |     62.804 |
 | All/effVP                 | "RICH Track Sel. Eff. V P"                    |   6435  |      11342 | 12181      |     79.667 |     458.61 |
 | All/effVPt                | "RICH Track Sel. Eff. V Pt"                   |   6435  |     563.99 | 523.27     |     235.94 |     2123.8 |
RiCKResLong       SUCCESS Booked 10 Histogram(s) : 1D=10
RiCKResLong       SUCCESS 1D histograms in directory "RICH/RiCKResLong" : 10
 | ID                        |   Title                                       |    #    |     Mean   |    RMS     |  Skewness  |  Kurtosis  |
 | Rich1Gas/bottom/ckResAllP | "Rich1Gas bottom Rec-Exp Cktheta - All photon |  102968 |-7.4206e-05 | 0.0019847  |   -0.26236 |   -0.29009 |
 | Rich1Gas/ckResAll         | "Rich1Gas Rec-Exp Cktheta - All photons"      |  211913 |-7.8291e-05 | 0.0019844  |   -0.26335 |   -0.30324 |
 | Rich1Gas/phiRec           | "Rich1Gas Reconstructed Ch Phi - All photons" |  211913 |     3.1262 | 1.8141     |   0.010345 |    -1.1871 |
 | Rich1Gas/thetaRec         | "Rich1Gas Reconstructed Ch Theta - All photon |  211913 |   0.047216 | 0.0063118  |    -1.1173 |    0.11299 |
 | Rich1Gas/top/ckResAllPerP | "Rich1Gas top Rec-Exp Cktheta - All photons"  |  108945 |-8.2143e-05 | 0.0019841  |    -0.2643 |   -0.31567 |
 | Rich2Gas/ASide-left/ckRes | "Rich2Gas ASide-left Rec-Exp Cktheta - All ph |  81209  | 1.6715e-05 | 0.0012044  |   0.018506 |   -0.72846 |
 | Rich2Gas/CSide-right/ckRe | "Rich2Gas CSide-right Rec-Exp Cktheta - All p |  88272  | 2.8334e-05 | 0.0012007  |   0.026422 |   -0.73303 |
 | Rich2Gas/ckResAll         | "Rich2Gas Rec-Exp Cktheta - All photons"      |  169481 | 2.2743e-05 | 0.0012025  |   0.022549 |   -0.73069 |
 | Rich2Gas/phiRec           | "Rich2Gas Reconstructed Ch Phi - All photons" |  169481 |     3.1329 | 1.7987     |  0.0054413 |    -1.1859 |
 | Rich2Gas/thetaRec         | "Rich2Gas Reconstructed Ch Theta - All photon |  169481 |   0.026803 | 0.0044792  |    -1.7181 |     2.5877 |
RiCKResLongTight  SUCCESS Booked 10 Histogram(s) : 1D=10
RiCKResLongTight  SUCCESS 1D histograms in directory "RICH/RiCKResLongTight" : 10
 | ID                        |   Title                                       |    #    |     Mean   |    RMS     |  Skewness  |  Kurtosis  |
 | Rich1Gas/bottom/ckResAllP | "Rich1Gas bottom Rec-Exp Cktheta - All photon |  77592  | -0.0002599 | 0.0019908  |   -0.30571 |   -0.35254 |
 | Rich1Gas/ckResAll         | "Rich1Gas Rec-Exp Cktheta - All photons"      |  158858 |-0.00025951 | 0.0019848  |   -0.30764 |   -0.36428 |
 | Rich1Gas/phiRec           | "Rich1Gas Reconstructed Ch Phi - All photons" |  158858 |     3.1337 | 1.814      |  0.0035402 |    -1.1838 |
 | Rich1Gas/thetaRec         | "Rich1Gas Reconstructed Ch Theta - All photon |  158858 |   0.047183 | 0.0061756  |     -1.094 |    0.12476 |
 | Rich1Gas/top/ckResAllPerP | "Rich1Gas top Rec-Exp Cktheta - All photons"  |  81266  |-0.00025914 | 0.0019791  |    -0.3095 |   -0.37586 |
 | Rich2Gas/ASide-left/ckRes | "Rich2Gas ASide-left Rec-Exp Cktheta - All ph |  36754  |-9.7563e-05 | 0.0011426  |   0.026181 |   -0.59137 |
 | Rich2Gas/CSide-right/ckRe | "Rich2Gas CSide-right Rec-Exp Cktheta - All p |  40719  |-6.3434e-05 | 0.0011495  |   0.034959 |   -0.61453 |
 | Rich2Gas/ckResAll         | "Rich2Gas Rec-Exp Cktheta - All photons"      |  77473  |-7.9564e-05 | 0.0011464  |   0.031106 |    -0.6031 |
 | Rich2Gas/phiRec           | "Rich2Gas Reconstructed Ch Phi - All photons" |  77473  |     3.1262 | 1.7905     |     0.0134 |    -1.1838 |
 | Rich2Gas/thetaRec         | "Rich2Gas Reconstructed Ch Theta - All photon |  77473  |   0.026504 | 0.0045953  |    -1.6008 |     2.0741 |
HLTControlFlowMgr    INFO
 | Name of Algorithm                               | Execution Count
 | "FetchDataFromFile"                             |       100 |
 | "createODIN"                                    |       100 |
 | "DummyEventTime"                                |       100 |
 | "ReserveIOV"                                    |       100 |
 | "VPClustering"                                  |       100 |
 | "PrPixelTrackingFast"                           |       100 |
 | "ConverterVPForPVReco"                          |       100 |
 | "PatPV3D"                                       |       100 |
 | "RichFutureDecode"                              |       100 |
 | "RichPixClustering"                             |       100 |
 | "RichSIMDPixels"                                |       100 |
 | "createFTClusters"                              |       100 |
 | "PrStoreUTHit"                                  |       100 |
 | "PrVeloUTFast"                                  |       100 |
 | "VeloUTMakeLHCbTracks"                          |       100 |
 | "PrStoreFTHit"                                  |       100 |
 | "PrForwardTrackingFast"                         |       100 |
 | "FastForwardMakeLHCbTracksFast"                 |       100 |
 | "ConverterV1V2ForForwardFit"                    |       100 |
 | "ForwardFitterAlgFast"                          |       100 |
 | "PrHybridSeedingBest"                           |       100 |
 | "PrLongLivedTrackingBest"                       |       100 |
 | "DownstreamConverter"                           |       100 |
 | "PrForwardTrackingBest"                         |       100 |
 | "BestForwardMakeLHCbTracksBest"                 |       100 |
 | "ForwardBestConverter"                          |       100 |
 | "PrMatchNNBest"                                 |       100 |
 | "MatchConverter"                                |       100 |
 | "SeedingConverter"                              |       100 |
 | "UpstreamConverter"                             |       100 |
 | "VeloConverter"                                 |       100 |
 | "TrackBestTrackCreator"                         |       100 |
 | "RichTrackTypeFilter"                           |       100 |
 | "RichTrackSegmentsLong"                         |       100 |
 | "RichTrackGloPointsLong"                        |       100 |
 | "RichTrackLocPointsLong"                        |       100 |
 | "RichEmittedYieldsLong"                         |       100 |
 | "RichEmittedCKAnglesLong"                       |       100 |
 | "RichMassConesLong"                             |       100 |
 | "RichGeomEffLong"                               |       100 |
 | "RichTkSegmentSelLong"                          |       100 |
 | "RichDetectableYieldsLong"                      |       100 |
 | "RichSignalYieldsLong"                          |       100 |
 | "RichSignalCKAnglesLong"                        |       100 |
 | "RichCKResolutionsLong"                         |       100 |
 | "RichPhotonRecoLong"                            |       100 |
 | "RichRecoStatsLong"                             |       100 |
 | "RichPredPixelSignalLong"                       |       100 |
 | "RichRecSummaryLong"                            |       100 |
 | "RiCKResLong"                                   |       100 |
 | "RiCKResLongTight"                              |       100 |
 | "RichGPIDInitLong"                              |       100 |
 | "RichPixBackgroundsIt0Long"                     |       100 |
 | "RichGPIDLikelihoodIt0Long"                     |       100 |
 | "RichPixBackgroundsIt1Long"                     |       100 |
 | "RichGPIDLikelihoodIt1Long"                     |       100 |
 | "RichGPIDWriteRichPIDsLong"                     |       100 |
 | "RiLongTrkEff"                                  |       100 |
 | "RichTrackSegmentsDown"                         |       100 |
 | "RichTrackGloPointsDown"                        |       100 |
 | "RichTrackLocPointsDown"                        |       100 |
 | "RichEmittedYieldsDown"                         |       100 |
 | "RichEmittedCKAnglesDown"                       |       100 |
 | "RichMassConesDown"                             |       100 |
 | "RichGeomEffDown"                               |       100 |
 | "RichTkSegmentSelDown"                          |       100 |
 | "RichDetectableYieldsDown"                      |       100 |
 | "RichSignalYieldsDown"                          |       100 |
 | "RichSignalCKAnglesDown"                        |       100 |
 | "RichCKResolutionsDown"                         |       100 |
 | "RichPhotonRecoDown"                            |       100 |
 | "RichRecoStatsDown"                             |       100 |
 | "RichPredPixelSignalDown"                       |       100 |
 | "RichRecSummaryDown"                            |       100 |
 | "RiCKResDown"                                   |       100 |
 | "RiCKResDownTight"                              |       100 |
 | "RichGPIDInitDown"                              |       100 |
 | "RichPixBackgroundsIt0Down"                     |       100 |
 | "RichGPIDLikelihoodIt0Down"                     |       100 |
 | "RichPixBackgroundsIt1Down"                     |       100 |
 | "RichGPIDLikelihoodIt1Down"                     |       100 |
 | "RichGPIDWriteRichPIDsDown"                     |       100 |
 | "RiDownTrkEff"                                  |       100 |
 | "RichTrackSegmentsUp"                           |       100 |
 | "RichTrackGloPointsUp"                          |       100 |
 | "RichTrackLocPointsUp"                          |       100 |
 | "RichEmittedYieldsUp"                           |       100 |
 | "RichEmittedCKAnglesUp"                         |       100 |
 | "RichMassConesUp"                               |       100 |
 | "RichGeomEffUp"                                 |       100 |
 | "RichTkSegmentSelUp"                            |       100 |
 | "RichDetectableYieldsUp"                        |       100 |
 | "RichSignalYieldsUp"                            |       100 |
 | "RichSignalCKAnglesUp"                          |       100 |
 | "RichCKResolutionsUp"                           |       100 |
 | "RichPhotonRecoUp"                              |       100 |
 | "RichRecoStatsUp"                               |       100 |
 | "RichPredPixelSignalUp"                         |       100 |
 | "RichRecSummaryUp"                              |       100 |
 | "RiCKResUp"                                     |       100 |
 | "RiCKResUpTight"                                |       100 |
 | "RichGPIDInitUp"                                |       100 |
 | "RichPixBackgroundsIt0Up"                       |       100 |
 | "RichGPIDLikelihoodIt0Up"                       |       100 |
 | "RichPixBackgroundsIt1Up"                       |       100 |
 | "RichGPIDLikelihoodIt1Up"                       |       100 |
 | "RichGPIDWriteRichPIDsUp"                       |       100 |
 | "RiUpTrkEff"                                    |       100 |
 | "RichRecPixelQC"                                |       100 |
 | "RichFutureMoniClustering"                      |       100 |
 | "RichRecPixelClusters"                          |       100 |
 | "RichDecodingErrors"                            |       100 |
 | "MergeRichPIDs"                                 |       100 |
 | "FutureEcalZSup"                                |       100 |
 | "FutureEcalClust"                               |       100 |
 | "FutureEcalShare"                               |       100 |
 | "FutureEcalCovar"                               |       100 |

HLTControlFlowMgr    INFO
LAZY_AND: MiniBrunel   #=100     Sum=100         Eff=|( 100.0000 +- 0.00000 )%|
 createODIN            #=100     Sum=100         Eff=|( 100.0000 +- 0.00000 )%|
 PatPV3D               #=100     Sum=100         Eff=|( 100.0000 +- 0.00000 )%|
 RichRecoStatsLong     #=100     Sum=100         Eff=|( 100.0000 +- 0.00000 )%|
 RiCKResLong           #=100     Sum=100         Eff=|( 100.0000 +- 0.00000 )%|
 RiCKResLongTight      #=100     Sum=100         Eff=|( 100.0000 +- 0.00000 )%|
 RiLongTrkEff          #=100     Sum=100         Eff=|( 100.0000 +- 0.00000 )%|
 RichRecoStatsDown     #=100     Sum=100         Eff=|( 100.0000 +- 0.00000 )%|
 RiCKResDown           #=100     Sum=100         Eff=|( 100.0000 +- 0.00000 )%|
 RiCKResDownTight      #=100     Sum=100         Eff=|( 100.0000 +- 0.00000 )%|
 RiDownTrkEff          #=100     Sum=100         Eff=|( 100.0000 +- 0.00000 )%|
 RichRecoStatsUp       #=100     Sum=100         Eff=|( 100.0000 +- 0.00000 )%|
 RiCKResUp             #=100     Sum=100         Eff=|( 100.0000 +- 0.00000 )%|
 RiCKResUpTight        #=100     Sum=100         Eff=|( 100.0000 +- 0.00000 )%|
 RiUpTrkEff            #=100     Sum=100         Eff=|( 100.0000 +- 0.00000 )%|
 RichRecPixelQC        #=100     Sum=100         Eff=|( 100.0000 +- 0.00000 )%|
 RichRecPixelClusters  #=100     Sum=100         Eff=|( 100.0000 +- 0.00000 )%|
 RichDecodingErrors    #=100     Sum=100         Eff=|( 100.0000 +- 0.00000 )%|
 MergeRichPIDs         #=100     Sum=100         Eff=|( 100.0000 +- 0.00000 )%|
 FutureEcalCovar       #=100     Sum=100         Eff=|( 100.0000 +- 0.00000 )%|

HLTControlFlowMgr    INFO Histograms converted successfully according to request.
TimelineSvc          INFO Outputting timeline with 11700 entries to file  'TimelineFile':timeline.csv
TransportSvc      SUCCESS  GEOMETRY ERRORS: 'Skip'     map has the size 0

TransportSvc      SUCCESS  GEOMETRY ERRORS: 'Recover'  map has the size 0

TransportSvc      SUCCESS  GEOMETRY ERRORS: 'Codes'    map has the size 0

TransportSvc         INFO Reset the static pointer to DetDesc::IGeometyrErrorSvc
ToolSvc              INFO Removing all tools created by ToolSvc
FutureEcalCovar...SUCCESS Number of counters : 1
 |    Counter                                      |     #     |    sum     | mean/eff^* | rms/err^*  |     min     |     max     |
 | "parameter updated"                             |         2 |
FutureEcalShare...SUCCESS Number of counters : 10
 |    Counter                                      |     #     |    sum     | mean/eff^* | rms/err^*  |     min     |     max     |
 | "<delta> Inner"                                 |    105621 |    8568168 |     81.122 |     3.9834 |      81.241 |      81.241 |
 | "<delta> Middle"                                |     73440 |    7003168 |     95.359 |     0.0000 |      95.304 |      95.304 |
 | "<delta> Outer"                                 |    148699 |1.620578e+07 |     108.98 |     0.0000 |      108.88 |      108.88 |
 | "<gamma> Inner"                                 |    105621 |    1559001 |     14.760 |    0.55055 |      14.778 |      14.778 |
 | "<gamma> Middle"                                |     73440 |    1060225 |     14.437 |     0.0000 |      14.435 |      14.435 |
 | "<gamma> Outer"                                 |    148699 |    2173837 |     14.619 |    0.39752 |      14.614 |      14.614 |
 | "Delta(Z)"                                      |    327760 |3.738742e+07 |     114.07 |     11.919 |      76.704 |      172.94 |
 | "Delta(Z) Inner"                                |    105621 |1.196235e+07 |     113.26 |     11.088 |      79.301 |      151.08 |
 | "Delta(Z) Middle"                               |     73440 |    8292996 |     112.92 |     10.960 |      79.526 |      154.18 |
 | "Delta(Z) Outer"                                |    148699 |1.713251e+07 |     115.22 |     12.792 |      76.704 |      172.94 |
FutureEcalShare...SUCCESS Number of counters : 2
 |    Counter                                      |     #     |    sum     | mean/eff^* | rms/err^*  |     min     |     max     |
 | "Delta(X)"                                      |    327760 |  -29344.52 |  -0.089531 |     12.784 |     -23.059 |      22.930 |
 | "Delta(Y)"                                      |    327760 |  -47891.29 |   -0.14612 |     12.666 |     -25.369 |      22.930 |
PrMatchNNBest.P...SUCCESS Number of counters : 2
 |    Counter                                      |     #     |    sum     | mean/eff^* | rms/err^*  |     min     |     max     |
 | "#UT hits added"                                |      5868 |      37444 |     6.3810 |
 | "#tracks with hits added"                       |      5868 |
PrForwardTracki...SUCCESS Number of counters : 2
 |    Counter                                      |     #     |    sum     | mean/eff^* | rms/err^*  |     min     |     max     |
 | "#UT hits added"                                |      5958 |      37874 |     6.3568 |
 | "#tracks with hits added"                       |      5958 |
ApplicationMgr       INFO Application Manager Finalized successfully
ApplicationMgr       INFO Application Manager Terminated successfully
