# --> Including file '/workspace/build/Brunel/Rec/Brunel/python/upgrade_options/CutWithFit-VectorFitter.py'
# <-- End of file '/workspace/build/Brunel/Rec/Brunel/python/upgrade_options/CutWithFit-VectorFitter.py'
# --> Including file '/workspace/tmp/tmp5X6QMZ.opts'
# <-- End of file '/workspace/tmp/tmp5X6QMZ.opts'
# applying configuration of DDDBConf
# /***** User DDDBConf/DDDBConf **********************************************************************
# |-IgnoreHeartBeat     = True
# |-EnableRunStampCheck = False
# |-InitialTime         = 'Safe'
# |-Simulation          = True  (default: False)
# |-DataType            = 'Upgrade'  (default: '2012')
# |-DbRoot              = 'git:/lhcb.xml'
# |-OnlineMode          = False
# \----- (End of User DDDBConf/DDDBConf) -------------------------------------------------------------
# applying configuration of CondDB
# /***** User CondDB/CondDB **************************************************************************
# |-EnableRunChangeHandler     = False
# |-LocalTags                  = {}  (default: {})
# |-IgnoreHeartBeat            = False
# |-Tags                       = {'DDDB': 'dddb-20180815', 'SIMCOND': 'sim-20180530-vc-md100'}  (default: {})
# |-EnableRunStampCheck        = False
# |-Simulation                 = True  (default: False)
# |-Upgrade                    = True  (default: False)
# |-AllLocalTagsByDataType     = []  (default: [])
# |-Online                     = False
# |-QueryGranularity           = 0
# |-Overlays                   = []  (default: [])
# |-LatestGlobalTagByDataTypes = []  (default: [])
# |-LatestGlobalTagByDataType  = ''
# |-RunChangeHandlerConditions = {'online_%d.xml': ['Conditions/Online/LHCb/Magnet/Set', 'Conditions/Online/Velo/MotionSystem', 'Conditions/Online/LHCb/Lumi/LumiSettings', 'Conditions/Online/LHCb/LHCFillingScheme', 'Conditions/Online/LHCb/RunParameters', 'Conditions/Online/Rich1/R1HltGasParameters', 'Conditions/Online/Rich2/R2HltGasParameters']}
# |                            (default: {'online_%d.xml': ['Conditions/Online/LHCb/Magnet/Set', 'Conditions/Online/Velo/MotionSystem', 'Conditions/Online/LHCb/Lumi/LumiSettings', 'Conditions/Online/LHCb/LHCFillingScheme', 'Conditions/Online/LHCb/RunParameters', 'Conditions/Online/Rich1/R1HltGasParameters', 'Conditions/Online/Rich2/R2HltGasParameters']})
# \----- (End of User CondDB/CondDB) -----------------------------------------------------------------
ApplicationMgr    SUCCESS
====================================================================================================================================
                                                   Welcome to Brunel version HEAD
                                          running on lbbuild38.cern.ch on Fri Oct  4 11:39:43 2019
====================================================================================================================================
ApplicationMgr       INFO Application Manager Configured successfully
ToolSvc.GitDDDB      INFO opening Git repository '/cvmfs/lhcb.cern.ch/lib/lhcb/git-conddb/DDDB.git'
ToolSvc.GitDDDB      INFO using commit 'upgrade/dddb-20180815' corresponding to 91b4d152b57a944a3fd5727068cf830cd9b4bc13
ToolSvc.GitSIMCOND   INFO opening Git repository '/cvmfs/lhcb.cern.ch/lib/lhcb/git-conddb/SIMCOND.git'
ToolSvc.GitSIMCOND   INFO using commit 'upgrade/sim-20180530-vc-md100' corresponding to 7db2a32a63761eda1338a12fc643c76a22f55a62
DetectorPersist...   INFO Added successfully Conversion service:XmlCnvSvc
DetectorDataSvc   SUCCESS Detector description database: git:/lhcb.xml
HLTControlFlowMgr    INFO Start initialization
RootHistSvc          INFO Writing ROOT histograms to: PrCheckerPlots.root
HistogramPersis...   INFO Added successfully Conversion service:RootHistSvc
EventClockSvc.F...   INFO Event times generated from 0 with steps of 0
EventClockSvc.F...   INFO Run numbers generated from 0 every 0 events
DeVP                 INFO There are 208 sensors (left: 104, right: 104)
MagneticFieldSvc     INFO Opened magnetic field file : /workspace/build/DBASE/FieldMap/v5r7/cdf/field.v5r0.c1.down.cdf
MagneticFieldSvc     INFO Opened magnetic field file : /workspace/build/DBASE/FieldMap/v5r7/cdf/field.v5r0.c2.down.cdf
MagneticFieldSvc     INFO Opened magnetic field file : /workspace/build/DBASE/FieldMap/v5r7/cdf/field.v5r0.c3.down.cdf
MagneticFieldSvc     INFO Opened magnetic field file : /workspace/build/DBASE/FieldMap/v5r7/cdf/field.v5r0.c4.down.cdf
MagneticFieldSvc     INFO Map scaled by factor 1 with polarity internally used: -1 signed relative current: -1
PrVeloUTFast.Pr...   INFO Start generation of VeloUT Bdl LUTs
PrVeloUTFast.Pr...   INFO Generation of VeloUT Bdl LUTs finished
PrVeloUTFast.Pr...   INFO Start generation of VeloUT deflection LUTs
PrVeloUTFast.Pr...   INFO Generation of VeloUT deflection LUTs finished
RndmGenSvc.Engine    INFO Generator engine type:CLHEP::RanluxEngine
RndmGenSvc.Engine    INFO Current Seed:1234567 Luxury:3
RndmGenSvc           INFO Using Random engine:HepRndm::Engine<CLHEP::RanluxEngine>
PrVeloUTFast.Se...   INFO This machine has a speed about   2.70 times the speed of a 2.8 GHz Xeon.
DeFTDetector         INFO Current FT geometry version =   64
PrStoreFTHit         INFO FtDEt = DetectorElement::/dd/Structure/LHCb/AfterMagnetRegion/T/FTGeometryInfo::GeometryInfoPlus::name=/dd/Structure/LHCb/AfterMagnetRegion/T/FT; LVolume=/dd/Geometry/AfterMagnetRegion/T/FT/lvFT; supported by /dd/Structure/LHCb/AfterMagnetRegion/T with ReplicaPath=(0,) (pvFT);

ForwardFitterAl...   INFO Selected extrapolator TrackMasterExtrapolator/TrackMasterExtrapolator
TransportSvc         INFO Initialize the static pointer to DetDesc::IGeometryErrorSvc
TransportSvc         INFO Recovery of geometry errors is  ENABLED
ForwardFitterAl...   INFO Rec/Track/FTSoAAsTrackV2AsTrackV1 -> Rec/Track/FittedForward using ForwardFitterAlgVectorFast.TrackVectorFitter
HiveDataBrokerSvc WARNING non-reentrant algorithm: LoKi::VoidFilter/FilterOnNoPVs
HiveDataBrokerSvc WARNING non-reentrant algorithm: UnpackMCParticle
HiveDataBrokerSvc WARNING non-reentrant algorithm: UnpackMCVertex
HiveDataBrokerSvc WARNING createODIN contains alternatives which require resolution...
found matching output for /Event/DAQ/RawEvent -- updating info
Please update input to not require alternatives, and instead properly configure the dataloader
HiveDataBrokerSvc WARNING PrGECFilter contains alternatives which require resolution...
found matching output for /Event/DAQ/RawEvent -- updating info
Please update input to not require alternatives, and instead properly configure the dataloader
HiveDataBrokerSvc WARNING LHCb::Pr::StoreUTHit/PrStoreUTHit contains alternatives which require resolution...
found matching output for /Event/DAQ/RawEvent -- updating info
Please update input to not require alternatives, and instead properly configure the dataloader
HiveDataBrokerSvc WARNING LHCb::Pr::Velo::VPClusFull/VPClusFull contains alternatives which require resolution...
found matching output for /Event/DAQ/RawEvent -- updating info
Please update input to not require alternatives, and instead properly configure the dataloader
HLTControlFlowMgr    INFO Concurrency level information:
HLTControlFlowMgr    INFO  o Number of events slots: 1
HLTControlFlowMgr    INFO  o TBB thread pool size:  'ThreadPoolSize':1
HiveDataBrokerSvc WARNING /Event/Tracker/RawEvent:/Event/Other/RawEvent:/Event/DAQ/RawEvent contains alternatives which require resolution...
found matching output for /Event/DAQ/RawEvent -- updating info
Please update input to not require alternatives, and instead properly configure the dataloader
HLTControlFlowMgr    INFO ---> End of Initialization. This took 31488 ms
ApplicationMgr       INFO Application Manager Initialized successfully
ApplicationMgr       INFO Application Manager Started successfully
EventPersistenc...   INFO Added successfully Conversion service:RootCnvSvc
EventSelector        INFO Stream:EventSelector.DataStreamTool_1 Def:DATAFILE='root://eoslhcb.cern.ch//eos/lhcb/wg/SciFi/Simulation/MinBiasRawBankv5/00067189_1.digi.digi' SVC='Gaudi::RootEvtSelector' OPT='READ' IgnoreChecksum='YES'
HLTControlFlowMgr    INFO Will measure time between events 10 and 90 (stop might be some events later)
HLTControlFlowMgr    INFO Starting loop on events
EventSelector     SUCCESS Reading Event record 1. Record number within stream 1: 1
ToolSvc.VPClust...   INFO VPLightClusters::nPixels = 1, not storing anymore list of pixels contributing to cluster
HLTControlFlowMgr    INFO ---> Loop over 100 Events Finished -  WSS 1219.69, timed 81 Events: 6484 ms, Evts/s = 12.4923
ApplicationMgr       INFO Application Manager Stopped successfully
PrGECFilter       SUCCESS Number of counters : 2
 |    Counter                                      |     #     |    sum     | mean/eff^* | rms/err^*  |     min     |     max     |
 | "Nb Events Processed"                           |       100 |
 | "Nb events removed"                             |         4 |
PrPixelTracking   SUCCESS Number of counters : 2
 |    Counter                                      |     #     |    sum     | mean/eff^* | rms/err^*  |     min     |     max     |
 | "NbClustersProduced"                            |        96 |     164033 |     1708.7 |
 | "NbVeloTracksProduced"                          |        96 |      18436 |     192.04 |
VSPClustering     SUCCESS Number of counters : 1
 |    Counter                                      |     #     |    sum     | mean/eff^* | rms/err^*  |     min     |     max     |
 | "Nb of Produced Clusters"                       |        96 |     164033 |     1708.7 |
ConverterVP       SUCCESS Number of counters : 1
 |    Counter                                      |     #     |    sum     | mean/eff^* | rms/err^*  |     min     |     max     |
 | "Nb of Produced Tracks"                         |        96 |      18436 |     192.04 |
PatPV3D           SUCCESS Number of counters : 1
 |    Counter                                      |     #     |    sum     | mean/eff^* | rms/err^*  |     min     |     max     |
 | "Nb PVs"                                        |        96 |        437 |     4.5521 |
FilterOnNoPVs     SUCCESS Number of counters : 1
 |    Counter                                      |     #     |    sum     | mean/eff^* | rms/err^*  |     min     |     max     |
 |*"#passed"                                       |        96 |         94 |( 97.91667 +- 1.457713)%|   -------   |   -------   |
PrVeloUTIPFilter  SUCCESS Number of counters : 1
 |    Counter                                      |     #     |    sum     | mean/eff^* | rms/err^*  |     min     |     max     |
 |*"Cut selection efficiency"                      |     11595 |       4728 |( 40.77620 +- 0.4563690)% |
ConverterVPWith...SUCCESS Number of counters : 1
 |    Counter                                      |     #     |    sum     | mean/eff^* | rms/err^*  |     min     |     max     |
 | "Nb of Produced Tracks"                         |        94 |       4728 |     50.298 |
PrStoreUTHit      SUCCESS Number of counters : 2
 |    Counter                                      |     #     |    sum     | mean/eff^* | rms/err^*  |     min     |     max     |
 | "# valid banks"                                 |     16920 |
 | "# valid source ID"                             |     16920 |
PrVeloUTFast      SUCCESS Number of counters : 2
 |    Counter                                      |     #     |    sum     | mean/eff^* | rms/err^*  |     min     |     max     |
 | "#seeds"                                        |        94 |       4728 |     50.298 |
 | "#tracks"                                       |        94 |        226 |     2.4043 |
TracksUTConverter SUCCESS Number of counters : 1
 |    Counter                                      |     #     |    sum     | mean/eff^* | rms/err^*  |     min     |     max     |
 | "Nb of Produced Tracks"                         |        94 |        226 |     2.4043 |
PrForwardTracki...SUCCESS Number of counters : 1
 |    Counter                                      |     #     |    sum     | mean/eff^* | rms/err^*  |     min     |     max     |
 | "Nb output tracks"                              |        78 |         33 |    0.42308 |
TracksFTConverter SUCCESS Number of counters : 1
 |    Counter                                      |     #     |    sum     | mean/eff^* | rms/err^*  |     min     |     max     |
 | "Nb of Produced Tracks"                         |        94 |         33 |    0.35106 |
ForwardFitterAl...   INFO   Fitting performance   :   100.00 %
ForwardFitterAl...SUCCESS Number of counters : 7
 |    Counter                                      |     #     |    sum     | mean/eff^* | rms/err^*  |     min     |     max     |
 | "Long.badChisq"                                 |        33 |         18 |    0.54545 |    0.49793 |      0.0000 |      1.0000 |
 | "Long.chisqprobSum"                             |        33 |   6.873301 |    0.20828 |    0.32537 |      0.0000 |     0.99911 |
 | "Long.flipCharge"                               |        33 |          0 |     0.0000 |     0.0000 |      0.0000 |      0.0000 |
 | "Long.numOutliers"                              |        33 |          0 |     0.0000 |     0.0000 |      0.0000 |      0.0000 |
 | "nBadInput"                                     |        94 |          0 |     0.0000 |
 | "nFitted"                                       |        94 |         33 |    0.35106 |
 | "nTracks"                                       |        94 |         33 |    0.35106 |
PrLHCbID2MCPart...SUCCESS Number of counters : 1
 |    Counter                                      |     #     |    sum     | mean/eff^* | rms/err^*  |     min     |     max     |
 | "#removed null MCParticles"                     |    586140 |          0 |     0.0000 |
VeloTrackAssoci...SUCCESS Number of counters : 2
 |    Counter                                      |     #     |    sum     | mean/eff^* | rms/err^*  |     min     |     max     |
 |*"Efficiency"                                    |     18430 |      18268 |( 99.12100 +- 0.06875670)% |
 | "MC particles per track"                        |     18268 |      18363 |     1.0052 |
PrCheckerVelo        INFO Results
PrCheckerVelo        INFO **** Velo                            18430 tracks including            162 ghosts [ 0.88 %], Event average  0.83 % ****
PrCheckerVelo        INFO   01_velo                        :   16545 from    19998 [ 82.73 %]    198 clones [ 1.18 %], purity: 99.83 %, hitEff: 92.02 %, hitEffFirst3: 93.20 %, hitEffLast: 89.56 %
PrCheckerVelo        INFO   02_long                        :    5388 from     5634 [ 95.63 %]     52 clones [ 0.96 %], purity: 99.86 %, hitEff: 93.53 %, hitEffFirst3: 95.24 %, hitEffLast: 91.58 %
PrCheckerVelo        INFO   03_long>5GeV                   :    3497 from     3564 [ 98.12 %]     23 clones [ 0.65 %], purity: 99.86 %, hitEff: 95.41 %, hitEffFirst3: 96.34 %, hitEffLast: 94.57 %
PrCheckerVelo        INFO   04_long_strange                :     207 from      265 [ 78.11 %]      2 clones [ 0.96 %], purity: 99.80 %, hitEff: 85.94 %, hitEffFirst3: 78.79 %, hitEffLast: 88.67 %
PrCheckerVelo        INFO   05_long_strange>5GeV           :     118 from      132 [ 89.39 %]      1 clones [ 0.84 %], purity: 99.79 %, hitEff: 92.15 %, hitEffFirst3: 90.20 %, hitEffLast: 92.25 %
PrCheckerVelo        INFO   06_long_fromB                  :       7 from        7 [100.00 %]      0 clones [ 0.00 %], purity:100.00 %, hitEff: 88.64 %, hitEffFirst3:100.00 %, hitEffLast: 77.38 %
PrCheckerVelo        INFO   07_long_fromB>5GeV             :       5 from        5 [100.00 %]      0 clones [ 0.00 %], purity:100.00 %, hitEff: 96.00 %, hitEffFirst3:100.00 %, hitEffLast: 90.00 %
PrCheckerVelo        INFO   08_long_electrons              :     360 from      400 [ 90.00 %]      3 clones [ 0.83 %], purity: 96.65 %, hitEff: 88.68 %, hitEffFirst3: 84.21 %, hitEffLast: 89.25 %
PrCheckerVelo        INFO   09_long_fromB_electrons        :       1 from        1 [100.00 %]      0 clones [ 0.00 %], purity:100.00 %, hitEff:100.00 %, hitEffFirst3:100.00 %, hitEffLast:100.00 %
PrCheckerVelo        INFO   10_long_fromB_electrons_P>5GeV :       1 from        1 [100.00 %]      0 clones [ 0.00 %], purity:100.00 %, hitEff:100.00 %, hitEffFirst3:100.00 %, hitEffLast:100.00 %
PrCheckerVelo        INFO
UTTrackAssociator SUCCESS Number of counters : 2
 |    Counter                                      |     #     |    sum     | mean/eff^* | rms/err^*  |     min     |     max     |
 |*"Efficiency"                                    |       226 |        178 |( 78.76106 +- 2.720620)% |
 | "MC particles per track"                        |       178 |        178 |     1.0000 |
PrCheckerUT          INFO Results
PrCheckerUT          INFO **** UT                                226 tracks including             48 ghosts [21.24 %], Event average 12.78 % ****
PrCheckerUT          INFO   01_velo                        :     170 from    19998 [  0.85 %]      0 clones [ 0.00 %], purity: 98.75 %, hitEff: 93.83 %
PrCheckerUT          INFO   02_velo+UT                     :     170 from     8531 [  1.99 %]      0 clones [ 0.00 %], purity: 98.75 %, hitEff: 93.83 %
PrCheckerUT          INFO   03_velo+UT>5GeV                :     129 from     4045 [  3.19 %]      0 clones [ 0.00 %], purity: 99.39 %, hitEff: 97.29 %
PrCheckerUT          INFO   04_velo+notLong                :      27 from    14364 [  0.19 %]      0 clones [ 0.00 %], purity: 97.72 %, hitEff: 89.26 %
PrCheckerUT          INFO   05_velo+UT+notLong             :      27 from     3257 [  0.83 %]      0 clones [ 0.00 %], purity: 97.72 %, hitEff: 89.26 %
PrCheckerUT          INFO   06_velo+UT+notLong>5GeV        :      13 from      773 [  1.68 %]      0 clones [ 0.00 %], purity: 99.52 %, hitEff:100.00 %
PrCheckerUT          INFO   07_long                        :     143 from     5634 [  2.54 %]      0 clones [ 0.00 %], purity: 98.94 %, hitEff: 94.70 %
PrCheckerUT          INFO   08_long>5GeV                   :     116 from     3564 [  3.25 %]      0 clones [ 0.00 %], purity: 99.38 %, hitEff: 96.98 %
PrCheckerUT          INFO   09_long_fromB                  :       4 from        7 [ 57.14 %]      0 clones [ 0.00 %], purity:100.00 %, hitEff:100.00 %
PrCheckerUT          INFO   10_long_fromB>5GeV             :       4 from        5 [ 80.00 %]      0 clones [ 0.00 %], purity:100.00 %, hitEff:100.00 %
PrCheckerUT          INFO   11_long_electrons              :       7 from      400 [  1.75 %]      0 clones [ 0.00 %], purity: 96.05 %, hitEff: 88.81 %
PrCheckerUT          INFO   12_long_fromB_electrons        :       1 from        1 [100.00 %]      0 clones [ 0.00 %], purity:100.00 %, hitEff:100.00 %
PrCheckerUT          INFO   13_long_fromB_electrons_P>5GeV :       1 from        1 [100.00 %]      0 clones [ 0.00 %], purity:100.00 %, hitEff:100.00 %
PrCheckerUT          INFO
FTTrackAssociator SUCCESS Number of counters : 2
 |    Counter                                      |     #     |    sum     | mean/eff^* | rms/err^*  |     min     |     max     |
 |*"Efficiency"                                    |        33 |         30 |( 90.90909 +- 5.004381)% |
 | "MC particles per track"                        |        30 |         34 |     1.1333 |
PrCheckerForward     INFO Results
PrCheckerForward     INFO **** Forward                            33 tracks including              3 ghosts [ 9.09 %], Event average  2.13 % ****
PrCheckerForward     INFO   01_long                        :      28 from     5634 [  0.50 %]      0 clones [ 0.00 %], purity: 99.13 %, hitEff: 96.40 %
PrCheckerForward     INFO   02_long>5GeV                   :      28 from     3564 [  0.79 %]      0 clones [ 0.00 %], purity: 99.13 %, hitEff: 96.40 %
PrCheckerForward     INFO   03_long_strange                :       8 from      265 [  3.02 %]      0 clones [ 0.00 %], purity: 99.34 %, hitEff: 96.77 %
PrCheckerForward     INFO   04_long_strange>5GeV           :       8 from      132 [  6.06 %]      0 clones [ 0.00 %], purity: 99.34 %, hitEff: 96.77 %
PrCheckerForward     INFO   05_long_fromB                  :       2 from        7 [ 28.57 %]      0 clones [ 0.00 %], purity:100.00 %, hitEff:100.00 %
PrCheckerForward     INFO   06_long_fromB>5GeV             :       2 from        5 [ 40.00 %]      0 clones [ 0.00 %], purity:100.00 %, hitEff:100.00 %
PrCheckerForward     INFO   07_long_electrons              :       2 from      400 [  0.50 %]      0 clones [ 0.00 %], purity: 97.22 %, hitEff: 87.06 %
PrCheckerForward     INFO   08_long_fromB_electrons        :       0 from        1 [  0.00 %]      0 clones [ 0.00 %], purity:  0.00 %, hitEff:  0.00 %
PrCheckerForward     INFO   09_long_fromB_electrons_P>5GeV :       0 from        1 [  0.00 %]      0 clones [ 0.00 %], purity:  0.00 %, hitEff:  0.00 %
PrCheckerForward     INFO
PrCheckerUTForward   INFO Results
PrCheckerUTForward   INFO **** UT Efficiency for /Event/Rec/Track/FTSoAAsTrackV2_v1 ****       3 ghost,  4.00 UT per track
PrCheckerUTForward   INFO             01_long :    28 tr  4.04 from  4.04 mcUT [100.0 %]  0.04 ghost hits on real tracks [ 0.9 %]
PrCheckerUTForward   INFO        01_long >3UT :    28 tr  4.04 from  4.04 mcUT [100.0 %]  0.04 ghost hits on real tracks [ 0.9 %]
PrCheckerUTForward   INFO        02_long>5GeV :    28 tr  4.04 from  4.04 mcUT [100.0 %]  0.04 ghost hits on real tracks [ 0.9 %]
PrCheckerUTForward   INFO   02_long>5GeV >3UT :    28 tr  4.04 from  4.04 mcUT [100.0 %]  0.04 ghost hits on real tracks [ 0.9 %]
PrCheckerUTForward   INFO
HLTControlFlowMgr    INFO
 | Name of Algorithm                               | Execution Count
 | "FetchDataFromFile"                             |       100 |
 | "DummyEventTime"                                |       100 |
 | "ReserveIOV"                                    |       100 |
 | "PrGECFilter"                                   |       100 |
 | "VSPClustering"                                 |        96 |
 | "PrPixelTracking"                               |        96 |
 | "ConverterVP"                                   |        96 |
 | "PatPV3D"                                       |        96 |
 | "FilterOnNoPVs"                                 |        96 |
 | "createFTClusters"                              |        94 |
 | "PrStoreFTHit"                                  |        94 |
 | "PrVeloUTIPFilter"                              |        94 |
 | "PrStoreUTHit"                                  |        94 |
 | "PrVeloUTFast"                                  |        94 |
 | "PrForwardTrackingFast"                         |        94 |
 | "ConverterVPWithIPCut"                          |        94 |
 | "TracksUTConverter"                             |        94 |
 | "TracksFTConverter"                             |        94 |
 | "ConverterV1V2ForForwardFit"                    |        94 |
 | "ForwardFitterAlgVectorFast"                    |        94 |
 | "VPClusFull"                                    |        94 |
 | "UnpackMCParticle"                              |        94 |
 | "VPFullCluster2MCParticleLinker"                |        94 |
 | "PrLHCbID2MCParticle"                           |        94 |
 | "UnpackMCVertex"                                |        94 |
 | "TrackConverterVelo"                            |        94 |
 | "VeloTrackAssociator"                           |        94 |
 | "PrCheckerVelo"                                 |        94 |
 | "TrackConverterUT"                              |        94 |
 | "UTTrackAssociator"                             |        94 |
 | "PrCheckerUT"                                   |        94 |
 | "TrackConverterFT"                              |        94 |
 | "FTTrackAssociator"                             |        94 |
 | "PrCheckerForward"                              |        94 |
 | "PrCheckerUTForward"                            |        94 |

HLTControlFlowMgr    INFO
LAZY_AND: moore              #=100     Sum=94          Eff=|( 94.00000 +- 2.37487 )%|
 PrGECFilter                 #=100     Sum=96          Eff=|( 96.00000 +- 1.95959 )%|
 FilterOnNoPVs               #=96      Sum=94          Eff=|( 97.91667 +- 1.45771 )%|
 PrForwardTrackingFast       #=94      Sum=94          Eff=|( 100.0000 +- 0.00000 )%|
 ForwardFitterAlgVectorFast  #=94      Sum=94          Eff=|( 100.0000 +- 0.00000 )%|
 PrCheckerVelo               #=94      Sum=94          Eff=|( 100.0000 +- 0.00000 )%|
 PrCheckerUT                 #=94      Sum=94          Eff=|( 100.0000 +- 0.00000 )%|
 PrCheckerForward            #=94      Sum=94          Eff=|( 100.0000 +- 0.00000 )%|
 PrCheckerUTForward          #=94      Sum=94          Eff=|( 100.0000 +- 0.00000 )%|

HLTControlFlowMgr    INFO Histograms converted successfully according to request.
TransportSvc      SUCCESS  GEOMETRY ERRORS: 'Skip'     map has the size 0

TransportSvc      SUCCESS  GEOMETRY ERRORS: 'Recover'  map has the size 0

TransportSvc      SUCCESS  GEOMETRY ERRORS: 'Codes'    map has the size 0

TransportSvc         INFO Reset the static pointer to DetDesc::IGeometyrErrorSvc
ToolSvc              INFO Removing all tools created by ToolSvc
ToolSvc.CoreFac...SUCCESS Number of counters : 1
 |    Counter                                      |     #     |    sum     | mean/eff^* | rms/err^*  |     min     |     max     |
 | "# loaded from PYTHON"                          |         1 |          1 |     1.0000 |     0.0000 |      1.0000 |      1.0000 |
PrCheckerUTForw...SUCCESS Booked 76 Histogram(s) : 1D=48 2D=28
PrCheckerForwar...SUCCESS Booked 325 Histogram(s) : 1D=228 2D=97
PrCheckerUT.PrC...SUCCESS Booked 515 Histogram(s) : 1D=362 2D=153
PrCheckerVelo.P...SUCCESS Booked 388 Histogram(s) : 1D=275 2D=113
PrVeloUTFast.Se...   INFO --------------------------------------------------------------------------------------------------
PrVeloUTFast.Se...   INFO This machine has a speed about   2.70 times the speed of a 2.8 GHz Xeon.
PrVeloUTFast.Se...   INFO Algorithm          (millisec) |    <user> |   <clock> |      min       max    sigma | entries | total (s) |
PrVeloUTFast.Se...   INFO --------------------------------------------------------------------------------------------------
PrVeloUTFast.Se...   INFO --------------------------------------------------------------------------------------------------
ToolSvc.MCHybri...SUCCESS Number of counters : 1
 |    Counter                                      |     #     |    sum     | mean/eff^* | rms/err^*  |     min     |     max     |
 | "# loaded from PYTHON"                          |        34 |         34 |     1.0000 |     0.0000 |      1.0000 |      1.0000 |
RootCnvSvc           INFO Disconnected data IO:E6D066DB-3E6A-E811-A8AF-002219434445 [root://eoslhcb.cern.ch//eos/lhcb/wg/SciFi/Simulation/MinBiasRawBankv5/00067189_1.digi.digi]
ApplicationMgr       INFO Application Manager Finalized successfully
ApplicationMgr       INFO Application Manager Terminated successfully
