# --> Including file '/workspace/build/Brunel/Rec/Brunel/python/upgrade_options/NoCutWithFit.py'
# <-- End of file '/workspace/build/Brunel/Rec/Brunel/python/upgrade_options/NoCutWithFit.py'
# --> Including file '/workspace/tmp/tmpopyFve.opts'
# <-- End of file '/workspace/tmp/tmpopyFve.opts'
# applying configuration of DDDBConf
# /***** User DDDBConf/DDDBConf **********************************************************************
# |-IgnoreHeartBeat     = True
# |-EnableRunStampCheck = False
# |-InitialTime         = 'Safe'
# |-Simulation          = True  (default: False)
# |-DataType            = 'Upgrade'  (default: '2012')
# |-DbRoot              = 'git:/lhcb.xml'
# |-OnlineMode          = False
# \----- (End of User DDDBConf/DDDBConf) -------------------------------------------------------------
# applying configuration of CondDB
# /***** User CondDB/CondDB **************************************************************************
# |-EnableRunChangeHandler     = False
# |-LocalTags                  = {}  (default: {})
# |-IgnoreHeartBeat            = False
# |-Tags                       = {'DDDB': 'dddb-20180815', 'SIMCOND': 'sim-20180530-vc-md100'}  (default: {})
# |-EnableRunStampCheck        = False
# |-Simulation                 = True  (default: False)
# |-Upgrade                    = True  (default: False)
# |-AllLocalTagsByDataType     = []  (default: [])
# |-Online                     = False
# |-QueryGranularity           = 0
# |-Overlays                   = []  (default: [])
# |-LatestGlobalTagByDataTypes = []  (default: [])
# |-LatestGlobalTagByDataType  = ''
# |-RunChangeHandlerConditions = {'online_%d.xml': ['Conditions/Online/LHCb/Magnet/Set', 'Conditions/Online/Velo/MotionSystem', 'Conditions/Online/LHCb/Lumi/LumiSettings', 'Conditions/Online/LHCb/LHCFillingScheme', 'Conditions/Online/LHCb/RunParameters', 'Conditions/Online/Rich1/R1HltGasParameters', 'Conditions/Online/Rich2/R2HltGasParameters']}
# |                            (default: {'online_%d.xml': ['Conditions/Online/LHCb/Magnet/Set', 'Conditions/Online/Velo/MotionSystem', 'Conditions/Online/LHCb/Lumi/LumiSettings', 'Conditions/Online/LHCb/LHCFillingScheme', 'Conditions/Online/LHCb/RunParameters', 'Conditions/Online/Rich1/R1HltGasParameters', 'Conditions/Online/Rich2/R2HltGasParameters']})
# \----- (End of User CondDB/CondDB) -----------------------------------------------------------------
ApplicationMgr    SUCCESS
====================================================================================================================================
                                                   Welcome to Brunel version HEAD
                                          running on lbbuild38.cern.ch on Fri Oct  4 12:11:11 2019
====================================================================================================================================
ApplicationMgr       INFO Application Manager Configured successfully
ToolSvc.GitDDDB      INFO opening Git repository '/cvmfs/lhcb.cern.ch/lib/lhcb/git-conddb/DDDB.git'
ToolSvc.GitDDDB      INFO using commit 'upgrade/dddb-20180815' corresponding to 91b4d152b57a944a3fd5727068cf830cd9b4bc13
ToolSvc.GitSIMCOND   INFO opening Git repository '/cvmfs/lhcb.cern.ch/lib/lhcb/git-conddb/SIMCOND.git'
ToolSvc.GitSIMCOND   INFO using commit 'upgrade/sim-20180530-vc-md100' corresponding to 7db2a32a63761eda1338a12fc643c76a22f55a62
DetectorPersist...   INFO Added successfully Conversion service:XmlCnvSvc
DetectorDataSvc   SUCCESS Detector description database: git:/lhcb.xml
HLTControlFlowMgr    INFO Start initialization
RootHistSvc          INFO Writing ROOT histograms to: PrCheckerPlots.root
HistogramPersis...   INFO Added successfully Conversion service:RootHistSvc
EventClockSvc.F...   INFO Event times generated from 0 with steps of 0
EventClockSvc.F...   INFO Run numbers generated from 0 every 0 events
DeVP                 INFO There are 208 sensors (left: 104, right: 104)
MagneticFieldSvc     INFO Opened magnetic field file : /workspace/build/DBASE/FieldMap/v5r7/cdf/field.v5r0.c1.down.cdf
MagneticFieldSvc     INFO Opened magnetic field file : /workspace/build/DBASE/FieldMap/v5r7/cdf/field.v5r0.c2.down.cdf
MagneticFieldSvc     INFO Opened magnetic field file : /workspace/build/DBASE/FieldMap/v5r7/cdf/field.v5r0.c3.down.cdf
MagneticFieldSvc     INFO Opened magnetic field file : /workspace/build/DBASE/FieldMap/v5r7/cdf/field.v5r0.c4.down.cdf
MagneticFieldSvc     INFO Map scaled by factor 1 with polarity internally used: -1 signed relative current: -1
PrVeloUTFast.Pr...   INFO Start generation of VeloUT Bdl LUTs
PrVeloUTFast.Pr...   INFO Generation of VeloUT Bdl LUTs finished
PrVeloUTFast.Pr...   INFO Start generation of VeloUT deflection LUTs
PrVeloUTFast.Pr...   INFO Generation of VeloUT deflection LUTs finished
RndmGenSvc.Engine    INFO Generator engine type:CLHEP::RanluxEngine
RndmGenSvc.Engine    INFO Current Seed:1234567 Luxury:3
RndmGenSvc           INFO Using Random engine:HepRndm::Engine<CLHEP::RanluxEngine>
PrVeloUTFast.Se...   INFO This machine has a speed about   2.70 times the speed of a 2.8 GHz Xeon.
DeFTDetector         INFO Current FT geometry version =   64
PrStoreFTHit         INFO FtDEt = DetectorElement::/dd/Structure/LHCb/AfterMagnetRegion/T/FTGeometryInfo::GeometryInfoPlus::name=/dd/Structure/LHCb/AfterMagnetRegion/T/FT; LVolume=/dd/Geometry/AfterMagnetRegion/T/FT/lvFT; supported by /dd/Structure/LHCb/AfterMagnetRegion/T with ReplicaPath=(0,) (pvFT);

ForwardFitterAl...   INFO Use parameters from /cvmfs/lhcb.cern.ch/lib/lhcb/PARAM/ParamFiles/v8r27p1/data/ParametrizedKalmanFit/FT6x2/Mag*
TransportSvc         INFO Initialize the static pointer to DetDesc::IGeometryErrorSvc
TransportSvc         INFO Recovery of geometry errors is  ENABLED
HiveDataBrokerSvc WARNING non-reentrant algorithm: LoKi::VoidFilter/FilterOnNoPVs
HiveDataBrokerSvc WARNING non-reentrant algorithm: UnpackMCParticle
HiveDataBrokerSvc WARNING non-reentrant algorithm: UnpackMCVertex
HiveDataBrokerSvc WARNING createODIN contains alternatives which require resolution...
found matching output for /Event/DAQ/RawEvent -- updating info
Please update input to not require alternatives, and instead properly configure the dataloader
HiveDataBrokerSvc WARNING PrGECFilter contains alternatives which require resolution...
found matching output for /Event/DAQ/RawEvent -- updating info
Please update input to not require alternatives, and instead properly configure the dataloader
HiveDataBrokerSvc WARNING LHCb::Pr::StoreUTHit/PrStoreUTHit contains alternatives which require resolution...
found matching output for /Event/DAQ/RawEvent -- updating info
Please update input to not require alternatives, and instead properly configure the dataloader
HiveDataBrokerSvc WARNING LHCb::Pr::Velo::VPClusFull/VPClusFull contains alternatives which require resolution...
found matching output for /Event/DAQ/RawEvent -- updating info
Please update input to not require alternatives, and instead properly configure the dataloader
HLTControlFlowMgr    INFO Concurrency level information:
HLTControlFlowMgr    INFO  o Number of events slots: 1
HLTControlFlowMgr    INFO  o TBB thread pool size:  'ThreadPoolSize':1
HiveDataBrokerSvc WARNING /Event/Tracker/RawEvent:/Event/Other/RawEvent:/Event/DAQ/RawEvent contains alternatives which require resolution...
found matching output for /Event/DAQ/RawEvent -- updating info
Please update input to not require alternatives, and instead properly configure the dataloader
HLTControlFlowMgr    INFO ---> End of Initialization. This took 29942 ms
ApplicationMgr       INFO Application Manager Initialized successfully
ApplicationMgr       INFO Application Manager Started successfully
EventPersistenc...   INFO Added successfully Conversion service:RootCnvSvc
EventSelector        INFO Stream:EventSelector.DataStreamTool_1 Def:DATAFILE='root://eoslhcb.cern.ch//eos/lhcb/wg/SciFi/Simulation/MinBiasRawBankv5/00067189_1.digi.digi' SVC='Gaudi::RootEvtSelector' OPT='READ' IgnoreChecksum='YES'
HLTControlFlowMgr    INFO Will measure time between events 100 and 900 (stop might be some events later)
HLTControlFlowMgr    INFO Starting loop on events
EventSelector     SUCCESS Reading Event record 1. Record number within stream 1: 1
ToolSvc.VPClust...   INFO VPLightClusters::nPixels = 1, not storing anymore list of pixels contributing to cluster
HLTControlFlowMgr    INFO ---> Loop over 1000 Events Finished -  WSS 1225.24, timed 801 Events: 76049 ms, Evts/s = 10.5327
ApplicationMgr       INFO Application Manager Stopped successfully
PrGECFilter       SUCCESS Number of counters : 2
 |    Counter                                      |     #     |    sum     | mean/eff^* | rms/err^*  |     min     |     max     |
 | "Nb Events Processed"                           |      1000 |
 | "Nb events removed"                             |        65 |
PrPixelTracking   SUCCESS Number of counters : 2
 |    Counter                                      |     #     |    sum     | mean/eff^* | rms/err^*  |     min     |     max     |
 | "NbClustersProduced"                            |       935 |    1620769 |     1733.4 |
 | "NbVeloTracksProduced"                          |       935 |     182281 |     194.95 |
VSPClustering     SUCCESS Number of counters : 1
 |    Counter                                      |     #     |    sum     | mean/eff^* | rms/err^*  |     min     |     max     |
 | "Nb of Produced Clusters"                       |       935 |    1620769 |     1733.4 |
ConverterVP       SUCCESS Number of counters : 1
 |    Counter                                      |     #     |    sum     | mean/eff^* | rms/err^*  |     min     |     max     |
 | "Nb of Produced Tracks"                         |       935 |     182281 |     194.95 |
PatPV3D           SUCCESS Number of counters : 1
 |    Counter                                      |     #     |    sum     | mean/eff^* | rms/err^*  |     min     |     max     |
 | "Nb PVs"                                        |       935 |       4287 |     4.5850 |
FilterOnNoPVs     SUCCESS Number of counters : 1
 |    Counter                                      |     #     |    sum     | mean/eff^* | rms/err^*  |     min     |     max     |
 |*"#passed"                                       |       935 |        928 |( 99.25134 +- 0.2819068)%|   -------   |   -------   |
PrStoreUTHit      SUCCESS Number of counters : 2
 |    Counter                                      |     #     |    sum     | mean/eff^* | rms/err^*  |     min     |     max     |
 | "# valid banks"                                 |    167040 |
 | "# valid source ID"                             |    167040 |
PrVeloUTFast      SUCCESS Number of counters : 2
 |    Counter                                      |     #     |    sum     | mean/eff^* | rms/err^*  |     min     |     max     |
 | "#seeds"                                        |       928 |     114317 |     123.19 |
 | "#tracks"                                       |       928 |      31889 |     34.363 |
TracksUTConverter SUCCESS Number of counters : 1
 |    Counter                                      |     #     |    sum     | mean/eff^* | rms/err^*  |     min     |     max     |
 | "Nb of Produced Tracks"                         |       928 |      31889 |     34.363 |
PrForwardTracki...SUCCESS Number of counters : 1
 |    Counter                                      |     #     |    sum     | mean/eff^* | rms/err^*  |     min     |     max     |
 | "Nb output tracks"                              |       921 |      19514 |     21.188 |
TracksFTConverter SUCCESS Number of counters : 1
 |    Counter                                      |     #     |    sum     | mean/eff^* | rms/err^*  |     min     |     max     |
 | "Nb of Produced Tracks"                         |       928 |      19514 |     21.028 |
PrLHCbID2MCPart...SUCCESS Number of counters : 1
 |    Counter                                      |     #     |    sum     | mean/eff^* | rms/err^*  |     min     |     max     |
 | "#removed null MCParticles"                     |   5776828 |          0 |     0.0000 |
VeloTrackAssoci...SUCCESS Number of counters : 2
 |    Counter                                      |     #     |    sum     | mean/eff^* | rms/err^*  |     min     |     max     |
 |*"Efficiency"                                    |    182266 |     180738 |( 99.16166 +- 0.02135639)% |
 | "MC particles per track"                        |    180738 |     181566 |     1.0046 |
PrCheckerVelo        INFO Results
PrCheckerVelo        INFO **** Velo                           182266 tracks including           1528 ghosts [ 0.84 %], Event average  0.82 % ****
PrCheckerVelo        INFO   01_velo                        :  163404 from   198057 [ 82.50 %]   2130 clones [ 1.29 %], purity: 99.84 %, hitEff: 92.04 %, hitEffFirst3: 93.15 %, hitEffLast: 89.68 %
PrCheckerVelo        INFO   02_long                        :   52059 from    54511 [ 95.50 %]    555 clones [ 1.05 %], purity: 99.84 %, hitEff: 93.48 %, hitEffFirst3: 95.04 %, hitEffLast: 91.66 %
PrCheckerVelo        INFO   03_long>5GeV                   :   33498 from    34129 [ 98.15 %]    244 clones [ 0.72 %], purity: 99.84 %, hitEff: 95.41 %, hitEffFirst3: 96.16 %, hitEffLast: 94.71 %
PrCheckerVelo        INFO   04_long_strange                :    2175 from     2810 [ 77.40 %]     28 clones [ 1.27 %], purity: 99.65 %, hitEff: 85.82 %, hitEffFirst3: 78.97 %, hitEffLast: 88.82 %
PrCheckerVelo        INFO   05_long_strange>5GeV           :    1205 from     1414 [ 85.22 %]     17 clones [ 1.39 %], purity: 99.51 %, hitEff: 89.56 %, hitEffFirst3: 84.75 %, hitEffLast: 92.08 %
PrCheckerVelo        INFO   06_long_fromB                  :      42 from       45 [ 93.33 %]      0 clones [ 0.00 %], purity:100.00 %, hitEff: 91.72 %, hitEffFirst3: 96.03 %, hitEffLast: 86.52 %
PrCheckerVelo        INFO   07_long_fromB>5GeV             :      29 from       30 [ 96.67 %]      0 clones [ 0.00 %], purity:100.00 %, hitEff: 94.76 %, hitEffFirst3: 98.85 %, hitEffLast: 89.68 %
PrCheckerVelo        INFO   08_long_electrons              :    3657 from     4118 [ 88.81 %]     32 clones [ 0.87 %], purity: 96.90 %, hitEff: 88.56 %, hitEffFirst3: 82.43 %, hitEffLast: 91.10 %
PrCheckerVelo        INFO   09_long_fromB_electrons        :       6 from        6 [100.00 %]      0 clones [ 0.00 %], purity:100.00 %, hitEff: 96.63 %, hitEffFirst3: 94.44 %, hitEffLast: 97.22 %
PrCheckerVelo        INFO   10_long_fromB_electrons_P>5GeV :       4 from        4 [100.00 %]      0 clones [ 0.00 %], purity:100.00 %, hitEff: 97.22 %, hitEffFirst3:100.00 %, hitEffLast: 95.83 %
PrCheckerVelo        INFO
UTTrackAssociator SUCCESS Number of counters : 2
 |    Counter                                      |     #     |    sum     | mean/eff^* | rms/err^*  |     min     |     max     |
 |*"Efficiency"                                    |     31889 |      30177 |( 94.63138 +- 0.1262201)% |
 | "MC particles per track"                        |     30177 |      30177 |     1.0000 |
PrCheckerUT          INFO Results
PrCheckerUT          INFO **** UT                              31889 tracks including           1712 ghosts [ 5.37 %], Event average  4.20 % ****
PrCheckerUT          INFO   01_velo                        :   29684 from   198057 [ 14.99 %]     73 clones [ 0.25 %], purity: 99.62 %, hitEff: 98.59 %
PrCheckerUT          INFO   02_velo+UT                     :   29619 from    83174 [ 35.61 %]     73 clones [ 0.25 %], purity: 99.65 %, hitEff: 98.59 %
PrCheckerUT          INFO   03_velo+UT>5GeV                :   22660 from    38957 [ 58.17 %]     63 clones [ 0.28 %], purity: 99.72 %, hitEff: 99.36 %
PrCheckerUT          INFO   04_velo+notLong                :    5947 from   143546 [  4.14 %]     12 clones [ 0.20 %], purity: 99.38 %, hitEff: 97.66 %
PrCheckerUT          INFO   05_velo+UT+notLong             :    5893 from    32143 [ 18.33 %]     12 clones [ 0.20 %], purity: 99.47 %, hitEff: 97.64 %
PrCheckerUT          INFO   06_velo+UT+notLong>5GeV        :    3618 from     7532 [ 48.04 %]     10 clones [ 0.28 %], purity: 99.65 %, hitEff: 99.45 %
PrCheckerUT          INFO   07_long                        :   23737 from    54511 [ 43.55 %]     61 clones [ 0.26 %], purity: 99.68 %, hitEff: 98.82 %
PrCheckerUT          INFO   08_long>5GeV                   :   19052 from    34129 [ 55.82 %]     53 clones [ 0.28 %], purity: 99.72 %, hitEff: 99.35 %
PrCheckerUT          INFO   09_long_fromB                  :      30 from       45 [ 66.67 %]      0 clones [ 0.00 %], purity:100.00 %, hitEff:100.00 %
PrCheckerUT          INFO   10_long_fromB>5GeV             :      23 from       30 [ 76.67 %]      0 clones [ 0.00 %], purity:100.00 %, hitEff:100.00 %
PrCheckerUT          INFO   11_long_electrons              :     358 from     4118 [  8.69 %]      1 clones [ 0.28 %], purity: 96.84 %, hitEff: 96.70 %
PrCheckerUT          INFO   12_long_fromB_electrons        :       4 from        6 [ 66.67 %]      0 clones [ 0.00 %], purity:100.00 %, hitEff:100.00 %
PrCheckerUT          INFO   13_long_fromB_electrons_P>5GeV :       4 from        4 [100.00 %]      0 clones [ 0.00 %], purity:100.00 %, hitEff:100.00 %
PrCheckerUT          INFO
FTTrackAssociator SUCCESS Number of counters : 2
 |    Counter                                      |     #     |    sum     | mean/eff^* | rms/err^*  |     min     |     max     |
 |*"Efficiency"                                    |     19514 |      19219 |( 98.48826 +- 0.08734880)% |
 | "MC particles per track"                        |     19219 |      22171 |     1.1536 |
PrCheckerForward     INFO Results
PrCheckerForward     INFO **** Forward                         19514 tracks including            295 ghosts [ 1.51 %], Event average  1.04 % ****
PrCheckerForward     INFO   01_long                        :   18392 from    54511 [ 33.74 %]     84 clones [ 0.45 %], purity: 99.40 %, hitEff: 96.07 %
PrCheckerForward     INFO   02_long>5GeV                   :   16118 from    34129 [ 47.23 %]     41 clones [ 0.25 %], purity: 99.46 %, hitEff: 96.49 %
PrCheckerForward     INFO   03_long_strange                :     515 from     2810 [ 18.33 %]      4 clones [ 0.77 %], purity: 99.24 %, hitEff: 96.23 %
PrCheckerForward     INFO   04_long_strange>5GeV           :     446 from     1414 [ 31.54 %]      2 clones [ 0.45 %], purity: 99.29 %, hitEff: 96.66 %
PrCheckerForward     INFO   05_long_fromB                  :      26 from       45 [ 57.78 %]      1 clones [ 3.70 %], purity: 99.47 %, hitEff: 97.93 %
PrCheckerForward     INFO   06_long_fromB>5GeV             :      20 from       30 [ 66.67 %]      0 clones [ 0.00 %], purity: 99.76 %, hitEff: 98.36 %
PrCheckerForward     INFO   07_long_electrons              :     197 from     4118 [  4.78 %]      1 clones [ 0.51 %], purity: 97.87 %, hitEff: 95.24 %
PrCheckerForward     INFO   08_long_fromB_electrons        :       4 from        6 [ 66.67 %]      0 clones [ 0.00 %], purity:100.00 %, hitEff: 97.92 %
PrCheckerForward     INFO   09_long_fromB_electrons_P>5GeV :       4 from        4 [100.00 %]      0 clones [ 0.00 %], purity:100.00 %, hitEff: 97.92 %
PrCheckerForward     INFO
PrCheckerUTForward   INFO Results
PrCheckerUTForward   INFO **** UT Efficiency for /Event/Rec/Track/FTSoAAsTrackV2_v1 ****     295 ghost,  4.00 UT per track
PrCheckerUTForward   INFO             01_long : 18476 tr  4.04 from  4.07 mcUT [ 99.2 %]  0.02 ghost hits on real tracks [ 0.6 %]
PrCheckerUTForward   INFO        01_long >3UT : 18471 tr  4.04 from  4.07 mcUT [ 99.2 %]  0.02 ghost hits on real tracks [ 0.6 %]
PrCheckerUTForward   INFO        02_long>5GeV : 16159 tr  4.04 from  4.07 mcUT [ 99.4 %]  0.02 ghost hits on real tracks [ 0.6 %]
PrCheckerUTForward   INFO   02_long>5GeV >3UT : 16155 tr  4.05 from  4.07 mcUT [ 99.4 %]  0.02 ghost hits on real tracks [ 0.6 %]
PrCheckerUTForward   INFO
HLTControlFlowMgr    INFO
 | Name of Algorithm                               | Execution Count
 | "FetchDataFromFile"                             |      1000 |
 | "DummyEventTime"                                |      1000 |
 | "ReserveIOV"                                    |      1000 |
 | "PrGECFilter"                                   |      1000 |
 | "VSPClustering"                                 |       935 |
 | "PrPixelTracking"                               |       935 |
 | "ConverterVP"                                   |       935 |
 | "PatPV3D"                                       |       935 |
 | "FilterOnNoPVs"                                 |       935 |
 | "createFTClusters"                              |       928 |
 | "PrStoreFTHit"                                  |       928 |
 | "PrStoreUTHit"                                  |       928 |
 | "PrVeloUTFast"                                  |       928 |
 | "PrForwardTrackingFast"                         |       928 |
 | "TracksUTConverter"                             |       928 |
 | "TracksFTConverter"                             |       928 |
 | "ForwardFitterAlgParamFast"                     |       928 |
 | "VPClusFull"                                    |       928 |
 | "UnpackMCParticle"                              |       928 |
 | "VPFullCluster2MCParticleLinker"                |       928 |
 | "PrLHCbID2MCParticle"                           |       928 |
 | "UnpackMCVertex"                                |       928 |
 | "TrackConverterVelo"                            |       928 |
 | "VeloTrackAssociator"                           |       928 |
 | "PrCheckerVelo"                                 |       928 |
 | "TrackConverterUT"                              |       928 |
 | "UTTrackAssociator"                             |       928 |
 | "PrCheckerUT"                                   |       928 |
 | "TrackConverterFT"                              |       928 |
 | "FTTrackAssociator"                             |       928 |
 | "PrCheckerForward"                              |       928 |
 | "PrCheckerUTForward"                            |       928 |

HLTControlFlowMgr    INFO
LAZY_AND: moore             #=1000    Sum=928         Eff=|( 92.80000 +- 0.817411)%|
 PrGECFilter                #=1000    Sum=935         Eff=|( 93.50000 +- 0.779583)%|
 FilterOnNoPVs              #=935     Sum=928         Eff=|( 99.25134 +- 0.281907)%|
 PrForwardTrackingFast      #=928     Sum=928         Eff=|( 100.0000 +- 0.00000 )%|
 ForwardFitterAlgParamFast  #=928     Sum=928         Eff=|( 100.0000 +- 0.00000 )%|
 PrCheckerVelo              #=928     Sum=928         Eff=|( 100.0000 +- 0.00000 )%|
 PrCheckerUT                #=928     Sum=928         Eff=|( 100.0000 +- 0.00000 )%|
 PrCheckerForward           #=928     Sum=928         Eff=|( 100.0000 +- 0.00000 )%|
 PrCheckerUTForward         #=928     Sum=928         Eff=|( 100.0000 +- 0.00000 )%|

HLTControlFlowMgr    INFO Histograms converted successfully according to request.
TransportSvc      SUCCESS  GEOMETRY ERRORS: 'Skip'     map has the size 0

TransportSvc      SUCCESS  GEOMETRY ERRORS: 'Recover'  map has the size 0

TransportSvc      SUCCESS  GEOMETRY ERRORS: 'Codes'    map has the size 0

TransportSvc         INFO Reset the static pointer to DetDesc::IGeometyrErrorSvc
ToolSvc              INFO Removing all tools created by ToolSvc
ToolSvc.CoreFac...SUCCESS Number of counters : 1
 |    Counter                                      |     #     |    sum     | mean/eff^* | rms/err^*  |     min     |     max     |
 | "# loaded from PYTHON"                          |         1 |          1 |     1.0000 |     0.0000 |      1.0000 |      1.0000 |
PrCheckerUTForw...SUCCESS Booked 76 Histogram(s) : 1D=48 2D=28
PrCheckerForwar...SUCCESS Booked 375 Histogram(s) : 1D=262 2D=113
PrCheckerUT.PrC...SUCCESS Booked 531 Histogram(s) : 1D=370 2D=161
PrCheckerVelo.P...SUCCESS Booked 404 Histogram(s) : 1D=283 2D=121
PrVeloUTFast.Se...   INFO --------------------------------------------------------------------------------------------------
PrVeloUTFast.Se...   INFO This machine has a speed about   2.70 times the speed of a 2.8 GHz Xeon.
PrVeloUTFast.Se...   INFO Algorithm          (millisec) |    <user> |   <clock> |      min       max    sigma | entries | total (s) |
PrVeloUTFast.Se...   INFO --------------------------------------------------------------------------------------------------
PrVeloUTFast.Se...   INFO --------------------------------------------------------------------------------------------------
ToolSvc.MCHybri...SUCCESS Number of counters : 1
 |    Counter                                      |     #     |    sum     | mean/eff^* | rms/err^*  |     min     |     max     |
 | "# loaded from PYTHON"                          |        34 |         34 |     1.0000 |     0.0000 |      1.0000 |      1.0000 |
RootCnvSvc           INFO Disconnected data IO:E6D066DB-3E6A-E811-A8AF-002219434445 [root://eoslhcb.cern.ch//eos/lhcb/wg/SciFi/Simulation/MinBiasRawBankv5/00067189_1.digi.digi]
ApplicationMgr       INFO Application Manager Finalized successfully
ApplicationMgr       INFO Application Manager Terminated successfully
