# --> Including file '/workspace/build/Brunel/BrunelSys/tests/options/testBrunel.py'
# <-- End of file '/workspace/build/Brunel/BrunelSys/tests/options/testBrunel.py'
# applying configuration of Brunel
# /***** User Brunel/Brunel **************************************************************************
# |-FilterTrackStates   = True
# |-PhysFilterMask      = None
# |-DatasetName         = 'Brunel'
# |-Histograms          = 'OfflineFull'
# |-DBSnapshotDirectory = '/group/online/hlt/conditions'
# |-ProductionMode      = False
# |-WriteLumi           = False
# |-SplitRawEventInput  = None
# |-PackType            = 'TES'
# |-DDDBtag             = 'upgrade/dddb-20170301'  (default: '')
# |-WithMC              = False
# |-MainSequence        = ['ProcessPhase/Reco', 'ProcessPhase/Moni']  (default: None)
# |-OutputType          = 'DST'
# |-DisableTiming       = True  (default: False)
# |-DigiType            = 'Default'
# |-UseDBSnapshot       = False
# |-PartitionName       = 'LHCb'
# |-VetoHltErrorEvents  = False  (default: True)
# |-MCCheckSequence     = None
# |-InputType           = 'MDF'  (default: 'MDF')
# |-OnlineMode          = False
# |-WriteFSR            = True
# |-SkipTracking        = False
# |-SkipEvents          = 0
# |-PrintFreq           = 1
# |-Detectors           = ['VP', 'UT', 'FT', 'Rich1', 'Rich2', 'Ecal', 'Hcal', 'Muon', 'Magnet', 'Tr']
# |                     (default: None)
# |-EvtMax              = 0  (default: -1)
# |-Simulation          = True  (default: False)
# |-MergeGenFSR         = True
# |-Context             = 'Offline'
# |-RecoSequence        = None
# |-CondDBtag           = 'upgrade/sim-20180530-vc-md100'  (default: '')
# |-MCLinksSequence     = ['Unpack', 'Tr', 'Calo']  (default: ['Unpack', 'Tr', 'Calo'])
# |-Hlt2FilterCode      = ''
# |-Hlt1FilterCode      = ''
# |-OutputLevel         = 3
# |-InitSequence        = ['Brunel']  (default: None)
# |-DataType            = 'Upgrade'  (default: 'Upgrade')
# |-NoWarnings          = False
# |-SplitRawEventOutput = 4.3
# |-EventStoreType      = None
# |-RawBanksToKill      = None
# |-SpecialData         = []  (default: [])
# |-Monitors            = ['FPE', 'SC']  (default: [])
# \----- (End of User Brunel/Brunel) -----------------------------------------------------------------
# /***** User RecSysConf/RecSysConf ******************************************************************
# |-SkipTracking = False
# |-InputType    = 'MDF'  (default: '')
# |-DataType     = 'Upgrade'  (default: '')
# |-OutputLevel  = 3
# |-Histograms   = 'OfflineFull'
# |-Detectors    = ['VP', 'UT', 'FT', 'Rich1', 'Rich2', 'Ecal', 'Hcal', 'Muon', 'Magnet', 'Tr']
# |              (default: ['VP', 'UT', 'FT', 'Rich', 'Tr', 'Calo', 'Muon'])
# |-OutputType   = 'DST'
# |-Simulation   = True  (default: False)
# |-Context      = 'Offline'
# |-SpecialData  = []  (default: [])
# |-RecoSequence = None
# |-OnlineMode   = False
# \----- (End of User RecSysConf/RecSysConf) ---------------------------------------------------------
# /***** User TrackSys/TrackSys **********************************************************************
# |-VeloClustering           = 'VPClus'
# |-BestThroughput           = False
# |-FilterBeforeFit          = True
# |-TrackingSequence         = []  (default: [])
# |-ExpertTracking           = []  (default: [])
# |-ExpertHistos             = False
# |-TrackExtraInfoAlgorithms = []  (default: [])
# |-DataType                 = 'Upgrade'  (default: 'Upgrade')
# |-VeloUpgradeOnly          = False
# |-WithMC                   = False
# |-TrackTypes               = []  (default: [])
# |-OutputType               = ''
# |-VPLinkingOfflineClusters = True
# |-Simulation               = True  (default: False)
# |-ConfigHLT1               = {'GEC': -1, 'VeloHLT1': {'Configuration': 'BestPhysics', 'Strategy': 'ForwardThenBackward'}, 'ExtremeScenario': False, 'VeloUTHLT1': {'IPCut': False, 'IPCutVal': 0.1, 'minPT': 300.0}, 'ForwardHLT1': {'PreselectionPT': 300.0, 'SecondLoop': True, 'minPT': 400.0}, 'UseMomentumGuidedSearchWindow': False}
# |                          (default: {'VeloHLT1': {'Configuration': 'BestPhysics', 'Strategy': 'ForwardThenBackward'}, 'GEC': -1, 'ExtremeScenario': False, 'VeloUTHLT1': {'IPCut': False, 'IPCutVal': 0.1, 'minPT': 300.0}, 'ForwardHLT1': {'PreselectionPT': 300.0, 'SecondLoop': True, 'minPT': 400.0}, 'UseMomentumGuidedSearchWindow': False})
# |-TracksToConvert          = ['Velo', 'Upstream', 'ForwardFast', 'ForwardBest', 'Seeding', 'Match', 'Downstream']
# |                          (default: ['Velo', 'Upstream', 'ForwardFast', 'ForwardBest', 'Seeding', 'Match', 'Downstream'])
# |-GlobalCuts               = {}  (default: {})
# |-SpecialData              = []  (default: [])
# |-HltMode                  = False
# \----- (End of User TrackSys/TrackSys) -------------------------------------------------------------
# /***** User RecMoniConf/RecMoniConf ****************************************************************
# |-SkipTracking = False
# |-DataType     = 'Upgrade'  (default: '')
# |-Detectors    = ['VP', 'UT', 'FT', 'Rich1', 'Rich2', 'Ecal', 'Hcal', 'Muon', 'Magnet', 'Tr']
# |              (default: ['VP', 'UT', 'FT', 'Rich', 'Tr', 'Calo', 'Muon'])
# |-Histograms   = 'OfflineFull'
# |-OutputLevel  = 3
# |-Simulation   = True  (default: False)
# |-Context      = 'Offline'
# |-MoniSequence = None
# |-OnlineMode   = False
# |-CheckEnabled = False
# \----- (End of User RecMoniConf/RecMoniConf) -------------------------------------------------------
# DstWriter.ItemList=['/Event/Rec/Header#1', '/Event/Rec/Status#1', '/Event/Rec/Summary#1', '/Event/pRec/Track/Best#1', '/Event/pRec/Vertex/Primary#1', '/Event/pRec/Rich/PIDs#1', '/Event/pRec/Muon/MuonPID#1', '/Event/pRec/Calo/Electrons#1', '/Event/pRec/Calo/Photons#1', '/Event/pRec/Calo/MergedPi0s#1', '/Event/pRec/Calo/SplitPhotons#1', '/Event/pRec/ProtoP/Charged#1', '/Event/pRec/ProtoP/Neutrals#1', '/Event/pRec/Vertex/V0#1', '/Event/pRec/Track/Muon#1', '/Event/Calo/RawEvent#1', '/Event/Unstripped/RawEvent#1', '/Event/HC/RawEvent#1', '/Event/Tracker/RawEvent#1', '/Event/PersistReco/RawEvent#1', '/Event/Velo/RawEvent#1', '/Event/Muon/RawEvent#1', '/Event/Rich/RawEvent#1', '/Event/Trigger/RawEvent#1']
# DstWriter.OptItemList=[]
# WARNING: Property 'DataType' is set in both 'DigiConf' and 'SimConf', using 'DigiConf.DataType'
# No Writer defined for DIGI
# TEST:  caloFutureSequence
# Apply CaloFutureProcessor configuration for ['Digits', 'Clusters', 'Photons', 'MergedPi0s', 'SplitPhotons', 'Electrons'] and ['InAcceptance', 'Match', 'Energy', 'Chi2', 'DLL', 'NeutralPID']
# CaloFutureProcessor : upgrade configuration without Spd/Prs
# Configurabe : Counter level is 1
# Configured Ecal Clusters Reco : ClusterFutureReco
# Configured photon and electron hypo reconstruction : ClassifyClusters
# Configured Merged Pi0 Reco : MergedPi0FutureReco
# Configured CaloFuture PIDs           : CaloFuturePIDsCaloFuturePIDsForCaloFutureProcessor
# Configure caloFutureSequencer  : CaloFutureProcessorCaloFutureSeq
# ConfiguredMuonIDs: Loaded configuration info M_2011_def
# WARNING: Pre-appending Downstream track copy in TES from vector<Track> to KeyedContainer, this should be a temporary solution
# WARNING: Pre-appending ForwardBest track copy in TES from vector<Track> to KeyedContainer, this should be a temporary solution
# WARNING: Pre-appending ForwardFast track copy in TES from vector<Track> to KeyedContainer, this should be a temporary solution
# WARNING: Pre-appending Match track copy in TES from vector<Track> to KeyedContainer, this should be a temporary solution
# WARNING: Pre-appending Seeding track copy in TES from vector<Track> to KeyedContainer, this should be a temporary solution
# WARNING: Pre-appending Upstream track copy in TES from vector<Track> to KeyedContainer, this should be a temporary solution
# WARNING: Pre-appending Velo track copy in TES from vector<Track> to KeyedContainer, this should be a temporary solution
# WARNING: Pre-appending vertex copy in TES from vector<RecVertex> to KeyedContainer, this should be a temporary solution
# CaloFutureMoniDstConf : upgrade configuration without Spd/Prs
ApplicationMgr    SUCCESS
====================================================================================================================================
                                                   Welcome to Brunel version HEAD
                                          running on lbbuild53.cern.ch on Wed Oct  9 05:14:57 2019
====================================================================================================================================
ApplicationMgr       INFO Application Manager Configured successfully
StatusCodeSvc        INFO initialize
ToolSvc.GitDDDB      INFO opening Git repository '/cvmfs/lhcb.cern.ch/lib/lhcb/git-conddb/DDDB.git'
ToolSvc.GitDDDB      INFO using commit 'upgrade/dddb-20170301' corresponding to d277f5e21d6fa797f89330eb6205859971e46fe9
ToolSvc.GitSIMCOND   INFO opening Git repository '/cvmfs/lhcb.cern.ch/lib/lhcb/git-conddb/SIMCOND.git'
ToolSvc.GitSIMCOND   INFO using commit 'upgrade/sim-20180530-vc-md100' corresponding to 7db2a32a63761eda1338a12fc643c76a22f55a62
DetectorPersist...   INFO Added successfully Conversion service:XmlCnvSvc
DetectorDataSvc   SUCCESS Detector description database: git:/lhcb.xml
TransportSvc         INFO Initialize the static pointer to DetDesc::IGeometryErrorSvc
TransportSvc         INFO Recovery of geometry errors is  ENABLED
BrunelSequencer      INFO Member list: ProcessPhase/Init, GaudiSequencer/PhysicsSeq, ProcessPhase/Output, with context 'Offline'
RndmGenSvc.Engine    INFO Generator engine type:CLHEP::RanluxEngine
RndmGenSvc.Engine    INFO Current Seed:1234567 Luxury:3
RndmGenSvc           INFO Using Random engine:HepRndm::Engine<CLHEP::RanluxEngine>
Init                 INFO Member list: GaudiSequencer/InitBrunelSeq, with context 'Offline'
InitBrunelSeq        INFO Member list: RecInit/BrunelInit, EventCountHisto/BrunelEventCount, with context 'Offline'
BrunelInit        SUCCESS ==================================================================
BrunelInit        SUCCESS Requested to process 0 events
BrunelInit        SUCCESS ==================================================================
RootHistSvc          INFO Writing ROOT histograms to: Brunel-histos.root
HistogramPersis...   INFO Added successfully Conversion service:RootHistSvc
HistogramDataSvc     INFO Added stream file:/workspace/build/PARAM/ParamFiles/v8r27p1/data/PhotonPdf.root as CaloFutureNeutralPIDs
HistogramDataSvc     INFO Added stream file:/workspace/build/PARAM/ParamFiles/v8r27p1/data/CaloPIDs_DC09_v1.root as CaloFuturePIDs
PhysicsSeq           INFO Member list: GaudiSequencer/CaloFutureBanksHandler, ProcessPhase/Reco, ProcessPhase/Moni, with context 'Offline'
CaloFutureBanks...   INFO Member list: GaudiSequencer/CaloFutureDigits, with context 'Offline'
CaloFutureDigits     INFO Member list: GaudiSequencer/FutureEcalDigitsSeq, GaudiSequencer/FutureHcalDigitsSeq, with context 'Offline'
FutureEcalDigit...   INFO Member list: CaloFutureRawToDigits/FutureEcalZSup, RawBankReadoutStatusConverter/EcalProcStatus, with context 'Offline'
FutureEcalZSup       INFO Zsup method 2D Threshold 20
FutureHcalDigit...   INFO Member list: CaloFutureRawToDigits/FutureHcalZSup, RawBankReadoutStatusConverter/HcalProcStatus, with context 'Offline'
FutureHcalZSup       INFO Zsup method 1D Threshold 4
Reco                 INFO Member list: GaudiSequencer/RecoDecodingSeq, GaudiSequencer/RecoTrFastSeq, GaudiSequencer/RecoTrBestSeq, GaudiSequencer/RecoRICHSeq, GaudiSequencer/RecoCALOFUTURESeq, GaudiSequencer/RecoMUONSeq, GaudiSequencer/RecoPROTOSeq, GaudiSequencer/RecoSUMMARYSeq, with context 'Offline'
RecoDecodingSeq      INFO Member list: PrGECFilter, FTRawBankDecoder/createFTClusters, LHCb::Pr::StoreUTHit/PrStoreUTHit, PrStoreFTHit, with context 'Offline'
DeFTDetector         INFO Current FT geometry version =   61
PrStoreFTHit         INFO FtDEt = DetectorElement::/dd/Structure/LHCb/AfterMagnetRegion/T/FTGeometryInfo::GeometryInfoPlus::name=/dd/Structure/LHCb/AfterMagnetRegion/T/FT; LVolume=/dd/Geometry/AfterMagnetRegion/T/FT/lvFT; supported by /dd/Structure/LHCb/AfterMagnetRegion/T with ReplicaPath=(0,) (pvFT);

RecoTrFastSeq        INFO Member list: LHCb::Pr::Velo::VPClus/VPClustering, LHCb::Pr::Velo::PixelTracking/PrPixelTrackingFast, TracksVPMergerConverter<std::vector<LHCb::VPLightCluster,std::allocator<LHCb::VPLightCluster> > >/ConverterVPForPVReco, PatPV3DFuture/PatPV3D, LHCb::Pr::VeloUT/PrVeloUTFast, TracksUTConverter/VeloUTMakeLHCbTracks, PrForwardTracking<LHCb::Pr::Upstream::Tracks>/PrForwardTrackingFast, TracksFTConverter/FastForwardMakeLHCbTracksFast, LHCb::Converters::Track::v1::fromV2TrackV1TrackVector/ConverterV1V2ForForwardFit, TrackEventFitter<std::vector<LHCb::Event::v1::Track,std::allocator<LHCb::Event::v1::Track> > >/ForwardFitterAlgFast, with context 'Offline'
DeVP                 INFO There are 208 sensors (left: 104, right: 104)
MagneticFieldSvc     INFO Opened magnetic field file : /workspace/build/DBASE/FieldMap/v5r7/cdf/field.v5r0.c1.down.cdf
MagneticFieldSvc     INFO Opened magnetic field file : /workspace/build/DBASE/FieldMap/v5r7/cdf/field.v5r0.c2.down.cdf
MagneticFieldSvc     INFO Opened magnetic field file : /workspace/build/DBASE/FieldMap/v5r7/cdf/field.v5r0.c3.down.cdf
MagneticFieldSvc     INFO Opened magnetic field file : /workspace/build/DBASE/FieldMap/v5r7/cdf/field.v5r0.c4.down.cdf
MagneticFieldSvc     INFO Map scaled by factor 1 with polarity internally used: -1 signed relative current: -1
PrVeloUTFast.Pr...   INFO Start generation of VeloUT Bdl LUTs
PrVeloUTFast.Pr...   INFO Generation of VeloUT Bdl LUTs finished
PrVeloUTFast.Pr...   INFO Start generation of VeloUT deflection LUTs
PrVeloUTFast.Pr...   INFO Generation of VeloUT deflection LUTs finished
ForwardFitterAl...   INFO Rec/Track/ForwardFastAsTrackV1 -> Rec/Track/ForwardFastFitted using ForwardFitterAlgFast.Fitter
RecoTrBestSeq        INFO Member list: PrForwardTracking<LHCb::Pr::Velo::Tracks>/PrForwardTrackingBest, TracksFTConverter/BestForwardMakeLHCbTracksBest, PrHybridSeeding/PrHybridSeedingBest, PrMatchNN/PrMatchNNBest, PrLongLivedTracking/PrLongLivedTrackingBest, GaudiSequencer/BestTrackCreatorSeq, GaudiSequencer/TrackAddExtraInfoSeq, with context 'Offline'
PrLongLivedTrac...   INFO =========================================================
PrLongLivedTrac...   INFO  XPredTol           = 200000/p + 6
PrLongLivedTrac...   INFO  TolMatchConst      = 20000/p + 1.5
PrLongLivedTrac...   INFO  TolUConst          = 20000/p + 2.5
PrLongLivedTrac...   INFO  TolVConst          = 2000/p + 0.5
PrLongLivedTrac...   INFO  MaxDeltaPConst     = 0/p + 0.25
PrLongLivedTrac...   INFO  XCorrectionConst   = 23605/p + 0.4
PrLongLivedTrac...   INFO  MaxXTracks         = 2
PrLongLivedTrac...   INFO  MaxChi2DistXTracks = 0.2
PrLongLivedTrac...   INFO  MaxXUTracks        = 2
PrLongLivedTrac...   INFO  MaxChi2XProjection = 35000/p + 4.5
PrLongLivedTrac...   INFO  OverlapTol         = 2
PrLongLivedTrac...   INFO  SeedCut            = -1
PrLongLivedTrac...   INFO  MaxChi2            = 20
PrLongLivedTrac...   INFO  MaxChi2ThreeHits   = 10
PrLongLivedTrac...   INFO  MaxWindowSize      = 10
PrLongLivedTrac...   INFO  RemoveUsed         = 0
PrLongLivedTrac...   INFO  RemoveAll          = 0
PrLongLivedTrac...   INFO  LongChi2           = 1.5
PrLongLivedTrac...   INFO  TimingMeasurements = 0
PrLongLivedTrac...   INFO =========================================================
PrLongLivedTrac...   INFO zMagnetParams 5379.88 -2143.93 366.124 119074 -0.0100333 -0.146055 1260.96
PrLongLivedTrac...   INFO momentumParams 1217.77 454.598 3353.39
BestTrackCreato...   INFO Member list: GaudiSequencer/TrackConverterSeq, TrackBestTrackCreator, with context 'Offline'
TrackConverterSeq    INFO Member list: LHCb::Converters::Track::v1::fromV2TrackV1Track/DownstreamConverter, LHCb::Converters::Track::v1::fromV2TrackV1Track/ForwardBestConverter, LHCb::Converters::Track::v1::fromV2TrackV1Track/ForwardFastConverter, LHCb::Converters::Track::v1::fromV2TrackV1Track/MatchConverter, LHCb::Converters::Track::v1::fromV2TrackV1Track/SeedingConverter, LHCb::Converters::Track::v1::fromV2TrackV1Track/UpstreamConverter, LHCb::Converters::Track::v1::fromV2TrackV1Track/VeloConverter, LHCb::Converters::RecVertex::v2::fromVectorLHCbRecVertex/VertexConverter, with context 'Offline'
TrackAddExtraIn...   INFO Member list: TrackAddNNGhostId, with context 'Offline'
RecoRICHSeq          INFO Member list: Rich::Future::RawBankDecoder/RichFutureDecode, Rich::Future::Rec::TrackFilter/RichTrackTypeFilter, GaudiSequencer/RichRecoSeq, with context 'Offline'
RichRecoSeq          INFO Member list: GaudiSequencer/RichPixels, GaudiSequencer/RichDownReco, GaudiSequencer/RichUpReco, GaudiSequencer/RichLongReco, Rich::Future::Rec::MergeRichPIDs/MergeRichPIDs, with context 'Offline'
RichPixels           INFO Member list: Rich::Future::SmartIDClustering/RichPixClustering, Rich::Future::Rec::SIMDSummaryPixels/RichSIMDPixels, with context 'Offline'
ToolSvc.RichPar...   INFO Particle types considered = [electron, muon, pion, kaon, proton, deuteron, below_threshold]
RichDownReco         INFO Member list: GaudiSequencer/RichTracksDown, GaudiSequencer/RichPhotonsDown, Rich::Future::Rec::SIMDRecoSummary/RichRecSummaryDown, GaudiSequencer/RichPIDDown, with context 'Offline'
RichTracksDown       INFO Member list: Rich::Future::Rec::DetailedTrSegMakerFromTracks/RichTrackSegmentsDown, Rich::Future::Rec::RayTraceTrackGlobalPoints/RichTrackGloPointsDown, Rich::Future::Rec::RayTraceTrackLocalPoints/RichTrackLocPointsDown, Rich::Future::Rec::EmittedPhotonYields/RichEmittedYieldsDown, Rich::Future::Rec::TrackEmittedCherenkovAngles/RichEmittedCKAnglesDown, Rich::Future::Rec::RayTraceCherenkovCones/RichMassConesDown, Rich::Future::Rec::DetectablePhotonYields/RichDetectableYieldsDown, Rich::Future::Rec::GeomEffCKMassRings/RichGeomEffDown, Rich::Future::Rec::SelectTrackSegments/RichTkSegmentSelDown, Rich::Future::Rec::SignalPhotonYields/RichSignalYieldsDown, Rich::Future::Rec::TrackSignalCherenkovAngles/RichSignalCKAnglesDown, Rich::Future::Rec::TrackFunctionalCherenkovResolutions/RichCKResolutionsDown, with context 'Offline'
RichPhotonsDown      INFO Member list: Rich::Future::Rec::SIMDQuarticPhotonReco/RichPhotonRecoDown, Rich::Future::Rec::SIMDPhotonPredictedPixelSignal/RichPredPixelSignalDown, with context 'Offline'
RichPIDDown          INFO Member list: Rich::Future::Rec::GlobalPID::InitialisePIDInfo/RichGPIDInitDown, Rich::Future::Rec::SIMDPixelBackgroundsEstiAvHPD/RichPixBackgroundsIt0Down, Rich::Future::Rec::GlobalPID::SIMDLikelihoodMinimiser/RichGPIDLikelihoodIt0Down, Rich::Future::Rec::SIMDPixelBackgroundsEstiAvHPD/RichPixBackgroundsIt1Down, Rich::Future::Rec::GlobalPID::SIMDLikelihoodMinimiser/RichGPIDLikelihoodIt1Down, Rich::Future::Rec::GlobalPID::WriteRichPIDs/RichGPIDWriteRichPIDsDown, with context 'Offline'
RichUpReco           INFO Member list: GaudiSequencer/RichTracksUp, GaudiSequencer/RichPhotonsUp, Rich::Future::Rec::SIMDRecoSummary/RichRecSummaryUp, GaudiSequencer/RichPIDUp, with context 'Offline'
RichTracksUp         INFO Member list: Rich::Future::Rec::DetailedTrSegMakerFromTracks/RichTrackSegmentsUp, Rich::Future::Rec::RayTraceTrackGlobalPoints/RichTrackGloPointsUp, Rich::Future::Rec::RayTraceTrackLocalPoints/RichTrackLocPointsUp, Rich::Future::Rec::EmittedPhotonYields/RichEmittedYieldsUp, Rich::Future::Rec::TrackEmittedCherenkovAngles/RichEmittedCKAnglesUp, Rich::Future::Rec::RayTraceCherenkovCones/RichMassConesUp, Rich::Future::Rec::DetectablePhotonYields/RichDetectableYieldsUp, Rich::Future::Rec::GeomEffCKMassRings/RichGeomEffUp, Rich::Future::Rec::SelectTrackSegments/RichTkSegmentSelUp, Rich::Future::Rec::SignalPhotonYields/RichSignalYieldsUp, Rich::Future::Rec::TrackSignalCherenkovAngles/RichSignalCKAnglesUp, Rich::Future::Rec::TrackFunctionalCherenkovResolutions/RichCKResolutionsUp, with context 'Offline'
RichPhotonsUp        INFO Member list: Rich::Future::Rec::SIMDQuarticPhotonReco/RichPhotonRecoUp, Rich::Future::Rec::SIMDPhotonPredictedPixelSignal/RichPredPixelSignalUp, with context 'Offline'
RichPIDUp            INFO Member list: Rich::Future::Rec::GlobalPID::InitialisePIDInfo/RichGPIDInitUp, Rich::Future::Rec::SIMDPixelBackgroundsEstiAvHPD/RichPixBackgroundsIt0Up, Rich::Future::Rec::GlobalPID::SIMDLikelihoodMinimiser/RichGPIDLikelihoodIt0Up, Rich::Future::Rec::SIMDPixelBackgroundsEstiAvHPD/RichPixBackgroundsIt1Up, Rich::Future::Rec::GlobalPID::SIMDLikelihoodMinimiser/RichGPIDLikelihoodIt1Up, Rich::Future::Rec::GlobalPID::WriteRichPIDs/RichGPIDWriteRichPIDsUp, with context 'Offline'
RichLongReco         INFO Member list: GaudiSequencer/RichTracksLong, GaudiSequencer/RichPhotonsLong, Rich::Future::Rec::SIMDRecoSummary/RichRecSummaryLong, GaudiSequencer/RichPIDLong, with context 'Offline'
RichTracksLong       INFO Member list: Rich::Future::Rec::DetailedTrSegMakerFromTracks/RichTrackSegmentsLong, Rich::Future::Rec::RayTraceTrackGlobalPoints/RichTrackGloPointsLong, Rich::Future::Rec::RayTraceTrackLocalPoints/RichTrackLocPointsLong, Rich::Future::Rec::EmittedPhotonYields/RichEmittedYieldsLong, Rich::Future::Rec::TrackEmittedCherenkovAngles/RichEmittedCKAnglesLong, Rich::Future::Rec::RayTraceCherenkovCones/RichMassConesLong, Rich::Future::Rec::DetectablePhotonYields/RichDetectableYieldsLong, Rich::Future::Rec::GeomEffCKMassRings/RichGeomEffLong, Rich::Future::Rec::SelectTrackSegments/RichTkSegmentSelLong, Rich::Future::Rec::SignalPhotonYields/RichSignalYieldsLong, Rich::Future::Rec::TrackSignalCherenkovAngles/RichSignalCKAnglesLong, Rich::Future::Rec::TrackFunctionalCherenkovResolutions/RichCKResolutionsLong, with context 'Offline'
RichPhotonsLong      INFO Member list: Rich::Future::Rec::SIMDQuarticPhotonReco/RichPhotonRecoLong, Rich::Future::Rec::SIMDPhotonPredictedPixelSignal/RichPredPixelSignalLong, with context 'Offline'
RichPIDLong          INFO Member list: Rich::Future::Rec::GlobalPID::InitialisePIDInfo/RichGPIDInitLong, Rich::Future::Rec::SIMDPixelBackgroundsEstiAvHPD/RichPixBackgroundsIt0Long, Rich::Future::Rec::GlobalPID::SIMDLikelihoodMinimiser/RichGPIDLikelihoodIt0Long, Rich::Future::Rec::SIMDPixelBackgroundsEstiAvHPD/RichPixBackgroundsIt1Long, Rich::Future::Rec::GlobalPID::SIMDLikelihoodMinimiser/RichGPIDLikelihoodIt1Long, Rich::Future::Rec::GlobalPID::WriteRichPIDs/RichGPIDWriteRichPIDsLong, with context 'Offline'
RecoCALOFUTURESeq    INFO Member list: GaudiSequencer/CaloFutureProcessorCaloFutureSeq, with context 'Offline'
CaloFutureProce...   INFO Member list: GaudiSequencer/CaloFutureRecoForCaloFutureProcessor, GaudiSequencer/CaloFuturePIDsCaloFuturePIDsForCaloFutureProcessor, with context 'Offline'
CaloFutureRecoF...   INFO Member list: GaudiSequencer/CaloFutureDigits, GaudiSequencer/ClusterFutureReco, GaudiSequencer/ClassifyClusters, GaudiSequencer/MergedPi0FutureReco, with context 'Offline'
ClusterFutureReco    INFO Member list: GaudiSequencer/CaloFutureDigits, LHCb::Calo::CellularAutomaton/FutureEcalClust, CaloFutureShowerOverlap/FutureEcalShare, CaloFutureClusterCovarianceAlg/FutureEcalCovar, with context 'Offline'
FutureEcalShare...WARNING  o Type profileC is not registered
FutureEcalShare...   INFO  Energy   mask : [3x3, 3x3, 3x3] (from DB)
FutureEcalShare...   INFO  Position mask : [3x3, 3x3, 3x3] (from DB)
FutureEcalCovar...   INFO  Energy   mask : [3x3, 3x3, 3x3] (from DB)
FutureEcalCovar...   INFO  Position mask : [3x3, 3x3, 3x3] (from DB)
FutureEcalCovar...   INFO  Has initialized with parameters:
FutureEcalCovar...   INFO  	 'Detector'         = '/dd/Structure/LHCb/DownstreamRegion/Ecal'
FutureEcalCovar...   INFO  	 ==  Parameters for covariance estimation ==
FutureEcalCovar...   INFO Stochastic 	 : [0.21, 0.14, 0.14] Sqrt(GeV)	 : from Covariance DB
FutureEcalCovar...   INFO GainError 	 : [0.045, 0.025, 0.025] 	 : from Covariance DB
FutureEcalCovar...   INFO IncoherentNoise 	 : [2.2, 2.2, 2.2] ADC	 : from Covariance DB
FutureEcalCovar...   INFO CoherentNoise 	 : [1.3, 1.3, 1.3] ADC	 : from Covariance DB
FutureEcalCovar...   INFO ConstantE 	 : [0, 0, 0] MeV	 : from Covariance DB
FutureEcalCovar...   INFO ConstantX 	 : [9, 2, 0.5] mm	 : from Covariance DB
FutureEcalCovar...   INFO ConstantY 	 : [9, 2, 0.5] mm	 : from Covariance DB
ClassifyClusters     INFO Member list: GaudiSequencer/CaloFutureTrackMatch, LHCb::Calo::Algorithm::ClassifyPhotonElectronAlg/ClassifyPhotonElectron, with context 'Offline'
CaloFutureTrack...   INFO Member list: LHCb::Calo::InEcalAcceptanceAlg/InECALFuture, LHCb::Calo::PhotonMatchAlg/FutureClusterMatch, with context 'Offline'
ToolSvc.ECorrec...WARNING  o Type globalC is not registered
ToolSvc.ECorrec...WARNING  o Type globalC is not registered
MergedPi0Future...   INFO Member list: CaloFutureMergedPi0/MergedPi0RecFuture, with context 'Offline'
CaloFuturePIDsC...   INFO Member list: GaudiSequencer/ChargedPIDsCaloFuturePIDsForCaloFutureProcessor, with context 'Offline'
ChargedPIDsCalo...   INFO Member list: GaudiSequencer/InCaloFutureAcceptance, GaudiSequencer/CaloFutureMatch, GaudiSequencer/CaloFutureEnergy, GaudiSequencer/CaloFutureChi2, GaudiSequencer/CaloFutureDLLeFuture, GaudiSequencer/CaloFutureDLLmuFuture, with context 'Offline'
InCaloFutureAcc...   INFO Member list: LHCb::Calo::InEcalAcceptanceAlg/InECALFuture, LHCb::Calo::InHcalAcceptanceAlg/InHCALFuture, LHCb::Calo::InBremAcceptanceAlg/InBREMFuture, with context 'Offline'
CaloFutureMatch      INFO Member list: GaudiSequencer/CaloFutureTrackMatch, LHCb::Calo::ElectronMatchAlg/ElectronMatchFuture, LHCb::Calo::BremMatchAlg/BremMatchFuture, with context 'Offline'
CaloFutureEnergy     INFO Member list: LHCb::Calo::Track2EcalEAlg/EcalEFuture, LHCb::Calo::Track2HcalEAlg/HcalEFuture, with context 'Offline'
CaloFutureChi2       INFO Member list: LHCb::Calo::EcalChi22ID/FutureEcalChi22ID, LHCb::Calo::BremChi22ID/BremChi22IDFuture, LHCb::Calo::ClusChi22ID/FutureClusChi22ID, with context 'Offline'
CaloFutureDLLeF...   INFO Member list: LHCb::Calo::EcalPIDeAlg/EcalPIDeFuture, LHCb::Calo::BremPIDeAlg/BremPIDeFuture, LHCb::Calo::HcalPIDeAlg/HcalPIDeFuture, with context 'Offline'
EcalPIDeFuture       INFO init with CondDB, m_conditionName = Conditions/ParticleID/Calo/EcalPIDe
BremPIDeFuture       INFO init with CondDB, m_conditionName = Conditions/ParticleID/Calo/BremPIDe
HcalPIDeFuture       INFO init with CondDB, m_conditionName = Conditions/ParticleID/Calo/HcalPIDe
CaloFutureDLLmu...   INFO Member list: LHCb::Calo::EcalPIDmuAlg/EcalPIDmuFuture, LHCb::Calo::HcalPIDmuAlg/HcalPIDmuFuture, with context 'Offline'
EcalPIDmuFuture      INFO init with CondDB, m_conditionName = Conditions/ParticleID/Calo/EcalPIDmu
HcalPIDmuFuture      INFO init with CondDB, m_conditionName = Conditions/ParticleID/Calo/HcalPIDmu
RecoMUONSeq          INFO Member list: MuonRec, RawBankReadoutStatusConverter/MuonProcStatus, RawBankReadoutStatusFilter/MuonROFilter, GaudiSequencer/MuonIDSeq, with context 'Offline'
MuonIDSeq            INFO Member list: PrepareMuonHits, MuonIDAlgLite, with context 'Offline'
ToolSvc.CommonM...WARNING CondDB {X,Y}FOIParameters member size is 20, geometry expects 16
ToolSvc.CommonM...WARNING CondDB {X,Y}FOIParameters member size is 20, geometry expects 16
ToolSvc.CommonM...WARNING CondDB {X,Y}FOIParameters member size is 20, geometry expects 16
ToolSvc.CommonM...WARNING CondDB {X,Y}FOIParameters member size is 20, geometry expects 16
ToolSvc.CommonM...WARNING CondDB {X,Y}FOIParameters member size is 20, geometry expects 16
ToolSvc.CommonM...WARNING CondDB {X,Y}FOIParameters member size is 20, geometry expects 16
RecoPROTOSeq         INFO Member list: GaudiSequencer/ChargedProtoParticles, GaudiSequencer/NeutralProtoParticles, with context 'Offline'
ChargedProtoPar...   INFO Member list: ChargedProtoParticleMaker/ChargedProtoPMaker, FutureChargedProtoParticleAddEcalInfo/FutureChargedProtoPAddEcal, FutureChargedProtoParticleAddBremInfo/FutureChargedProtoPAddBrem, FutureChargedProtoParticleAddHcalInfo/FutureChargedProtoPAddHcal, ChargedProtoParticleAddRichInfo/ChargedProtoPAddRich, ChargedProtoParticleAddMuonInfo/ChargedProtoPAddMuon, ChargedProtoCombineDLLsAlg/ChargedProtoPCombDLLs, GaudiSequencer/ANNGPIDSeq, with context 'Offline'
ChargedProtoPCo...   INFO Using retuned RICH el and mu DLL values in combined DLLs
ANNGPIDSeq           INFO Member list: ANNGlobalPID::ChargedProtoANNPIDAlg/ANNGPIDLongElectron, ANNGlobalPID::ChargedProtoANNPIDAlg/ANNGPIDLongMuon, ANNGlobalPID::ChargedProtoANNPIDAlg/ANNGPIDLongPion, ANNGlobalPID::ChargedProtoANNPIDAlg/ANNGPIDLongKaon, ANNGlobalPID::ChargedProtoANNPIDAlg/ANNGPIDLongProton, ANNGlobalPID::ChargedProtoANNPIDAlg/ANNGPIDLongGhost, ANNGlobalPID::ChargedProtoANNPIDAlg/ANNGPIDDownstreamElectron, ANNGlobalPID::ChargedProtoANNPIDAlg/ANNGPIDDownstreamMuon, ANNGlobalPID::ChargedProtoANNPIDAlg/ANNGPIDDownstreamPion, ANNGlobalPID::ChargedProtoANNPIDAlg/ANNGPIDDownstreamKaon, ANNGlobalPID::ChargedProtoANNPIDAlg/ANNGPIDDownstreamProton, ANNGlobalPID::ChargedProtoANNPIDAlg/ANNGPIDDownstreamGhost, ANNGlobalPID::ChargedProtoANNPIDAlg/ANNGPIDUpstreamElectron, ANNGlobalPID::ChargedProtoANNPIDAlg/ANNGPIDUpstreamMuon, ANNGlobalPID::ChargedProtoANNPIDAlg/ANNGPIDUpstreamPion, ANNGlobalPID::ChargedProtoANNPIDAlg/ANNGPIDUpstreamKaon, ANNGlobalPID::ChargedProtoANNPIDAlg/ANNGPIDUpstreamProton, ANNGlobalPID::ChargedProtoANNPIDAlg/ANNGPIDUpstreamGhost, with context 'Offline'
ANNGPIDLongElec...   INFO ANNPID : Tune=MCUpTuneV1    TrackType=Long         Particle=electron
ANNGPIDLongMuon      INFO ANNPID : Tune=MCUpTuneV1    TrackType=Long         Particle=muon
ANNGPIDLongPion      INFO ANNPID : Tune=MCUpTuneV1    TrackType=Long         Particle=pion
ANNGPIDLongKaon      INFO ANNPID : Tune=MCUpTuneV1    TrackType=Long         Particle=kaon
ANNGPIDLongProton    INFO ANNPID : Tune=MCUpTuneV1    TrackType=Long         Particle=proton
ANNGPIDLongGhost     INFO ANNPID : Tune=MCUpTuneV1    TrackType=Long         Particle=ghost
ANNGPIDDownstre...   INFO ANNPID : Tune=MCUpTuneV1    TrackType=Downstream   Particle=electron
ANNGPIDDownstre...   INFO ANNPID : Tune=MCUpTuneV1    TrackType=Downstream   Particle=muon
ANNGPIDDownstre...   INFO ANNPID : Tune=MCUpTuneV1    TrackType=Downstream   Particle=pion
ANNGPIDDownstre...   INFO ANNPID : Tune=MCUpTuneV1    TrackType=Downstream   Particle=kaon
ANNGPIDDownstre...   INFO ANNPID : Tune=MCUpTuneV1    TrackType=Downstream   Particle=proton
ANNGPIDDownstre...   INFO ANNPID : Tune=MCUpTuneV1    TrackType=Downstream   Particle=ghost
ANNGPIDUpstream...   INFO ANNPID : Tune=MCUpTuneV1    TrackType=Upstream     Particle=electron
ANNGPIDUpstream...   INFO ANNPID : Tune=MCUpTuneV1    TrackType=Upstream     Particle=muon
ANNGPIDUpstream...   INFO ANNPID : Tune=MCUpTuneV1    TrackType=Upstream     Particle=pion
ANNGPIDUpstream...   INFO ANNPID : Tune=MCUpTuneV1    TrackType=Upstream     Particle=kaon
ANNGPIDUpstream...   INFO ANNPID : Tune=MCUpTuneV1    TrackType=Upstream     Particle=proton
ANNGPIDUpstream...   INFO ANNPID : Tune=MCUpTuneV1    TrackType=Upstream     Particle=ghost
NeutralProtoPar...   INFO Member list: FutureNeutralProtoPAlg/FutureNeutralProtoPMaker, with context 'Offline'
FutureNeutralPr...   INFO  Hypothesis loaded from Rec/Calo/MergedPi0s
FutureNeutralPr...   INFO  Hypothesis loaded from Rec/Calo/Photons
FutureNeutralPr...   INFO  Hypothesis loaded from Rec/Calo/SplitPhotons
RecoSUMMARYSeq       INFO Member list: RecSummaryAlg/RecSummary, with context 'Offline'
Moni                 INFO Member list: GaudiSequencer/MoniCALOFUTURESeq, GaudiSequencer/MoniRICHSeq, GaudiSequencer/MoniMUONSeq, GaudiSequencer/MoniGENERALSeq, GaudiSequencer/MoniTrSeq, GaudiSequencer/MoniPROTOSeq, with context 'Offline'
MoniCALOFUTURESeq    INFO Member list: GaudiSequencer/CaloFutureDigitsMoni, GaudiSequencer/CaloFutureEFlowMoni, GaudiSequencer/CaloFutureClustersMoni, GaudiSequencer/CaloFutureHyposMoni, GaudiSequencer/DiPhotonMoni, CaloFutureProtoElectronMonitor/ProtoElectronMon, GaudiSequencer/CaloFuturePIDsMoni, with context 'Offline'
CaloFutureDigit...   INFO Member list: CaloFutureDigitMonitor/EcalDigitMon, CaloFutureDigitMonitor/HcalDigitMon, with context 'Offline'
EcalDigitMon         INFO Ecal digits from Raw/Ecal/Digits
HcalDigitMon         INFO Hcal digits from Raw/Hcal/Digits
CaloFutureEFlow...   INFO Member list: CaloFutureEFlowAlg/EcalEFlowMon, with context 'Offline'
CaloFutureClust...   INFO Member list: CaloFutureClusterMonitor/EcalClusterMon, with context 'Offline'
CaloFutureHypos...   INFO Member list: CaloFutureHypoMonitor/ElectronMon, CaloFutureHypoMonitor/PhotonMon, CaloFutureHypoMonitor/SplitPhotonMon, CaloFutureHypoMonitor/MergedPi0Mon, with context 'Offline'
DiPhotonMoni         INFO Member list: CaloFuturePi0Monitor/ResolvedPi0Mon, CaloFuturePi0Monitor/EtaMon, with context 'Offline'
ProtoElectronMon     INFO Will only look at track type(s) = [3, 5]
CaloFuturePIDsMoni   INFO Member list: CaloFutureClusterMatchMonitor/PhotonMatchMon, CaloFutureHypoMatchMonitor/ElectronMatchMon, CaloFutureHypoMatchMonitor/BremMatchMon, CaloFutureEMuPIDMon/CaloFutureEMuPIDMonUncut, CaloFutureEMuPIDMon/CaloFutureEMuPIDMonSoft, CaloFutureEMuPIDMon/CaloFutureEMuPIDMonHard, with context 'Offline'
MoniRICHSeq          INFO Member list: GaudiSequencer/RichMoni, with context 'Offline'
RichMoni             INFO Member list: Rich::Future::Rec::Moni::DecodingErrors/RichDecodingErrors, Rich::Future::Rec::Moni::DetectorHits/RichRecPixelQC, Rich::Future::SmartIDClustering/RichFutureMoniClustering, Rich::Future::Rec::Moni::PixelClusters/RichRecPixelClusters, GaudiSequencer/RichMoniDown, GaudiSequencer/RichMoniUp, GaudiSequencer/RichMoniLong, with context 'Offline'
RichMoniDown         INFO Member list: Rich::Future::Rec::Moni::SIMDRecoStats/RichRecoStatsDown, Rich::Future::Rec::Moni::TrackSelEff/RiDownTrkEff, Rich::Future::Rec::Moni::SIMDPhotonCherenkovAngles/RiCKResDown, Rich::Future::Rec::Moni::SIMDPhotonCherenkovAngles/RiCKResDownTight, with context 'Offline'
RichMoniUp           INFO Member list: Rich::Future::Rec::Moni::SIMDRecoStats/RichRecoStatsUp, Rich::Future::Rec::Moni::TrackSelEff/RiUpTrkEff, Rich::Future::Rec::Moni::SIMDPhotonCherenkovAngles/RiCKResUp, Rich::Future::Rec::Moni::SIMDPhotonCherenkovAngles/RiCKResUpTight, with context 'Offline'
RichMoniLong         INFO Member list: Rich::Future::Rec::Moni::SIMDRecoStats/RichRecoStatsLong, Rich::Future::Rec::Moni::TrackSelEff/RiLongTrkEff, Rich::Future::Rec::Moni::SIMDPhotonCherenkovAngles/RiCKResLong, Rich::Future::Rec::Moni::SIMDPhotonCherenkovAngles/RiCKResLongTight, with context 'Offline'
MoniMUONSeq          INFO Member list: MuonPIDChecker/MuonPIDMonitorDown, MuonPIDChecker/MuonPIDMonitorLong, TrackEventFitter<KeyedContainer<LHCb::Event::v1::Track,Containers::KeyedObjectManager<Containers::hashmap> > >/MuonTrackFitter, MuonTrackAligMonitor, with context 'Offline'
MuonTrackFitter      INFO Rec/Track/Muon -> Rec/Track/MuonFit using MuonTrackFitter.Fitter
MoniGENERALSeq       INFO Member list: RecProcessingTimeMoni/OverallEventProcTime, RecProcessingTimeMoni/TrackEventProcTime, RecProcessingTimeMoni/VertexEventProcTime, RecProcessingTimeMoni/RichEventProcTime, RecProcessingTimeMoni/CaloFutureEventProcTime, RecProcessingTimeMoni/MuonEventProcTime, RecProcessingTimeMoni/ProtoEventProcTime, ProcStatAbortMoni, with context 'Offline'
MoniTrSeq            INFO Member list: TrackMonitor, TrackDiMuonMonitor, TrackVertexMonitor, AlignmentOnlineMonitor, TrackV0Monitor, TrackFitMatchMonitor, TrackAlignMonitor, TrackPV2HalfAlignMonitor, TrackMuonMatchMonitor, with context 'Offline'
MoniPROTOSeq         INFO Member list: ChargedProtoParticleMoni/ChargedProtoPMoni, ANNGlobalPID::ChargedProtoANNPIDMoni/ChargedProtoANNPIDMoni, with context 'Offline'
Output               INFO Member list: GaudiSequencer/OutputDSTSeq, with context 'Offline'
OutputDSTSeq         INFO Member list: GenFSRMerge, GaudiSequencer/RawEventSplitSeq, TrackToDST/FilterBestTrackStates, TrackToDST/FilterMuonTrackStates, GaudiSequencer/PackDST, with context 'Offline'
RawEventSplitSeq     INFO Member list: RawEventMapCombiner/create_Calo_RawEvent, RawEventMapCombiner/create_Unstripped_RawEvent, RawEventMapCombiner/create_HC_RawEvent, RawEventMapCombiner/create_Tracker_RawEvent, RawEventMapCombiner/create_PersistReco_RawEvent, RawEventMapCombiner/create_Velo_RawEvent, RawEventMapCombiner/create_Muon_RawEvent, RawEventMapCombiner/create_Rich_RawEvent, RawEventMapCombiner/create_Trigger_RawEvent, EventNodeKiller/KillRawEventNodes, with context 'Offline'
PackDST              INFO Member list: PackTrack/PackTracks, DataPacking::Pack<LHCb::RichPIDPacker>/PackRichPIDs, DataPacking::Pack<LHCb::MuonPIDPacker>/PackMuonPIDs, GaudiSequencer/CaloPacking, ChargedProtoParticleRemovePIDInfo/ProtoParticlePIDClean, PackProtoParticle/PackChargedProtos, PackProtoParticle/PackNeutralProtos, PackRecVertex, PackTwoProngVertex, PackTrack/PackMuonTracks, with context 'Offline'
CaloPacking          INFO Member list: PackCaloHypo/PackPhotons, PackCaloHypo/PackElectrons, PackCaloHypo/PackMergedPi0s, PackCaloHypo/PackSplitPhotons, with context 'Offline'
EventPersistenc...   INFO Added successfully Conversion service:RootCnvSvc
DstWriter            INFO Data source: EventDataSvc output: DATAFILE='PFN:Brunel.dst' SVC='RootCnvSvc' OPT='REC'
FileRecordPersi...   INFO Added successfully Conversion service:FileRecordCnvSvc
FSROutputStream...   INFO Data source: FileRecordDataSvc output: DATAFILE='PFN:Brunel.dst' SVC='FileRecordCnvSvc' OPT='REC'
ApplicationMgr       INFO Application Manager Initialized successfully
ApplicationMgr       INFO Application Manager Started successfully
ApplicationMgr       INFO Application Manager Stopped successfully
BrunelInit        SUCCESS ==================================================================
BrunelInit        SUCCESS 0 events processed
BrunelInit        SUCCESS ==================================================================
BrunelEventCount     INFO 0 events processed
BrunelEventCount  SUCCESS Booked 1 Histogram(s) : 1D=1
ForwardFitterAl...   INFO   Fitting performance   :     0.00 %
RichFutureDecode  SUCCESS Number of counters : 9
 |    Counter                                      |     #     |    sum     | mean/eff^* | rms/err^*  |     min     |     max     |
 | "Error decoding RawBank"                        |         0 |
 | "EventID Mismatch"                              |         0 |
 | "Invalid RichSmartID read from FlatList data for|         0 |
 | "L1 bank with invalid RICH detector mapping"    |         0 |
 | "Magic Pattern mis-match"                       |         0 |
 | "ODIN Mismatch"                                 |         0 |
 | "Retrieved null pointer to RawBank"             |         0 |
 | "Small/Large PD flag mis-match"                 |         0 |
 | "Unknown PD ID"                                 |         0 |
RichPixClustering SUCCESS Number of counters : 1
 |    Counter                                      |     #     |    sum     | mean/eff^* | rms/err^*  |     min     |     max     |
 | "Too many clusters. Processing aborted."        |         0 |
RichTrackSegmen...SUCCESS Number of counters : 6
 |    Counter                                      |     #     |    sum     | mean/eff^* | rms/err^*  |     min     |     max     |
 | "Creating missing entry State"                  |         0 |
 | "Creating missing exit State"                   |         0 |
 | "Failed to find appropriate entry State"        |         0 |
 | "Failed to find appropriate exit State"         |         0 |
 | "Problem getting track state"                   |         0 |
 | "Too many tracks -> Processing aborted"         |         0 |
RichDetectableY...SUCCESS Number of counters : 3
 |    Counter                                      |     #     |    sum     | mean/eff^* | rms/err^*  |     min     |     max     |
 | "No PDs found -> Assuming Av. PD Q.E. of 1"     |         0 |
 | "No primary mirrors found -> Assuming Av. reflec|         0 |
 | "No secondary mirrors found -> Assuming Av. refl|         0 |
RichCKResolutio...SUCCESS Number of counters : 2
 |    Counter                                      |     #     |    sum     | mean/eff^* | rms/err^*  |     min     |     max     |
 | "NULL DeRichPD pointer !!"                      |         0 |
 | "Problem computing radiation length"            |         0 |
RichPixBackgrou...SUCCESS Number of counters : 3
 |    Counter                                      |     #     |    sum     | mean/eff^* | rms/err^*  |     min     |     max     |
 | "Bkg PD index out of range !!"                  |         0 |
 | "Pixel PD index out of range !!"                |         0 |
 | "Track PD index out of range !!"                |         0 |
RichGPIDLikelih...SUCCESS Number of counters : 2
 |    Counter                                      |     #     |    sum     | mean/eff^* | rms/err^*  |     min     |     max     |
 | "Maximum number of iteration re-tries reached"  |         0 |
 | "Taken more than maximum number of iterations ->|         0 |
RichPixBackgrou...SUCCESS Number of counters : 3
 |    Counter                                      |     #     |    sum     | mean/eff^* | rms/err^*  |     min     |     max     |
 | "Bkg PD index out of range !!"                  |         0 |
 | "Pixel PD index out of range !!"                |         0 |
 | "Track PD index out of range !!"                |         0 |
RichGPIDLikelih...SUCCESS Number of counters : 2
 |    Counter                                      |     #     |    sum     | mean/eff^* | rms/err^*  |     min     |     max     |
 | "Maximum number of iteration re-tries reached"  |         0 |
 | "Taken more than maximum number of iterations ->|         0 |
RichGPIDWriteRi...SUCCESS Number of counters : 1
 |    Counter                                      |     #     |    sum     | mean/eff^* | rms/err^*  |     min     |     max     |
 | "Track has non-zero best deltaLL value"         |         0 |
RichTrackSegmen...SUCCESS Number of counters : 6
 |    Counter                                      |     #     |    sum     | mean/eff^* | rms/err^*  |     min     |     max     |
 | "Creating missing entry State"                  |         0 |
 | "Creating missing exit State"                   |         0 |
 | "Failed to find appropriate entry State"        |         0 |
 | "Failed to find appropriate exit State"         |         0 |
 | "Problem getting track state"                   |         0 |
 | "Too many tracks -> Processing aborted"         |         0 |
RichDetectableY...SUCCESS Number of counters : 3
 |    Counter                                      |     #     |    sum     | mean/eff^* | rms/err^*  |     min     |     max     |
 | "No PDs found -> Assuming Av. PD Q.E. of 1"     |         0 |
 | "No primary mirrors found -> Assuming Av. reflec|         0 |
 | "No secondary mirrors found -> Assuming Av. refl|         0 |
RichCKResolutio...SUCCESS Number of counters : 2
 |    Counter                                      |     #     |    sum     | mean/eff^* | rms/err^*  |     min     |     max     |
 | "NULL DeRichPD pointer !!"                      |         0 |
 | "Problem computing radiation length"            |         0 |
RichPixBackgrou...SUCCESS Number of counters : 3
 |    Counter                                      |     #     |    sum     | mean/eff^* | rms/err^*  |     min     |     max     |
 | "Bkg PD index out of range !!"                  |         0 |
 | "Pixel PD index out of range !!"                |         0 |
 | "Track PD index out of range !!"                |         0 |
RichGPIDLikelih...SUCCESS Number of counters : 2
 |    Counter                                      |     #     |    sum     | mean/eff^* | rms/err^*  |     min     |     max     |
 | "Maximum number of iteration re-tries reached"  |         0 |
 | "Taken more than maximum number of iterations ->|         0 |
RichPixBackgrou...SUCCESS Number of counters : 3
 |    Counter                                      |     #     |    sum     | mean/eff^* | rms/err^*  |     min     |     max     |
 | "Bkg PD index out of range !!"                  |         0 |
 | "Pixel PD index out of range !!"                |         0 |
 | "Track PD index out of range !!"                |         0 |
RichGPIDLikelih...SUCCESS Number of counters : 2
 |    Counter                                      |     #     |    sum     | mean/eff^* | rms/err^*  |     min     |     max     |
 | "Maximum number of iteration re-tries reached"  |         0 |
 | "Taken more than maximum number of iterations ->|         0 |
RichGPIDWriteRi...SUCCESS Number of counters : 1
 |    Counter                                      |     #     |    sum     | mean/eff^* | rms/err^*  |     min     |     max     |
 | "Track has non-zero best deltaLL value"         |         0 |
RichTrackSegmen...SUCCESS Number of counters : 6
 |    Counter                                      |     #     |    sum     | mean/eff^* | rms/err^*  |     min     |     max     |
 | "Creating missing entry State"                  |         0 |
 | "Creating missing exit State"                   |         0 |
 | "Failed to find appropriate entry State"        |         0 |
 | "Failed to find appropriate exit State"         |         0 |
 | "Problem getting track state"                   |         0 |
 | "Too many tracks -> Processing aborted"         |         0 |
RichDetectableY...SUCCESS Number of counters : 3
 |    Counter                                      |     #     |    sum     | mean/eff^* | rms/err^*  |     min     |     max     |
 | "No PDs found -> Assuming Av. PD Q.E. of 1"     |         0 |
 | "No primary mirrors found -> Assuming Av. reflec|         0 |
 | "No secondary mirrors found -> Assuming Av. refl|         0 |
RichCKResolutio...SUCCESS Number of counters : 2
 |    Counter                                      |     #     |    sum     | mean/eff^* | rms/err^*  |     min     |     max     |
 | "NULL DeRichPD pointer !!"                      |         0 |
 | "Problem computing radiation length"            |         0 |
RichPixBackgrou...SUCCESS Number of counters : 3
 |    Counter                                      |     #     |    sum     | mean/eff^* | rms/err^*  |     min     |     max     |
 | "Bkg PD index out of range !!"                  |         0 |
 | "Pixel PD index out of range !!"                |         0 |
 | "Track PD index out of range !!"                |         0 |
RichGPIDLikelih...SUCCESS Number of counters : 2
 |    Counter                                      |     #     |    sum     | mean/eff^* | rms/err^*  |     min     |     max     |
 | "Maximum number of iteration re-tries reached"  |         0 |
 | "Taken more than maximum number of iterations ->|         0 |
RichPixBackgrou...SUCCESS Number of counters : 3
 |    Counter                                      |     #     |    sum     | mean/eff^* | rms/err^*  |     min     |     max     |
 | "Bkg PD index out of range !!"                  |         0 |
 | "Pixel PD index out of range !!"                |         0 |
 | "Track PD index out of range !!"                |         0 |
RichGPIDLikelih...SUCCESS Number of counters : 2
 |    Counter                                      |     #     |    sum     | mean/eff^* | rms/err^*  |     min     |     max     |
 | "Maximum number of iteration re-tries reached"  |         0 |
 | "Taken more than maximum number of iterations ->|         0 |
RichGPIDWriteRi...SUCCESS Number of counters : 1
 |    Counter                                      |     #     |    sum     | mean/eff^* | rms/err^*  |     min     |     max     |
 | "Track has non-zero best deltaLL value"         |         0 |
MergeRichPIDs     SUCCESS Number of counters : 1
 |    Counter                                      |     #     |    sum     | mean/eff^* | rms/err^*  |     min     |     max     |
 | "Input/Output RichPID version mis-match"        |         0 |
FutureEcalClust      INFO Built <0> cellular automaton clusters/event  with <0> iterations (min,max)=(1.79769e+308,-1.79769e+308) on average
FutureEcalShare      INFO Number of counters : 1
 |    Counter                                      |
 | "Cluster tagging failed - keep the initial 3x3 t|         0 |
ClassifyPhotonE...   INFO Number of counters : 1
 |    Counter                                      |
 | "Error from Correction Tool - skip the cluster" |         0 |
MergedPi0RecFuture   INFO Number of counters : 4
 |    Counter                                      |
 | "Error from 'Tool' for g1"                      |         0 |
 | "Error from 'Tool' for g2"                      |         0 |
 | "Error from 'Tool' for pi0"                     |         0 |
 | "SplitCluster tagging failed - keep the initial |         0 |
EcalDigitMon      SUCCESS Booked 5 Histogram(s) : 1D=3 2D=2
HcalDigitMon      SUCCESS Booked 5 Histogram(s) : 1D=3 2D=2
EcalClusterMon    SUCCESS Booked 7 Histogram(s) : 1D=5 2D=2
ElectronMon       SUCCESS Booked 9 Histogram(s) : 1D=7 2D=2
PhotonMon         SUCCESS Booked 9 Histogram(s) : 1D=7 2D=2
SplitPhotonMon    SUCCESS Booked 8 Histogram(s) : 1D=6 2D=2
MergedPi0Mon      SUCCESS Booked 8 Histogram(s) : 1D=8
ResolvedPi0Mon    SUCCESS Booked 7 Histogram(s) : 1D=7
EtaMon            SUCCESS Booked 7 Histogram(s) : 1D=7
ProtoElectronMon  SUCCESS Booked 7 Histogram(s) : 1D=5 2D=2
PhotonMatchMon    SUCCESS Booked 5 Histogram(s) : 1D=5
ElectronMatchMon  SUCCESS Booked 5 Histogram(s) : 1D=5
BremMatchMon      SUCCESS Booked 5 Histogram(s) : 1D=5
CaloFutureEMuPI...SUCCESS Booked 6 Histogram(s) : 1D=6
CaloFutureEMuPI...SUCCESS Booked 4 Histogram(s) : 1D=4
CaloFutureEMuPI...SUCCESS Booked 4 Histogram(s) : 1D=4
RichDecodingErrorsSUCCESS Booked 352 Histogram(s) : 2D=1 1DProf=351
RichDecodingErrorsSUCCESS Number of counters : 1
 |    Counter                                      |     #     |    sum     | mean/eff^* | rms/err^*  |     min     |     max     |
 | "Failed to find histogram for L1 Board"         |         0 |
RichRecPixelQC    SUCCESS Booked 6 Histogram(s) : 1D=6
RichRecPixelQC    SUCCESS 1D histograms in directory "RICH/RichRecPixelQC" : 6
 | ID                        |   Title                                       |    #    |     Mean   |    RMS     |  Skewness  |  Kurtosis  |
 | Rich1/nActivePDs          | "Rich1 # Active PDs (nHits>0)"                |    0    |          0 | 0          |          0 |          0 |
 | Rich1/nTotalPixs          | "Rich1 Overall occupancy (nHits>0)"           |    0    |          0 | 0          |          0 |          0 |
 | Rich1/nTotalPixsPerPD     | "Rich1 Average overall PD occupancy (nHits>0) |    0    |          0 | 0          |          0 |          0 |
 | Rich2/nActivePDs          | "Rich2 # Active PDs (nHits>0)"                |    0    |          0 | 0          |          0 |          0 |
 | Rich2/nTotalPixs          | "Rich2 Overall occupancy (nHits>0)"           |    0    |          0 | 0          |          0 |          0 |
 | Rich2/nTotalPixsPerPD     | "Rich2 Average overall PD occupancy (nHits>0) |    0    |          0 | 0          |          0 |          0 |
RichFutureMoniC...SUCCESS Number of counters : 1
 |    Counter                                      |     #     |    sum     | mean/eff^* | rms/err^*  |     min     |     max     |
 | "Too many clusters. Processing aborted."        |         0 |
RichRecPixelClu...SUCCESS Booked 2 Histogram(s) : 1D=2
RichRecPixelClu...SUCCESS 1D histograms in directory "RICH/RichRecPixelClusters" : 2
 | ID                        |   Title                                       |    #    |     Mean   |    RMS     |  Skewness  |  Kurtosis  |
 | Rich1/clusterSize         | "Rich1 Pixel Cluster Sizes"                   |    0    |          0 | 0          |          0 |          0 |
 | Rich2/clusterSize         | "Rich2 Pixel Cluster Sizes"                   |    0    |          0 | 0          |          0 |          0 |
RichRecPixelClu...SUCCESS Number of counters : 1
 |    Counter                                      |     #     |    sum     | mean/eff^* | rms/err^*  |     min     |     max     |
 | "Empty relation table!"                         |         0 |
RiDownTrkEff      SUCCESS Booked 17 Histogram(s) : 1D=12 1DProf=5
RiDownTrkEff      SUCCESS 1D histograms in directory "RICH/RiDownTrkEff" : 12
 | ID                        |   Title                                       |    #    |     Mean   |    RMS     |  Skewness  |  Kurtosis  |
 | All/Rejected/Chi2PDOF     | "Track Chi^2 / D.O.F."                        |    0    |          0 | 0          |          0 |          0 |
 | All/Rejected/CloneDist    | "Track Clone Distance"                        |    0    |          0 | 0          |          0 |          0 |
 | All/Rejected/GhostProb    | "Track Ghost Probability"                     |    0    |          0 | 0          |          0 |          0 |
 | All/Rejected/P            | "Track Momentum"                              |    0    |          0 | 0          |          0 |          0 |
 | All/Rejected/Pt           | "Track Transverse Momentum"                   |    0    |          0 | 0          |          0 |          0 |
 | All/Selected/Chi2PDOF     | "Track Chi^2 / D.O.F."                        |    0    |          0 | 0          |          0 |          0 |
 | All/Selected/CloneDist    | "Track Clone Distance"                        |    0    |          0 | 0          |          0 |          0 |
 | All/Selected/GhostProb    | "Track Ghost Probability"                     |    0    |          0 | 0          |          0 |          0 |
 | All/Selected/P            | "Track Momentum"                              |    0    |          0 | 0          |          0 |          0 |
 | All/Selected/Pt           | "Track Transverse Momentum"                   |    0    |          0 | 0          |          0 |          0 |
 | nRichTracks               | "# Rich Tracks / Event"                       |    0    |          0 | 0          |          0 |          0 |
 | nTracks                   | "# Tracks / Event"                            |    0    |          0 | 0          |          0 |          0 |
RiDownTrkEff      SUCCESS 1D profile histograms in directory "RICH/RiDownTrkEff" : 5
 | ID                        |   Title                                       |    #    |     Mean   |    RMS     |  Skewness  |  Kurtosis  |
 | All/effVChi2PDOF          | "RICH Track Sel. Eff. V Chi^2 / D.O.F."       |    0    |          0 | 0          |          0 |          0 |
 | All/effVCloneDist         | "RICH Track Sel. Eff. V Clone Distance"       |    0    |          0 | 0          |          0 |          0 |
 | All/effVGhostProb         | "RICH Track Sel. Eff. V Ghost Probability"    |    0    |          0 | 0          |          0 |          0 |
 | All/effVP                 | "RICH Track Sel. Eff. V P"                    |    0    |          0 | 0          |          0 |          0 |
 | All/effVPt                | "RICH Track Sel. Eff. V Pt"                   |    0    |          0 | 0          |          0 |          0 |
RiCKResDown       SUCCESS Booked 10 Histogram(s) : 1D=10
RiCKResDown       SUCCESS 1D histograms in directory "RICH/RiCKResDown" : 10
 | ID                        |   Title                                       |    #    |     Mean   |    RMS     |  Skewness  |  Kurtosis  |
 | Rich1Gas/bottom/ckResAllP | "Rich1Gas bottom Rec-Exp Cktheta - All photon |    0    |          0 | 0          |          0 |          0 |
 | Rich1Gas/ckResAll         | "Rich1Gas Rec-Exp Cktheta - All photons"      |    0    |          0 | 0          |          0 |          0 |
 | Rich1Gas/phiRec           | "Rich1Gas Reconstructed Ch Phi - All photons" |    0    |          0 | 0          |          0 |          0 |
 | Rich1Gas/thetaRec         | "Rich1Gas Reconstructed Ch Theta - All photon |    0    |          0 | 0          |          0 |          0 |
 | Rich1Gas/top/ckResAllPerP | "Rich1Gas top Rec-Exp Cktheta - All photons"  |    0    |          0 | 0          |          0 |          0 |
 | Rich2Gas/ASide-left/ckRes | "Rich2Gas ASide-left Rec-Exp Cktheta - All ph |    0    |          0 | 0          |          0 |          0 |
 | Rich2Gas/CSide-right/ckRe | "Rich2Gas CSide-right Rec-Exp Cktheta - All p |    0    |          0 | 0          |          0 |          0 |
 | Rich2Gas/ckResAll         | "Rich2Gas Rec-Exp Cktheta - All photons"      |    0    |          0 | 0          |          0 |          0 |
 | Rich2Gas/phiRec           | "Rich2Gas Reconstructed Ch Phi - All photons" |    0    |          0 | 0          |          0 |          0 |
 | Rich2Gas/thetaRec         | "Rich2Gas Reconstructed Ch Theta - All photon |    0    |          0 | 0          |          0 |          0 |
RiCKResDownTight  SUCCESS Booked 10 Histogram(s) : 1D=10
RiCKResDownTight  SUCCESS 1D histograms in directory "RICH/RiCKResDownTight" : 10
 | ID                        |   Title                                       |    #    |     Mean   |    RMS     |  Skewness  |  Kurtosis  |
 | Rich1Gas/bottom/ckResAllP | "Rich1Gas bottom Rec-Exp Cktheta - All photon |    0    |          0 | 0          |          0 |          0 |
 | Rich1Gas/ckResAll         | "Rich1Gas Rec-Exp Cktheta - All photons"      |    0    |          0 | 0          |          0 |          0 |
 | Rich1Gas/phiRec           | "Rich1Gas Reconstructed Ch Phi - All photons" |    0    |          0 | 0          |          0 |          0 |
 | Rich1Gas/thetaRec         | "Rich1Gas Reconstructed Ch Theta - All photon |    0    |          0 | 0          |          0 |          0 |
 | Rich1Gas/top/ckResAllPerP | "Rich1Gas top Rec-Exp Cktheta - All photons"  |    0    |          0 | 0          |          0 |          0 |
 | Rich2Gas/ASide-left/ckRes | "Rich2Gas ASide-left Rec-Exp Cktheta - All ph |    0    |          0 | 0          |          0 |          0 |
 | Rich2Gas/CSide-right/ckRe | "Rich2Gas CSide-right Rec-Exp Cktheta - All p |    0    |          0 | 0          |          0 |          0 |
 | Rich2Gas/ckResAll         | "Rich2Gas Rec-Exp Cktheta - All photons"      |    0    |          0 | 0          |          0 |          0 |
 | Rich2Gas/phiRec           | "Rich2Gas Reconstructed Ch Phi - All photons" |    0    |          0 | 0          |          0 |          0 |
 | Rich2Gas/thetaRec         | "Rich2Gas Reconstructed Ch Theta - All photon |    0    |          0 | 0          |          0 |          0 |
RiUpTrkEff        SUCCESS Booked 17 Histogram(s) : 1D=12 1DProf=5
RiUpTrkEff        SUCCESS 1D histograms in directory "RICH/RiUpTrkEff" : 12
 | ID                        |   Title                                       |    #    |     Mean   |    RMS     |  Skewness  |  Kurtosis  |
 | All/Rejected/Chi2PDOF     | "Track Chi^2 / D.O.F."                        |    0    |          0 | 0          |          0 |          0 |
 | All/Rejected/CloneDist    | "Track Clone Distance"                        |    0    |          0 | 0          |          0 |          0 |
 | All/Rejected/GhostProb    | "Track Ghost Probability"                     |    0    |          0 | 0          |          0 |          0 |
 | All/Rejected/P            | "Track Momentum"                              |    0    |          0 | 0          |          0 |          0 |
 | All/Rejected/Pt           | "Track Transverse Momentum"                   |    0    |          0 | 0          |          0 |          0 |
 | All/Selected/Chi2PDOF     | "Track Chi^2 / D.O.F."                        |    0    |          0 | 0          |          0 |          0 |
 | All/Selected/CloneDist    | "Track Clone Distance"                        |    0    |          0 | 0          |          0 |          0 |
 | All/Selected/GhostProb    | "Track Ghost Probability"                     |    0    |          0 | 0          |          0 |          0 |
 | All/Selected/P            | "Track Momentum"                              |    0    |          0 | 0          |          0 |          0 |
 | All/Selected/Pt           | "Track Transverse Momentum"                   |    0    |          0 | 0          |          0 |          0 |
 | nRichTracks               | "# Rich Tracks / Event"                       |    0    |          0 | 0          |          0 |          0 |
 | nTracks                   | "# Tracks / Event"                            |    0    |          0 | 0          |          0 |          0 |
RiUpTrkEff        SUCCESS 1D profile histograms in directory "RICH/RiUpTrkEff" : 5
 | ID                        |   Title                                       |    #    |     Mean   |    RMS     |  Skewness  |  Kurtosis  |
 | All/effVChi2PDOF          | "RICH Track Sel. Eff. V Chi^2 / D.O.F."       |    0    |          0 | 0          |          0 |          0 |
 | All/effVCloneDist         | "RICH Track Sel. Eff. V Clone Distance"       |    0    |          0 | 0          |          0 |          0 |
 | All/effVGhostProb         | "RICH Track Sel. Eff. V Ghost Probability"    |    0    |          0 | 0          |          0 |          0 |
 | All/effVP                 | "RICH Track Sel. Eff. V P"                    |    0    |          0 | 0          |          0 |          0 |
 | All/effVPt                | "RICH Track Sel. Eff. V Pt"                   |    0    |          0 | 0          |          0 |          0 |
RiCKResUp         SUCCESS Booked 10 Histogram(s) : 1D=10
RiCKResUp         SUCCESS 1D histograms in directory "RICH/RiCKResUp" : 10
 | ID                        |   Title                                       |    #    |     Mean   |    RMS     |  Skewness  |  Kurtosis  |
 | Rich1Gas/bottom/ckResAllP | "Rich1Gas bottom Rec-Exp Cktheta - All photon |    0    |          0 | 0          |          0 |          0 |
 | Rich1Gas/ckResAll         | "Rich1Gas Rec-Exp Cktheta - All photons"      |    0    |          0 | 0          |          0 |          0 |
 | Rich1Gas/phiRec           | "Rich1Gas Reconstructed Ch Phi - All photons" |    0    |          0 | 0          |          0 |          0 |
 | Rich1Gas/thetaRec         | "Rich1Gas Reconstructed Ch Theta - All photon |    0    |          0 | 0          |          0 |          0 |
 | Rich1Gas/top/ckResAllPerP | "Rich1Gas top Rec-Exp Cktheta - All photons"  |    0    |          0 | 0          |          0 |          0 |
 | Rich2Gas/ASide-left/ckRes | "Rich2Gas ASide-left Rec-Exp Cktheta - All ph |    0    |          0 | 0          |          0 |          0 |
 | Rich2Gas/CSide-right/ckRe | "Rich2Gas CSide-right Rec-Exp Cktheta - All p |    0    |          0 | 0          |          0 |          0 |
 | Rich2Gas/ckResAll         | "Rich2Gas Rec-Exp Cktheta - All photons"      |    0    |          0 | 0          |          0 |          0 |
 | Rich2Gas/phiRec           | "Rich2Gas Reconstructed Ch Phi - All photons" |    0    |          0 | 0          |          0 |          0 |
 | Rich2Gas/thetaRec         | "Rich2Gas Reconstructed Ch Theta - All photon |    0    |          0 | 0          |          0 |          0 |
RiCKResUpTight    SUCCESS Booked 10 Histogram(s) : 1D=10
RiCKResUpTight    SUCCESS 1D histograms in directory "RICH/RiCKResUpTight" : 10
 | ID                        |   Title                                       |    #    |     Mean   |    RMS     |  Skewness  |  Kurtosis  |
 | Rich1Gas/bottom/ckResAllP | "Rich1Gas bottom Rec-Exp Cktheta - All photon |    0    |          0 | 0          |          0 |          0 |
 | Rich1Gas/ckResAll         | "Rich1Gas Rec-Exp Cktheta - All photons"      |    0    |          0 | 0          |          0 |          0 |
 | Rich1Gas/phiRec           | "Rich1Gas Reconstructed Ch Phi - All photons" |    0    |          0 | 0          |          0 |          0 |
 | Rich1Gas/thetaRec         | "Rich1Gas Reconstructed Ch Theta - All photon |    0    |          0 | 0          |          0 |          0 |
 | Rich1Gas/top/ckResAllPerP | "Rich1Gas top Rec-Exp Cktheta - All photons"  |    0    |          0 | 0          |          0 |          0 |
 | Rich2Gas/ASide-left/ckRes | "Rich2Gas ASide-left Rec-Exp Cktheta - All ph |    0    |          0 | 0          |          0 |          0 |
 | Rich2Gas/CSide-right/ckRe | "Rich2Gas CSide-right Rec-Exp Cktheta - All p |    0    |          0 | 0          |          0 |          0 |
 | Rich2Gas/ckResAll         | "Rich2Gas Rec-Exp Cktheta - All photons"      |    0    |          0 | 0          |          0 |          0 |
 | Rich2Gas/phiRec           | "Rich2Gas Reconstructed Ch Phi - All photons" |    0    |          0 | 0          |          0 |          0 |
 | Rich2Gas/thetaRec         | "Rich2Gas Reconstructed Ch Theta - All photon |    0    |          0 | 0          |          0 |          0 |
RiLongTrkEff      SUCCESS Booked 17 Histogram(s) : 1D=12 1DProf=5
RiLongTrkEff      SUCCESS 1D histograms in directory "RICH/RiLongTrkEff" : 12
 | ID                        |   Title                                       |    #    |     Mean   |    RMS     |  Skewness  |  Kurtosis  |
 | All/Rejected/Chi2PDOF     | "Track Chi^2 / D.O.F."                        |    0    |          0 | 0          |          0 |          0 |
 | All/Rejected/CloneDist    | "Track Clone Distance"                        |    0    |          0 | 0          |          0 |          0 |
 | All/Rejected/GhostProb    | "Track Ghost Probability"                     |    0    |          0 | 0          |          0 |          0 |
 | All/Rejected/P            | "Track Momentum"                              |    0    |          0 | 0          |          0 |          0 |
 | All/Rejected/Pt           | "Track Transverse Momentum"                   |    0    |          0 | 0          |          0 |          0 |
 | All/Selected/Chi2PDOF     | "Track Chi^2 / D.O.F."                        |    0    |          0 | 0          |          0 |          0 |
 | All/Selected/CloneDist    | "Track Clone Distance"                        |    0    |          0 | 0          |          0 |          0 |
 | All/Selected/GhostProb    | "Track Ghost Probability"                     |    0    |          0 | 0          |          0 |          0 |
 | All/Selected/P            | "Track Momentum"                              |    0    |          0 | 0          |          0 |          0 |
 | All/Selected/Pt           | "Track Transverse Momentum"                   |    0    |          0 | 0          |          0 |          0 |
 | nRichTracks               | "# Rich Tracks / Event"                       |    0    |          0 | 0          |          0 |          0 |
 | nTracks                   | "# Tracks / Event"                            |    0    |          0 | 0          |          0 |          0 |
RiLongTrkEff      SUCCESS 1D profile histograms in directory "RICH/RiLongTrkEff" : 5
 | ID                        |   Title                                       |    #    |     Mean   |    RMS     |  Skewness  |  Kurtosis  |
 | All/effVChi2PDOF          | "RICH Track Sel. Eff. V Chi^2 / D.O.F."       |    0    |          0 | 0          |          0 |          0 |
 | All/effVCloneDist         | "RICH Track Sel. Eff. V Clone Distance"       |    0    |          0 | 0          |          0 |          0 |
 | All/effVGhostProb         | "RICH Track Sel. Eff. V Ghost Probability"    |    0    |          0 | 0          |          0 |          0 |
 | All/effVP                 | "RICH Track Sel. Eff. V P"                    |    0    |          0 | 0          |          0 |          0 |
 | All/effVPt                | "RICH Track Sel. Eff. V Pt"                   |    0    |          0 | 0          |          0 |          0 |
RiCKResLong       SUCCESS Booked 10 Histogram(s) : 1D=10
RiCKResLong       SUCCESS 1D histograms in directory "RICH/RiCKResLong" : 10
 | ID                        |   Title                                       |    #    |     Mean   |    RMS     |  Skewness  |  Kurtosis  |
 | Rich1Gas/bottom/ckResAllP | "Rich1Gas bottom Rec-Exp Cktheta - All photon |    0    |          0 | 0          |          0 |          0 |
 | Rich1Gas/ckResAll         | "Rich1Gas Rec-Exp Cktheta - All photons"      |    0    |          0 | 0          |          0 |          0 |
 | Rich1Gas/phiRec           | "Rich1Gas Reconstructed Ch Phi - All photons" |    0    |          0 | 0          |          0 |          0 |
 | Rich1Gas/thetaRec         | "Rich1Gas Reconstructed Ch Theta - All photon |    0    |          0 | 0          |          0 |          0 |
 | Rich1Gas/top/ckResAllPerP | "Rich1Gas top Rec-Exp Cktheta - All photons"  |    0    |          0 | 0          |          0 |          0 |
 | Rich2Gas/ASide-left/ckRes | "Rich2Gas ASide-left Rec-Exp Cktheta - All ph |    0    |          0 | 0          |          0 |          0 |
 | Rich2Gas/CSide-right/ckRe | "Rich2Gas CSide-right Rec-Exp Cktheta - All p |    0    |          0 | 0          |          0 |          0 |
 | Rich2Gas/ckResAll         | "Rich2Gas Rec-Exp Cktheta - All photons"      |    0    |          0 | 0          |          0 |          0 |
 | Rich2Gas/phiRec           | "Rich2Gas Reconstructed Ch Phi - All photons" |    0    |          0 | 0          |          0 |          0 |
 | Rich2Gas/thetaRec         | "Rich2Gas Reconstructed Ch Theta - All photon |    0    |          0 | 0          |          0 |          0 |
RiCKResLongTight  SUCCESS Booked 10 Histogram(s) : 1D=10
RiCKResLongTight  SUCCESS 1D histograms in directory "RICH/RiCKResLongTight" : 10
 | ID                        |   Title                                       |    #    |     Mean   |    RMS     |  Skewness  |  Kurtosis  |
 | Rich1Gas/bottom/ckResAllP | "Rich1Gas bottom Rec-Exp Cktheta - All photon |    0    |          0 | 0          |          0 |          0 |
 | Rich1Gas/ckResAll         | "Rich1Gas Rec-Exp Cktheta - All photons"      |    0    |          0 | 0          |          0 |          0 |
 | Rich1Gas/phiRec           | "Rich1Gas Reconstructed Ch Phi - All photons" |    0    |          0 | 0          |          0 |          0 |
 | Rich1Gas/thetaRec         | "Rich1Gas Reconstructed Ch Theta - All photon |    0    |          0 | 0          |          0 |          0 |
 | Rich1Gas/top/ckResAllPerP | "Rich1Gas top Rec-Exp Cktheta - All photons"  |    0    |          0 | 0          |          0 |          0 |
 | Rich2Gas/ASide-left/ckRes | "Rich2Gas ASide-left Rec-Exp Cktheta - All ph |    0    |          0 | 0          |          0 |          0 |
 | Rich2Gas/CSide-right/ckRe | "Rich2Gas CSide-right Rec-Exp Cktheta - All p |    0    |          0 | 0          |          0 |          0 |
 | Rich2Gas/ckResAll         | "Rich2Gas Rec-Exp Cktheta - All photons"      |    0    |          0 | 0          |          0 |          0 |
 | Rich2Gas/phiRec           | "Rich2Gas Reconstructed Ch Phi - All photons" |    0    |          0 | 0          |          0 |          0 |
 | Rich2Gas/thetaRec         | "Rich2Gas Reconstructed Ch Theta - All photon |    0    |          0 | 0          |          0 |          0 |
MuonPIDMonitorDown   INFO ----------------------------------------------------------------
MuonPIDMonitorDown   INFO Total Number of Tracks analysed: 0
MuonPIDMonitorDown   INFO Total Number of PreSelected Tracks: 0
MuonPIDMonitorDown   INFO Total Number of IsMuonLoose Candidates: 0
MuonPIDMonitorDown   INFO Total Number of IsMuon Candidates: 0
MuonPIDMonitorDown   INFO ----------------------------------------------------------------
MuonPIDMonitorDownSUCCESS Booked 69 Histogram(s) : 1D=58 1DProf=11
MuonPIDMonitorLong   INFO ----------------------------------------------------------------
MuonPIDMonitorLong   INFO Total Number of Tracks analysed: 0
MuonPIDMonitorLong   INFO Total Number of PreSelected Tracks: 0
MuonPIDMonitorLong   INFO Total Number of IsMuonLoose Candidates: 0
MuonPIDMonitorLong   INFO Total Number of IsMuon Candidates: 0
MuonPIDMonitorLong   INFO ----------------------------------------------------------------
MuonPIDMonitorLongSUCCESS Booked 69 Histogram(s) : 1D=58 1DProf=11
MuonTrackFitter      INFO   Fitting performance   :     0.00 %
MuonTrackAligMo...SUCCESS Booked 54 Histogram(s) : 1D=34 1DProf=20
OverallEventPro...SUCCESS Booked 1 Histogram(s) : 1D=1
TrackEventProcTimeSUCCESS Booked 1 Histogram(s) : 1D=1
VertexEventProc...SUCCESS Booked 1 Histogram(s) : 1D=1
RichEventProcTime SUCCESS Booked 1 Histogram(s) : 1D=1
CaloFutureEvent...SUCCESS Booked 1 Histogram(s) : 1D=1
MuonEventProcTime SUCCESS Booked 1 Histogram(s) : 1D=1
ProtoEventProcTimeSUCCESS Booked 1 Histogram(s) : 1D=1
ProcStatAbortMoni SUCCESS Booked 1 Histogram(s) : 1DProf=1
TrackVertexMonitorSUCCESS Booked 29 Histogram(s) : 1D=15 1DProf=14
AlignmentOnline...SUCCESS Booked 34 Histogram(s) : 1D=34
TrackFitMatchMo...SUCCESS Booked 10 Histogram(s) : 1D=5 1DProf=5
TrackAlignMonitor    INFO Number of elements in jacobian map: 0
TrackAlignMonitor SUCCESS Booked 27 Histogram(s) : 1D=18 1DProf=9
TrackMuonMatchM...SUCCESS Booked 16 Histogram(s) : 1D=16
ChargedProtoPMoni    INFO ====================================================================================================================================================
ChargedProtoPMoni    INFO  # Tracks Per Event         |    Track     |     RICH         MUON         ECAL         BREM         SPD          PRS          HCAL     VELO(dE/dx)
ChargedProtoPMoni    INFO ----------------------------------------------------------------------------------------------------------------------------------------------------
ChargedProtoPMoni    INFO ====================================================================================================================================================
GenFSRMerge          INFO ========== Merging GenFSR ==========
DstWriter            INFO Events output: 0
FSROutputStream...   INFO Set up File Summary Record
FSROutputStream...   INFO Events output: 1
EventLoopMgr         INFO Histograms converted successfully according to request.
TransportSvc      SUCCESS  GEOMETRY ERRORS: 'Skip'     map has the size 0

TransportSvc      SUCCESS  GEOMETRY ERRORS: 'Recover'  map has the size 0

TransportSvc      SUCCESS  GEOMETRY ERRORS: 'Codes'    map has the size 0

TransportSvc         INFO Reset the static pointer to DetDesc::IGeometyrErrorSvc
FileRecordCnvSvc     INFO Disconnected data IO:008610A7-3964-E111-A3C7-001E4F3D8360 [Brunel.dst]
ToolSvc              INFO Removing all tools created by ToolSvc
FutureEcalCovar...SUCCESS Number of counters : 1
 |    Counter                                      |     #     |    sum     | mean/eff^* | rms/err^*  |     min     |     max     |
 | "parameter updated"                             |         1 |
BrunelInit.Brun...SUCCESS Booked 2 Histogram(s) : 1D=2
BrunelInit.Brun...SUCCESS Number of counters : 2
 |    Counter                                      |     #     |    sum     | mean/eff^* | rms/err^*  |     min     |     max     |
 | "Delta Memory/MB"                               |         0 |          0 |     0.0000 |     0.0000 | 1.7977e+308 |-1.7977e+308 |
 | "Total Memory/MB"                               |         0 |          0 |     0.0000 |     0.0000 | 1.7977e+308 |-1.7977e+308 |
ToolSvc.TrackVe...SUCCESS Number of counters : 1
 |    Counter                                      |     #     |    sum     | mean/eff^* | rms/err^*  |     min     |     max     |
 | "Number of tracks seen"                         |         1 |          0 |     0.0000 |     0.0000 |      0.0000 |      0.0000 |
ChronoStatSvc.f...   INFO  Service finalized successfully
ApplicationMgr       INFO Application Manager Finalized successfully
ApplicationMgr       INFO Application Manager Terminated successfully
